<?xml version="1.0" encoding="UTF-8" standalone="no"?>
<!-- Created with Inkscape (http://www.inkscape.org/) -->

<svg
   xmlns:dc="http://purl.org/dc/elements/1.1/"
   xmlns:cc="http://creativecommons.org/ns#"
   xmlns:rdf="http://www.w3.org/1999/02/22-rdf-syntax-ns#"
   xmlns:svg="http://www.w3.org/2000/svg"
   xmlns="http://www.w3.org/2000/svg"
   xmlns:xlink="http://www.w3.org/1999/xlink"
   xmlns:sodipodi="http://sodipodi.sourceforge.net/DTD/sodipodi-0.dtd"
   xmlns:inkscape="http://www.inkscape.org/namespaces/inkscape"
   version="1.1"
   id="svg2"
   width="85.333336"
   height="85.333336"
   viewBox="0 0 85.333336 85.333336"
   sodipodi:docname="dukeicon.svg"
   inkscape:version="0.92.3 (2405546, 2018-03-11)">
  <metadata
     id="metadata8">
    <rdf:RDF>
      <cc:Work
         rdf:about="">
        <dc:format>image/svg+xml</dc:format>
        <dc:type
           rdf:resource="http://purl.org/dc/dcmitype/StillImage" />
        <dc:title></dc:title>
      </cc:Work>
    </rdf:RDF>
  </metadata>
  <defs
     id="defs6" />
  <sodipodi:namedview
     pagecolor="#ffffff"
     bordercolor="#666666"
     borderopacity="1"
     objecttolerance="10"
     gridtolerance="10"
     guidetolerance="10"
     inkscape:pageopacity="0"
     inkscape:pageshadow="2"
     inkscape:window-width="640"
     inkscape:window-height="480"
     id="namedview4"
     showgrid="false"
     inkscape:zoom="7.7726501"
     inkscape:cx="29.746493"
     inkscape:cy="42.750675"
     inkscape:current-layer="layer1"
     inkscape:snap-object-midpoints="true" />
  <g
     inkscape:groupmode="layer"
     id="layer2"
     inkscape:label="Bitmap"
     style="display:none"
     sodipodi:insensitive="true">
    <image
       width="85.333336"
       height="85.333336"
       preserveAspectRatio="none"
       xlink:href="data:image/png;base64,iVBORw0KGgoAAAANSUhEUgAAAEAAAABACAYAAACqaXHeAAAKQ2lDQ1BJQ0MgcHJvZmlsZQAAeNqd U3dYk/cWPt/3ZQ9WQtjwsZdsgQAiI6wIyBBZohCSAGGEEBJAxYWIClYUFRGcSFXEgtUKSJ2I4qAo uGdBiohai1VcOO4f3Ke1fXrv7e371/u855zn/M55zw+AERImkeaiagA5UoU8Otgfj09IxMm9gAIV SOAEIBDmy8JnBcUAAPADeXh+dLA//AGvbwACAHDVLiQSx+H/g7pQJlcAIJEA4CIS5wsBkFIAyC5U yBQAyBgAsFOzZAoAlAAAbHl8QiIAqg0A7PRJPgUA2KmT3BcA2KIcqQgAjQEAmShHJAJAuwBgVYFS LALAwgCgrEAiLgTArgGAWbYyRwKAvQUAdo5YkA9AYACAmUIszAAgOAIAQx4TzQMgTAOgMNK/4Klf cIW4SAEAwMuVzZdL0jMUuJXQGnfy8ODiIeLCbLFCYRcpEGYJ5CKcl5sjE0jnA0zODAAAGvnRwf44 P5Dn5uTh5mbnbO/0xaL+a/BvIj4h8d/+vIwCBAAQTs/v2l/l5dYDcMcBsHW/a6lbANpWAGjf+V0z 2wmgWgrQevmLeTj8QB6eoVDIPB0cCgsL7SViob0w44s+/zPhb+CLfvb8QB7+23rwAHGaQJmtwKOD /XFhbnauUo7nywRCMW735yP+x4V//Y4p0eI0sVwsFYrxWIm4UCJNx3m5UpFEIcmV4hLpfzLxH5b9 CZN3DQCshk/ATrYHtctswH7uAQKLDljSdgBAfvMtjBoLkQAQZzQyefcAAJO/+Y9AKwEAzZek4wAA vOgYXKiUF0zGCAAARKCBKrBBBwzBFKzADpzBHbzAFwJhBkRADCTAPBBCBuSAHAqhGJZBGVTAOtgE tbADGqARmuEQtMExOA3n4BJcgetwFwZgGJ7CGLyGCQRByAgTYSE6iBFijtgizggXmY4EImFINJKA pCDpiBRRIsXIcqQCqUJqkV1II/ItchQ5jVxA+pDbyCAyivyKvEcxlIGyUQPUAnVAuagfGorGoHPR dDQPXYCWomvRGrQePYC2oqfRS+h1dAB9io5jgNExDmaM2WFcjIdFYIlYGibHFmPlWDVWjzVjHVg3 dhUbwJ5h7wgkAouAE+wIXoQQwmyCkJBHWExYQ6gl7CO0EroIVwmDhDHCJyKTqE+0JXoS+cR4Yjqx kFhGrCbuIR4hniVeJw4TX5NIJA7JkuROCiElkDJJC0lrSNtILaRTpD7SEGmcTCbrkG3J3uQIsoCs IJeRt5APkE+S+8nD5LcUOsWI4kwJoiRSpJQSSjVlP+UEpZ8yQpmgqlHNqZ7UCKqIOp9aSW2gdlAv U4epEzR1miXNmxZDy6Qto9XQmmlnafdoL+l0ugndgx5Fl9CX0mvoB+nn6YP0dwwNhg2Dx0hiKBlr GXsZpxi3GS+ZTKYF05eZyFQw1zIbmWeYD5hvVVgq9ip8FZHKEpU6lVaVfpXnqlRVc1U/1XmqC1Sr VQ+rXlZ9pkZVs1DjqQnUFqvVqR1Vu6k2rs5Sd1KPUM9RX6O+X/2C+mMNsoaFRqCGSKNUY7fGGY0h FsYyZfFYQtZyVgPrLGuYTWJbsvnsTHYF+xt2L3tMU0NzqmasZpFmneZxzQEOxrHg8DnZnErOIc4N znstAy0/LbHWaq1mrX6tN9p62r7aYu1y7Rbt69rvdXCdQJ0snfU6bTr3dQm6NrpRuoW623XP6j7T Y+t56Qn1yvUO6d3RR/Vt9KP1F+rv1u/RHzcwNAg2kBlsMThj8MyQY+hrmGm40fCE4agRy2i6kcRo o9FJoye4Ju6HZ+M1eBc+ZqxvHGKsNN5l3Gs8YWJpMtukxKTF5L4pzZRrmma60bTTdMzMyCzcrNis yeyOOdWca55hvtm82/yNhaVFnMVKizaLx5balnzLBZZNlvesmFY+VnlW9VbXrEnWXOss623WV2xQ G1ebDJs6m8u2qK2brcR2m23fFOIUjynSKfVTbtox7PzsCuya7AbtOfZh9iX2bfbPHcwcEh3WO3Q7 fHJ0dcx2bHC866ThNMOpxKnD6VdnG2ehc53zNRemS5DLEpd2lxdTbaeKp26fesuV5RruutK10/Wj m7ub3K3ZbdTdzD3Ffav7TS6bG8ldwz3vQfTw91jicczjnaebp8LzkOcvXnZeWV77vR5Ps5wmntYw bcjbxFvgvct7YDo+PWX6zukDPsY+Ap96n4e+pr4i3z2+I37Wfpl+B/ye+zv6y/2P+L/hefIW8U4F YAHBAeUBvYEagbMDawMfBJkEpQc1BY0FuwYvDD4VQgwJDVkfcpNvwBfyG/ljM9xnLJrRFcoInRVa G/owzCZMHtYRjobPCN8Qfm+m+UzpzLYIiOBHbIi4H2kZmRf5fRQpKjKqLupRtFN0cXT3LNas5Fn7 Z72O8Y+pjLk722q2cnZnrGpsUmxj7Ju4gLiquIF4h/hF8ZcSdBMkCe2J5MTYxD2J43MC52yaM5zk mlSWdGOu5dyiuRfm6c7Lnnc8WTVZkHw4hZgSl7I/5YMgQlAvGE/lp25NHRPyhJuFT0W+oo2iUbG3 uEo8kuadVpX2ON07fUP6aIZPRnXGMwlPUit5kRmSuSPzTVZE1t6sz9lx2S05lJyUnKNSDWmWtCvX MLcot09mKyuTDeR55m3KG5OHyvfkI/lz89sVbIVM0aO0Uq5QDhZML6greFsYW3i4SL1IWtQz32b+ 6vkjC4IWfL2QsFC4sLPYuHhZ8eAiv0W7FiOLUxd3LjFdUrpkeGnw0n3LaMuylv1Q4lhSVfJqedzy jlKD0qWlQyuCVzSVqZTJy26u9Fq5YxVhlWRV72qX1VtWfyoXlV+scKyorviwRrjm4ldOX9V89Xlt 2treSrfK7etI66Trbqz3Wb+vSr1qQdXQhvANrRvxjeUbX21K3nShemr1js20zcrNAzVhNe1bzLas 2/KhNqP2ep1/XctW/a2rt77ZJtrWv913e/MOgx0VO97vlOy8tSt4V2u9RX31btLugt2PGmIbur/m ft24R3dPxZ6Pe6V7B/ZF7+tqdG9s3K+/v7IJbVI2jR5IOnDlm4Bv2pvtmne1cFoqDsJB5cEn36Z8 e+NQ6KHOw9zDzd+Zf7f1COtIeSvSOr91rC2jbaA9ob3v6IyjnR1eHUe+t/9+7zHjY3XHNY9XnqCd KD3x+eSCk+OnZKeenU4/PdSZ3Hn3TPyZa11RXb1nQ8+ePxd07ky3X/fJ897nj13wvHD0Ivdi2yW3 S609rj1HfnD94UivW2/rZffL7Vc8rnT0Tes70e/Tf/pqwNVz1/jXLl2feb3vxuwbt24m3Ry4Jbr1 +Hb27Rd3Cu5M3F16j3iv/L7a/eoH+g/qf7T+sWXAbeD4YMBgz8NZD+8OCYee/pT/04fh0kfMR9Uj RiONj50fHxsNGr3yZM6T4aeypxPPyn5W/3nrc6vn3/3i+0vPWPzY8Av5i8+/rnmp83Lvq6mvOscj xx+8znk98ab8rc7bfe+477rfx70fmSj8QP5Q89H6Y8en0E/3Pud8/vwv94Tz+4A5JREAAAAGYktH RAD/AP8A/6C9p5MAAAAJcEhZcwAACxMAAAsTAQCanBgAAAAHdElNRQfaCR0GOQjUwAHgAAAHk0lE QVR42u2aW2wT2RnH/7bHMx47jh07viZyLo4dm9gTe6baQtUiChVbqkqtxAOhD6jSChWhDXmgqoTY fQAeKqRW2ypNu0J9a9WuCkQirJR9gK5E0WppStMkdEMUQkpCrktiO4nj2I799SGxNy1hcyGOveCf NJItHZ1zvv/5LmfOGaBIkSJFihQpUiQPGI1Gvcfj+eFrabzf7z+jVqvTGo0mDYB5bQzX6XSmmpqa cQCUeXw+37uvhfEul+t7qytOAIjneQJARqMx/sobLwjC72UyGQEgtVpNkiTR/v37iWVZAkANDQ0/ yse85Lsxhtfrvdfb2/sWEcFsNkMURWi1WsjlclRUVAAAIpFIWz4EUOS4f662tvbJ4OCgBwDq6urg dDohl3+hu0ajwcTEBMLhsMrlcnXNzs4OvhIeoNfrjTabbebx48d2hmEgCAIqKyufa6dUKmG32wEA S0tLf9xtD5DlolOHw+Gam5v7LBwOMyzLQhAElJSUrNv2a1NT2DMzA20kAlkyiXQ6DYVcTpxSucAq lZ8B+PPhhYVff2UEMJvNlbFY7D/z8/MKnufh9/uhVqufa/ftp0/hHxnBciKxcRwplUme4351eGHh ZwUtgN1ut8ZisZFQKKTkeR6NjY1QqVTPtXvrwQNwz55l/7NKJfZUVUHFslCxLIgIyeVlDIyOYnZ+ HkS0sofQaPrejEaFQhWAsdvts+Pj41qO4xAMBjc0nlEocDAYhO4F4QEAqVQKXQMDGJ2ezokIO1YF vF5v1/DwcDXDMAgEAuu6/b6JCVSOjq5kf5UK39+3DzzHfXmWlstRaTKBiPAsEkE8mbScLClJ/CGR uFswVUAQhF/09/eLMpkMPp8PGo1m3XbBycns7+++8cb/lMON8NXUgFMqAQDLqdTbBVMG3W73kb6+ vrOrv6HX61882Pz8yltgaemWjM9QZbUCAGLxuK0gBDCZTLqxsbEPiQhWqxU22+bmVbpOeGyGdDpd WBshg8HwSTQalfM8j7q6uo0N0GoBAMNrQmGzEBEejY0BAHiOm8i7AG63+8jAwMCe1QQIhtn4lb57 1YUB4B8DA1sy/m+9vV+UG4XiN/kugzKLxbIwNTW1ZV9+n+dhiMVWNk16PfY2NGST23rE4nF83N2N 6NJSTsrgtgRobGz8SU9Pz/sWiwVTU1N4GREAoKK8HJayMpRptVAyDJZTKUyFQgjNz+Pp559n22k1 mgdHolF/vjdCnM1mC09MTKja2tpw+vTpbQ08+M47ePjee1haXNx4h8Wy6ATwd6/3nz09PVJeDzYC gcC7AMhqtVIymaSX5UlbG907cIA+Ki+ndoWC/gJQu0JBH5WX070DB+hJWxv19/dTaWkpASBRFD/I p/0yh8MxB4CuXLlCu8mNGzeyZ4iiKF7Oi/Uej+cwAOI4jhYXF2m3aW1tJQDEMAzV19e/uesCBIPB vwKg5uZmyhenTp0iAGSxWJZ0Op1+N+3nSktLUwCor68vbwLE43Gqra0lALS6ILuD3+//MQCqrq6m fNPd3U0sy5JMJiOv1/tSN0ub3gkyDHMcAJqampBvAoEAzp07ByJCJBL5EwBVzgetqakJAaBbt25R IZBIJMhutxMAkiQp50fqaoZhCAAtLCxQodDe3k4ASKfTpcrKynQ5s97tdh8CQLW1tVRoSJKU2Rv8 Lmc5gOd5CQB8Ph8KjcuXV/ZEw8PDJ41GozYnAigUCjcAVFVVFZwAhw4dgiiKCIVCCofD8dNcVQEz gHVvdgqB5uZmAMDc3NzbORGAiFQAwLJsQQpw/PhxAMDQ0JDB6XRKufAAAMD169cLUgCO47LnkXq9 /tSOCyCXy6cBQCaToVDZu3cvACCRSOzbcQHS6fQ4AOh0uoIV4OzZswCASCRSteMCRKPRjwHg/v37 BSuAIKwcE05PT2ty0b9SrVanAdDw8DAVKpkDE7PZbNnpJJh0uVzdAHD+/PlNq5ZKpdDT04OOjg5c vXoVnZ2dmNzGncBm4Xkeq9XKvOOdu1yub2U+crp79+6XrsTDhw/pxIkTpNfrs6uy9hEEgS5cuLDj 3mQymQgAuVyu7+TqNfRTAMSyLA0NDa07iTNnzpBSqcwaa7fbYz6fb0AQhH95PJ6RtZ/JAaCjR4/S 2NjYjoZAdXX113MigNlstlgslnhmoJaWFrp58ybdvn2bLl26lJ2AXC6nYDB42263u9fphm1oaGgS BOEez/NpAFRWVkZ37tzZMQEMBkNFzuLMZrM53G732HquDYC0Wm3K7/ef3ExfVqu1yuPxPAFAMpmM Ll68SKlUalvGz8zMZA9MAXC5rjqMJEk/d7vd406nc8bpdD7z+Xz/FkXxlyaTybrVCiOKYmdGwIqK Curo6NiyAAcPHszE/xS+igQCgRaj0ZjMCCFJEl27do3S6fSGxjudzqwHbtb7ChVeFMXLBoNheU1I 0bFjx6i1tZW6urooGo1mDX/06BHV19evvTD5AK8CRqNRK0nSby0Wy9KLcs3/551AINCynbFkhS6G 0+n8hk6na0qlUt8Mh8N1k5OT2ng8njmphtfrfRCJRH4wMjLyGK8JSpPJ5Fyt9RoUKVKkSJHt81+e VxnvgjAOagAAAABJRU5ErkJggg== "
       id="image10"
       x="0"
       y="0" />
  </g>
  <g
     inkscape:groupmode="layer"
     id="layer1"
     inkscape:label="Vector"
     style="display:inline">
    <path
       id="path4526"
       style="fill:#555753;fill-opacity:1;fill-rule:evenodd;stroke:#2e3436;stroke-width:3;stroke-linecap:butt;stroke-linejoin:miter;stroke-miterlimit:4;stroke-dasharray:none;stroke-opacity:1"
       d="M 19.836942,35.628286 55.002329,35.94508 M 43.068245,12.576446 c 2.671632,8.375514 7.550624,17.044005 11.934084,23.368634 3.590842,5.181008 6.032723,5.899927 12.680551,16.453313 7.111849,15.938531 -1.32627,25.837232 -9.888926,24.075252 C 47.947336,74.028306 42.000543,66.327683 36.770301,66.359231 29.047174,66.405816 27.577683,70.804285 22.427692,70.935457 8.2955568,67.783788 12.957426,48.217962 19.836942,35.628286 26.126148,24.118893 34.849312,17.668011 43.068245,12.576446 Z"
       inkscape:connector-curvature="0"
       sodipodi:nodetypes="cccsccscsc" />
    <path
       style="color:#000000;display:inline;overflow:visible;visibility:visible;opacity:1;fill:#ef2929;fill-opacity:1;fill-rule:evenodd;stroke:#cc0000;stroke-width:3;stroke-linecap:round;stroke-linejoin:miter;stroke-miterlimit:4;stroke-dasharray:none;stroke-dashoffset:0;stroke-opacity:1;marker:none;enable-background:new"
       id="path16"
       sodipodi:type="arc"
       sodipodi:cx="48.992531"
       sodipodi:cy="30.429548"
       sodipodi:rx="11.501976"
       sodipodi:ry="8.2413473"
       sodipodi:start="1.776951"
       sodipodi:end="1.7724564"
       d="M 46.638105,38.496387 A 11.501976,8.2413473 0 0 1 37.731468,28.75163 11.501976,8.2413473 0 0 1 51.32165,22.358938 11.501976,8.2413473 0 0 1 60.258828,32.089329 11.501976,8.2413473 0 0 1 46.688731,38.503888"
       sodipodi:open="true" />
    <path
       style="color:#000000;display:inline;overflow:visible;visibility:visible;opacity:1;fill:#eeeeec;fill-opacity:1;fill-rule:evenodd;stroke:none;stroke-width:0.38596874;stroke-linecap:round;stroke-linejoin:miter;stroke-miterlimit:4;stroke-dasharray:none;stroke-dashoffset:0;stroke-opacity:1;marker:none;enable-background:new"
       d="m 58.552579,75.051328 c -1.123604,-0.175938 -3.702068,-1.076217 -5.355317,-1.869825 -2.114944,-1.015234 -3.391201,-1.764173 -7.085694,-4.158061 -5.359669,-3.472856 -6.901424,-4.131787 -9.667473,-4.131787 -3.245338,0 -5.613555,0.717504 -9.303314,2.81865 -1.755124,0.99946 -2.629644,1.370661 -3.689051,1.565864 -0.976852,0.179993 -1.753065,0.0051 -3.282662,-0.739803 -3.215505,-1.565841 -4.96081,-4.58138 -5.333267,-9.214822 -0.42779,-5.321801 1.482609,-13.087627 5.001782,-20.332386 l 0.864376,-1.779451 6.368484,0.01032 c 3.502666,0.0057 7.786919,0.04645 9.520562,0.0906 l 3.152078,0.08027 0.879886,0.555877 c 3.694651,2.334132 9.010795,2.900674 13.576955,1.446898 l 1.205246,-0.383727 0.402957,0.491827 c 0.221626,0.270505 1.155595,1.333219 2.075488,2.361586 3.025825,3.382635 4.784567,5.654497 7.104976,9.177883 1.430884,2.172703 1.976846,3.35331 2.784585,6.021496 1.207238,3.987844 1.321526,8.365029 0.296789,11.366964 -0.663705,1.944306 -1.637602,3.461788 -3.012495,4.693931 -0.78091,0.699831 -2.394717,1.549236 -3.393346,1.786042 -0.887379,0.210425 -2.270285,0.273383 -3.111545,0.141654 z"
       id="path4555"
       inkscape:connector-curvature="0" />
  </g>
</svg>
