# File produced by Open Asset Import Library (http://www.assimp.sf.net)
# (assimp v4.1.0)

newmtl Brush.001
Kd 1 1 1
Ks 0 0 0
d 1
illum 1
map_Kd lantern.jpg

newmtl Brush.002
Kd 1 1 1
Ks 0 0 0
d 1
illum 1
map_Kd woodPost.png

newmtl Brush.003
Kd 1 1 1
Ks 0 0 0
d 1
illum 1
map_Kd wood_planks1.jpg

newmtl Brush.004
Kd 1 1 1
Ks 0 0 0
d 1
illum 1
map_Kd rope.jpg

newmtl Brush.005
Kd 1 1 1
Ks 0 0 0
d 1
illum 1
map_Kd cracked-earth-texture.jpg

newmtl Brush.006
Kd 1 1 1
Ks 0 0 0
d 1
illum 1
map_Kd road_cave.jpg

newmtl Brush.007
Kd 1 1 1
Ks 0 0 0
d 1
illum 1
map_Kd rock_grey.jpg

newmtl rock
Kd 0.09083400666713715 0.01138744316995144 0
Ks 0 0 0
d 1
illum 1

newmtl Brush.008
Kd 1 1 1
Ks 0 0 0
d 1
illum 1
map_Kd lava.png

