<?xml version="1.0" encoding="UTF-8"?><COLLADA xmlns="http://www.collada.org/2005/11/COLLADASchema" version="1.4.1">
<asset>
<contributor>
<author>VoxelShop User</author>
<authoring_tool>VoxelShop V1.5.02</authoring_tool>
</contributor>
<created>2016-03-02T22:48:56</created>
<modified>2016-03-02T22:48:56</modified>
<unit meter="1" name="meter"/>
<up_axis>Z_UP</up_axis>
</asset>
<library_images>
<image id="Veh-002b_texture0-image" name="Veh-002b_texture0-image">
<init_from>Veh-002b_texture0.png</init_from>
</image>
</library_images>
<library_effects>
<effect id="lambert0-fx">
<profile_COMMON>
<newparam sid="Veh-002b_texture0-surface">
<surface type="2D">
<init_from>Veh-002b_texture0-image</init_from>
</surface>
</newparam>
<newparam sid="Veh-002b_texture0-sampler">
<sampler2D>
<source>Veh-002b_texture0-surface</source>
</sampler2D>
</newparam>
<technique sid="common">
<lambert>
<emission>
<color>0 0 0 1</color>
</emission>
<ambient>
<color>0 0 0 1</color>
</ambient>
<diffuse>
<texture texcoord="TEX0" texture="Veh-002b_texture0-sampler"/>
</diffuse>
</lambert>
</technique>
</profile_COMMON>
</effect>
</library_effects>
<library_materials>
<material id="lambert0-material" name="lambert0">
<instance_effect url="#lambert0-fx"/>
</material>
</library_materials>
<library_geometries>
<geometry id="Plane-tex-mesh" name="Plane-tex">
<mesh>
<source id="Plane-tex-mesh-positions">
<float_array count="288" id="Plane-tex-mesh-positions-array">3 19 -8 3 25 -10 3 19 -10 3 25 -8 5 25 -8 5 27 -10 5 25 -10 5 27 -8 -7 25 -8 -7 27 -10 -7 25 -10 -7 27 -8 -9 19 -8 -9 25 -10 -9 19 -10 -9 25 -8 -11 -19 -4 -11 -13 -8 -11 -19 -8 -11 -13 -4 -11 15 -4 -11 21 -8 -11 15 -8 -11 21 -4 -15 -13 10 -15 -11 4 -15 -13 4 -15 13 10 -15 13 0 -15 -11 2 -15 -13 -4 -15 -13 0 -15 -13 -8 -15 -19 -4 -15 -13 2 -15 15 -8 -15 -27 0 -15 15 -4 -15 -27 -8 -15 21 -4 -15 -19 -8 -15 27 0 -15 27 -8 -15 21 -8 -19 -13 4 -19 -11 2 -19 -13 2 -19 -11 4 -3 19 -8 -3 25 -10 -3 19 -10 -3 25 -8 7 25 -8 7 27 -10 7 25 -10 7 27 -8 9 19 -8 9 25 -10 9 19 -10 9 25 -8 -5 25 -8 -5 27 -10 -5 25 -10 -5 27 -8 11 -19 -4 11 -13 -8 11 -19 -8 11 -13 -4 11 15 -4 11 21 -8 11 15 -8 11 21 -4 15 -13 10 15 -11 4 15 -13 4 15 13 10 15 13 0 15 -11 2 15 -13 -4 15 -13 0 15 -13 -8 15 -19 -4 15 -13 2 15 15 -8 15 -27 0 15 15 -4 15 -27 -8 15 21 -4 15 -19 -8 15 27 0 15 27 -8 15 21 -8 19 -13 4 19 -11 2 19 -13 2 19 -11 4</float_array>
<technique_common>
<accessor count="96" source="#Plane-tex-mesh-positions-array" stride="3">
<param name="X" type="float"/>
<param name="Y" type="float"/>
<param name="Z" type="float"/>
</accessor>
</technique_common>
</source>
<source id="Plane-tex-mesh-uvs">
<float_array count="330" id="Plane-tex-mesh-uvs-array">0.42852092 0.045486685 0.3928824 0.09084481 0.3928824 0.045486685 0.42854616 0.045518827 0.42854616 0.09087695 0.39290765 0.09087695 0.2499802 0.863712 0.21432534 0.95450765 0.2499802 0.95450765 0.24996038 0.86367416 0.21430552 0.86367416 0.21430552 0.9544698 0.67862195 0.90912306 0.71426046 0.9544812 0.71426046 0.90912306 0.6964419 0.36367854 0.6964419 0.95447016 0.74997336 0.40912405 0.9464263 0.40917188 0.9196614 0.95450497 0.96426946 0.95450497 0.9464286 0.59086365 0.96426487 0.59086365 0.92859226 0.045545455 0.8214336 0.9544601 0.8571177 0.36368415 0.80359155 0.40912846 0.6786166 0.9544592 0.7142292 0.90913403 0.6904875 0.90913403 0.6964286 0.90913635 0.678625 0.95445454 0.71423215 0.90913635 0.67862195 0.9545133 0.71426046 0.9545133 0.71426046 0.9091552 0.7142352 0.90912306 0.6785967 0.90912306 0.6785967 0.9544812 0.71426135 0.9091507 0.67862016 0.95127213 0.71426135 0.95451224 0.7142447 0.9350612 0.6785919 0.9091319 0.6785919 0.95450824 0.71423215 0.9545 0.678625 0.90918183 0.6964286 0.9545 0.6964607 0.0757803 0.73214287 0.13631818 0.767825 0.0757803 0.7142538 0.9204749 0.6786353 0.9091417 0.7142538 0.95447433 0.5714286 0.6364091 0.5000476 0.7045227 0.6428095 0.7045227 0.6785967 0.9091552 0.6785967 0.9545133 0.7142352 0.9545133 0.14289558 0.8939557 0.21431059 0.95451283 0.6785081 0.8939557 0.21423902 0.95450586 0.18156514 0.95450586 0.17562442 0.89401865 0.035764795 0.90912306 0.07140332 0.9544812 0.07140332 0.90912306 0.03573954 0.9091552 0.03573954 0.9545133 0.07137807 0.9545133 0.24996038 0.95450765 0.21430552 0.95450765 0.21430552 0.863712 0.2499802 0.9544698 0.21432534 0.86367416 0.2499802 0.86367416 0.07139401 0.9091178 0.035743088 0.9091178 0.04870706 0.9544917 0.035754215 0.90917224 0.04465883 0.9545048 0.07137267 0.9545048 0.035764795 0.95450044 0.051025458 0.95450044 0.071373016 0.9091809 0.07138571 0.9393849 0.035735715 0.90913635 0.035735715 0.9545091 0.03577019 0.9545048 0.06248403 0.9545048 0.07138864 0.90917224 0.035757143 0.9242515 0.07140714 0.9545 0.07140714 0.9091273 0.035757143 0.9393849 0.07140714 0.9545091 0.07140714 0.90913635 0.21425107 0.90910196 0.19641991 0.9544903 0.1607576 0.88640773 0.035735715 0.9091273 0.035735715 0.9545 0.07138571 0.9242515 0.70534116 0.9091316 0.6786273 0.9091316 0.7142458 0.95446414 0.705346 0.9091477 0.67861044 0.95451707 0.71425784 0.95451707 0.71424454 0.95451635 0.685728 0.9091491 0.6785989 0.95451635 0.7142467 0.95451707 0.68751115 0.9091477 0.6785993 0.95451707 0.42854285 0.04548182 0.41665953 0.09085455 0.39289287 0.04548182 0.42851785 0.09086364 0.4107143 0.09086364 0.39291072 0.045545455 0.42852092 0.09087695 0.3928824 0.09087695 0.3928824 0.045518827 0.10708413 0.7761979 0.07145794 0.7761979 0.07145794 0.72382796 0.85711247 0.1398125 0.80363226 0.08743641 0.85711247 0.08743641 0.107113495 0.77617204 0.0714873 0.7238021 0.107113495 0.7238021 0.9260412 0.86371034 0.9260412 0.9317812 0.9642442 0.9317812 0.14290765 0.9545133 0.21426046 0.8637006 0.21426046 0.9545133 0.6785144 0.045481946 0.14288564 0.22721793 0.14288564 0.045481946 0.14288564 0.22732753 0.14288564 0.40906352 0.6785144 0.40906352 0.85711414 0.13980614 0.81255746 0.08743959 0.85711414 0.08743959 0.9260436 0.8637054 0.9260436 0.92042005 0.96423924 0.92042005 0.6428143 0.1364 0.57145 0.1364 0.57145 0.3181091 0.78567666 0.1819033 0.72621554 0.36359382 0.7381078 0.36359382 0.6785326 0.6363412 0.32143635 0.45459026 0.14288822 0.6363412 0.32142857 0.68186367 0.49993303 0.68186367 0.1429241 0.8635455</float_array>
<technique_common>
<accessor count="165" source="#Plane-tex-mesh-uvs-array" stride="2">
<param name="S" type="float"/>
<param name="T" type="float"/>
</accessor>
</technique_common>
</source>
<vertices id="Plane-tex-mesh-vertices">
<input semantic="POSITION" source="#Plane-tex-mesh-positions"/>
</vertices>
<polylist count="188" material="lambert0-material">
<input offset="0" semantic="VERTEX" source="#Plane-tex-mesh-vertices"/>
<input offset="1" semantic="TEXCOORD" set="0" source="#Plane-tex-mesh-uvs"/>
<vcount>3 3 3 3 3 3 3 3 3 3 3 3 3 3 3 3 3 3 3 3 3 3 3 3 3 3 3 3 3 3 3 3 3 3 3 3 3 3 3 3 3 3 3 3 3 3 3 3 3 3 3 3 3 3 3 3 3 3 3 3 3 3 3 3 3 3 3 3 3 3 3 3 3 3 3 3 3 3 3 3 3 3 3 3 3 3 3 3 3 3 3 3 3 3 3 3 3 3 3 3 3 3 3 3 3 3 3 3 3 3 3 3 3 3 3 3 3 3 3 3 3 3 3 3 3 3 3 3 3 3 3 3 3 3 3 3 3 3 3 3 3 3 3 3 3 3 3 3 3 3 3 3 3 3 3 3 3 3 3 3 3 3 3 3 3 3 3 3 3 3 3 3 3 3 3 3 3 3 3 3 3 3 3 3 3 3 3 3</vcount>
<p>0 0 1 1 2 2 0 3 3 4 1 5 4 0 5 1 6 2 4 3 7 4 5 5 8 0 9 1 10 2 8 3 11 4 9 5 12 0 13 1 14 2 12 3 15 4 13 5 16 6 17 7 18 8 16 9 19 10 17 11 20 6 21 7 22 8 20 9 23 10 21 11 24 12 25 13 26 14 24 15 27 16 25 17 25 18 27 19 28 20 29 21 25 22 28 23 28 24 30 25 29 26 29 27 30 28 31 29 30 30 28 31 32 32 31 33 30 34 33 35 31 36 34 37 29 38 32 39 28 40 35 41 33 42 36 43 31 44 35 45 28 46 37 47 36 48 33 49 38 50 37 51 28 52 39 53 33 33 40 34 38 35 41 44 39 42 28 43 39 54 41 55 42 56 39 12 42 13 43 14 44 12 45 13 46 14 44 57 47 58 45 59 49 1 48 0 50 2 51 4 48 3 49 5 53 1 52 0 54 2 55 4 52 3 53 5 57 1 56 0 58 2 59 4 56 3 57 5 61 1 60 0 62 2 63 4 60 3 61 5 65 7 64 6 66 8 67 10 64 9 65 11 69 7 68 6 70 8 71 10 68 9 69 11 73 13 72 12 74 14 75 16 72 15 73 17 75 19 73 18 76 20 73 22 77 21 76 23 78 25 76 24 77 26 78 28 77 27 79 29 76 31 78 30 80 32 78 34 79 33 81 35 82 37 79 36 77 38 76 40 80 39 83 41 84 43 81 42 79 44 76 46 83 45 85 47 81 49 84 48 86 50 76 52 85 51 87 53 88 34 81 33 86 35 87 42 89 44 76 43 89 55 87 54 90 56 90 13 87 12 91 14 93 13 92 12 94 14 95 58 92 57 93 59 66 61 86 60 38 62 18 64 66 63 38 65 88 10 86 9 66 11 40 10 18 11 38 9 17 67 66 66 18 68 65 70 66 69 17 71 22 67 65 66 17 68 22 73 17 72 35 74 65 69 22 71 70 70 35 76 17 75 32 77 80 6 65 8 70 7 70 79 22 78 0 80 83 10 80 9 70 11 56 82 70 81 0 83 48 85 0 84 22 86 70 88 56 87 69 89 12 91 48 90 22 92 51 67 0 66 48 68 59 94 69 93 56 95 21 97 12 96 22 98 3 70 0 69 51 71 69 100 59 99 90 101 15 103 12 102 21 104 3 106 51 105 63 107 91 77 69 75 90 76 90 109 59 108 55 110 15 99 21 100 42 101 3 112 63 111 7 113 63 13 51 12 60 14 55 13 59 12 52 14 15 115 42 114 11 116 42 76 21 75 43 77 4 37 3 36 7 38 8 37 15 36 11 38 54 118 58 117 2 119 6 121 54 120 2 122 57 4 58 3 54 5 1 124 6 123 2 125 5 1 54 0 6 2 53 4 54 3 5 5 62 118 50 117 14 119 10 121 62 120 14 122 49 4 50 3 62 5 13 124 10 123 14 125 9 1 62 0 10 2 61 4 62 3 9 5 67 13 81 12 64 14 78 58 81 57 67 59 71 13 85 12 68 14 87 58 85 57 71 59 39 13 20 12 37 14 23 58 20 57 39 59 30 13 16 12 33 14 19 58 16 57 30 59 77 13 94 12 82 14 93 58 94 57 77 59 45 13 34 12 46 14 29 58 34 57 45 59 84 12 31 13 36 14 84 57 79 58 31 59 76 12 41 13 28 14 76 57 89 58 41 59 92 12 73 13 74 14 92 57 95 58 73 59 26 12 47 13 44 14 26 57 25 58 47 59 72 12 27 13 24 14 72 57 75 58 27 59 94 12 74 13 82 14 82 126 74 127 26 128 94 57 92 58 74 59 74 129 24 130 26 131 82 132 26 133 34 134 74 135 72 136 24 137 34 57 26 58 44 59 79 126 82 127 34 128 34 12 44 13 46 14 79 132 34 133 31 134 80 138 67 139 65 140 80 57 78 58 67 59 17 75 30 76 32 77 17 11 19 10 30 9 58 0 0 1 2 2 58 3 56 4 0 5 50 0 12 1 14 2 50 3 48 4 12 5 91 138 71 139 69 140 91 57 87 58 71 59 21 75 39 76 43 77 21 11 23 10 39 9 86 141 36 142 38 143 86 144 84 145 36 146 27 148 76 147 28 149 75 151 76 150 27 152 68 139 83 138 70 140 85 58 83 57 68 59 37 76 22 75 35 77 20 10 22 11 37 9 73 13 93 12 77 14 95 58 93 57 73 59 47 13 29 12 45 14 25 58 29 57 47 59 64 139 88 138 66 140 81 58 88 57 64 59 33 76 18 75 40 77 16 10 18 11 33 9 52 1 57 0 54 2 59 4 57 3 52 5 3 1 6 0 1 2 4 4 6 3 3 5 60 1 49 0 62 2 51 4 49 3 60 5 15 1 10 0 13 2 8 4 10 3 15 5 90 154 55 153 89 155 7 157 89 156 55 158 55 4 53 3 7 5 7 160 41 159 89 161 7 1 53 0 5 2 7 163 63 162 41 164 63 157 11 158 41 156 41 155 11 153 42 154 63 4 61 3 11 5 11 1 61 0 9 2</p>
</polylist>
</mesh>
</geometry>
</library_geometries>
<library_visual_scenes>
<visual_scene id="Scene" name="Scene">
<node id="Veh-002b" name="Veh-002b" type="NODE">
<translate sid="location">0 0 0</translate>
<rotate sid="rotationZ">0 0 1 0</rotate>
<rotate sid="rotationY">0 1 0 0</rotate>
<rotate sid="rotationX">1 0 0 0</rotate>
<scale sid="scale">0.05 0.05 0.05</scale>
<instance_geometry url="#Plane-tex-mesh">
<bind_material>
<technique_common>
<instance_material symbol="lambert0-material" target="#lambert0-material">
<bind_vertex_input input_semantic="TEXCOORD" input_set="0" semantic="TEX0"/>
</instance_material>
</technique_common>
</bind_material>
</instance_geometry>
</node>
</visual_scene>
</library_visual_scenes>
<scene>
<instance_visual_scene url="#Scene"/>
</scene>
</COLLADA>
