<?xml version="1.0" encoding="UTF-8"?><COLLADA xmlns="http://www.collada.org/2005/11/COLLADASchema" version="1.4.1">
<asset>
<contributor>
<author>PS4k User</author>
<authoring_tool>1.5.02</authoring_tool>
</contributor>
<created>2016-03-02T21:35:19</created>
<modified>2016-03-02T21:35:19</modified>
<unit meter="1" name="meter"/>
<up_axis>Z_UP</up_axis>
</asset>
<library_effects>
<effect id="Material_204_51_0-effect">
<profile_COMMON>
<technique sid="common">
<lambert>
<emission>
<color sid="emission">0 0 0 1</color>
</emission>
<ambient>
<color sid="ambient">0 0 0 1</color>
</ambient>
<diffuse>
<color sid="diffuse">0.8 0.2 0.0 1</color>
</diffuse>
<index_of_refraction>
<float sid="index_of_refraction">1</float>
</index_of_refraction>
</lambert>
</technique>
</profile_COMMON>
</effect>
<effect id="Material_255_255_255-effect">
<profile_COMMON>
<technique sid="common">
<lambert>
<emission>
<color sid="emission">0 0 0 1</color>
</emission>
<ambient>
<color sid="ambient">0 0 0 1</color>
</ambient>
<diffuse>
<color sid="diffuse">1.0 1.0 1.0 1</color>
</diffuse>
<index_of_refraction>
<float sid="index_of_refraction">1</float>
</index_of_refraction>
</lambert>
</technique>
</profile_COMMON>
</effect>
<effect id="Material_187_187_187-effect">
<profile_COMMON>
<technique sid="common">
<lambert>
<emission>
<color sid="emission">0 0 0 1</color>
</emission>
<ambient>
<color sid="ambient">0 0 0 1</color>
</ambient>
<diffuse>
<color sid="diffuse">0.73333335 0.73333335 0.73333335 1</color>
</diffuse>
<index_of_refraction>
<float sid="index_of_refraction">1</float>
</index_of_refraction>
</lambert>
</technique>
</profile_COMMON>
</effect>
<effect id="Material_34_34_34-effect">
<profile_COMMON>
<technique sid="common">
<lambert>
<emission>
<color sid="emission">0 0 0 1</color>
</emission>
<ambient>
<color sid="ambient">0 0 0 1</color>
</ambient>
<diffuse>
<color sid="diffuse">0.13333334 0.13333334 0.13333334 1</color>
</diffuse>
<index_of_refraction>
<float sid="index_of_refraction">1</float>
</index_of_refraction>
</lambert>
</technique>
</profile_COMMON>
</effect>
<effect id="Material_255_153_51-effect">
<profile_COMMON>
<technique sid="common">
<lambert>
<emission>
<color sid="emission">0 0 0 1</color>
</emission>
<ambient>
<color sid="ambient">0 0 0 1</color>
</ambient>
<diffuse>
<color sid="diffuse">1.0 0.6 0.2 1</color>
</diffuse>
<index_of_refraction>
<float sid="index_of_refraction">1</float>
</index_of_refraction>
</lambert>
</technique>
</profile_COMMON>
</effect>
<effect id="Material_51_51_51-effect">
<profile_COMMON>
<technique sid="common">
<lambert>
<emission>
<color sid="emission">0 0 0 1</color>
</emission>
<ambient>
<color sid="ambient">0 0 0 1</color>
</ambient>
<diffuse>
<color sid="diffuse">0.2 0.2 0.2 1</color>
</diffuse>
<index_of_refraction>
<float sid="index_of_refraction">1</float>
</index_of_refraction>
</lambert>
</technique>
</profile_COMMON>
</effect>
<effect id="Material_238_0_0-effect">
<profile_COMMON>
<technique sid="common">
<lambert>
<emission>
<color sid="emission">0 0 0 1</color>
</emission>
<ambient>
<color sid="ambient">0 0 0 1</color>
</ambient>
<diffuse>
<color sid="diffuse">0.93333334 0.0 0.0 1</color>
</diffuse>
<index_of_refraction>
<float sid="index_of_refraction">1</float>
</index_of_refraction>
</lambert>
</technique>
</profile_COMMON>
</effect>
<effect id="Material_68_68_68-effect">
<profile_COMMON>
<technique sid="common">
<lambert>
<emission>
<color sid="emission">0 0 0 1</color>
</emission>
<ambient>
<color sid="ambient">0 0 0 1</color>
</ambient>
<diffuse>
<color sid="diffuse">0.26666668 0.26666668 0.26666668 1</color>
</diffuse>
<index_of_refraction>
<float sid="index_of_refraction">1</float>
</index_of_refraction>
</lambert>
</technique>
</profile_COMMON>
</effect>
</library_effects>
<library_materials>
<material id="Material_204_51_0-material" name="Material_204_51_0">
<instance_effect url="#Material_204_51_0-effect"/>
</material>
<material id="Material_255_255_255-material" name="Material_255_255_255">
<instance_effect url="#Material_255_255_255-effect"/>
</material>
<material id="Material_187_187_187-material" name="Material_187_187_187">
<instance_effect url="#Material_187_187_187-effect"/>
</material>
<material id="Material_34_34_34-material" name="Material_34_34_34">
<instance_effect url="#Material_34_34_34-effect"/>
</material>
<material id="Material_255_153_51-material" name="Material_255_153_51">
<instance_effect url="#Material_255_153_51-effect"/>
</material>
<material id="Material_51_51_51-material" name="Material_51_51_51">
<instance_effect url="#Material_51_51_51-effect"/>
</material>
<material id="Material_238_0_0-material" name="Material_238_0_0">
<instance_effect url="#Material_238_0_0-effect"/>
</material>
<material id="Material_68_68_68-material" name="Material_68_68_68">
<instance_effect url="#Material_68_68_68-effect"/>
</material>
</library_materials>
<library_geometries>
<geometry id="Plane-color-mesh" name="Plane-color">
<mesh>
<source id="Plane-color-mesh-positions">
<float_array count="6582" id="Plane-color-mesh-positions-array">-13 -15 11 -13 -17 11 -13 -17 13 -13 -15 13 -13 -23 5 -13 -25 5 -13 -25 7 -13 -23 7 -13 -15 17 -13 -17 17 -13 -17 19 -13 -15 19 -13 -29 7 -13 -31 7 -13 -31 9 -13 -29 9 -13 -9 5 -13 -11 5 -13 -11 7 -13 -9 7 7 5 5 7 3 5 7 3 7 7 5 7 11 -15 5 11 -17 5 11 -17 7 11 -15 7 -13 -5 5 -13 -7 5 -13 -7 7 -13 -5 7 11 -9 15 11 -11 15 11 -11 17 11 -9 17 -13 -33 3 -13 -35 3 -13 -35 5 -13 -33 5 -13 -19 19 -13 -21 19 -13 -21 21 -13 -19 21 -13 -21 3 -13 -23 3 -13 -21 5 7 9 7 7 7 7 7 7 9 7 9 9 11 -9 13 11 -11 13 -13 9 1 -13 7 1 -13 7 3 -13 9 3 -13 15 9 -13 13 9 -13 13 11 -13 15 11 11 -5 5 11 -7 5 11 -7 7 11 -5 7 11 -1 9 11 -3 9 11 -3 11 11 -1 11 -13 -17 25 -13 -19 25 -13 -19 27 -13 -17 27 -13 -23 1 -13 -25 1 -13 -25 3 -13 -7 11 -13 -9 11 -13 -9 13 -13 -7 13 -13 1 3 -13 -1 3 -13 -1 5 -13 1 5 -9 -13 5 -9 -15 5 -9 -15 7 -9 -13 7 9 -23 -1 9 -25 -1 9 -25 1 9 -23 1 -13 -9 19 -13 -11 19 -13 -11 21 -13 -9 21 -13 -17 9 -13 -19 9 -13 -19 11 -13 15 7 -13 13 7 -13 -37 5 -13 -37 7 -13 -35 7 -13 11 7 -13 11 9 11 -9 9 11 -11 9 11 -11 11 11 -9 11 7 11 7 7 11 9 -13 -9 15 -13 -7 15 11 1 5 11 -1 5 11 -1 7 11 1 7 -13 -27 -1 -13 -29 -1 -13 -29 1 -13 -27 1 -13 9 9 -13 7 9 -13 7 11 -13 9 11 -13 5 3 -13 5 5 -13 7 5 -13 -31 3 -13 -31 5 -13 -27 5 -13 -29 5 -13 -27 7 7 23 1 7 21 1 7 21 3 7 23 3 11 9 9 11 7 9 11 7 11 11 9 11 11 -3 5 11 -3 7 11 -11 7 11 -13 7 11 -13 9 -13 9 5 -13 -17 15 -13 -19 15 -13 -19 17 -13 3 5 -13 3 7 -13 5 7 -13 -27 9 -13 -29 11 -13 -27 11 -9 -9 13 -9 -11 13 -9 -11 15 -9 -9 15 7 15 5 7 13 5 7 13 7 7 15 7 -13 11 1 -13 11 3 -13 -33 7 -13 -33 9 -13 -5 3 -13 -7 3 -13 -21 17 -13 -27 3 -13 1 7 -13 1 9 -13 3 9 -13 -17 21 -13 -19 23 -13 -17 23 11 -13 17 11 -13 19 11 -11 19 -13 19 3 -13 17 3 -13 17 5 -13 19 5 9 9 1 9 7 1 9 7 3 9 9 3 -13 -17 3 -13 -19 3 -13 -19 5 -13 -17 5 11 15 9 11 13 9 11 13 11 11 15 11 9 -21 1 9 -23 3 9 -21 3 -13 -21 7 -13 -23 9 -13 -21 9 11 -17 9 11 -15 9 11 -5 9 11 -5 11 7 13 9 7 15 9 -13 -37 9 -13 -39 9 -13 -39 11 -13 -37 11 -13 -25 9 -13 -25 11 -13 -23 -1 -13 -25 -1 11 -15 11 11 -13 11 -13 -37 3 -13 -1 7 -13 -1 9 -13 21 7 -13 19 7 -13 19 9 -13 21 9 11 17 5 11 15 5 11 15 7 11 17 7 11 -15 13 11 -17 13 11 -17 15 11 -15 15 11 11 9 11 11 11 -13 -3 7 -13 -3 9 -13 -9 9 -13 -11 9 -13 -11 11 -13 15 5 -13 17 7 11 -13 15 11 -15 17 -13 -13 5 -13 -13 7 -13 -9 3 9 11 1 9 11 3 -13 7 7 -13 5 9 -13 -35 9 11 17 9 9 13 1 9 13 3 -13 -13 9 -13 15 3 -13 13 3 -13 13 5 -11 23 1 -11 21 1 -11 21 3 -11 23 3 -13 11 5 11 -13 13 -13 -13 19 -13 -15 21 -13 -13 21 7 19 1 7 19 3 11 -9 7 -13 11 11 11 -17 11 -13 27 3 -13 25 3 -13 25 5 -13 27 5 -13 21 3 -13 21 5 -13 -9 17 -13 -11 17 -13 25 9 -13 23 9 -13 23 11 -13 25 11 3 -17 9 3 -19 9 3 -19 11 3 -17 11 1 -11 5 1 -13 5 1 -13 7 1 -11 7 1 -9 9 1 -11 9 1 -11 11 1 -9 11 9 -27 -1 9 -29 -1 9 -29 1 9 -27 1 -13 -13 15 -13 -15 15 -13 -13 17 -13 23 3 -13 23 5 11 -17 17 11 -19 17 11 -19 19 11 -17 19 11 -19 11 11 -19 13 -13 -3 3 -13 -3 5 -13 17 9 -13 -15 5 -13 -17 7 -13 -15 7 -13 -21 15 11 1 9 -13 -13 3 -13 -15 3 -13 11 -1 -13 9 -1 -13 -11 13 -13 -13 13 -13 -11 15 11 -19 7 11 -19 9 -13 -7 17 -9 -9 11 -9 -11 11 -13 -13 11 -13 -7 19 -13 -21 1 -13 -23 11 -13 -19 13 11 5 9 11 3 9 11 3 11 11 5 11 -13 -19 7 -13 17 11 -13 19 11 -13 21 11 9 -27 3 9 -25 3 -3 27 1 -3 25 1 -3 25 3 -3 27 3 -13 -29 3 1 -11 13 1 -9 13 9 11 -1 9 9 -1 1 -9 5 1 -9 7 11 21 9 11 19 9 11 19 11 11 21 11 -9 -9 7 -9 -11 7 -9 -11 9 -9 -9 9 -13 9 7 -13 -39 7 -13 5 11 11 -19 15 -13 -7 9 -13 -5 9 -13 23 7 -13 -35 11 -13 25 7 11 -7 9 11 -7 11 9 7 -1 9 5 -1 9 5 1 -13 -39 5 -13 -21 23 -13 -15 9 -13 -31 11 7 7 5 11 21 7 11 19 7 11 21 5 11 19 5 11 17 11 11 1 11 -13 7 -1 -13 -39 3 -13 -5 11 -13 -3 11 -13 5 -1 -13 5 1 -17 -19 13 -17 -21 13 -17 -21 15 -17 -19 15 -13 -1 11 11 3 7 -13 3 11 -13 -21 11 -13 1 11 -13 -21 25 7 5 9 11 -11 5 11 -13 5 7 3 9 -13 3 3 -13 -21 27 3 -19 13 3 -17 13 -13 -33 11 7 17 1 7 17 3 7 9 5 11 -15 19 11 -9 19 -13 13 -1 -13 13 1 -11 19 1 -11 17 1 -11 17 3 -11 19 3 7 11 5 1 -15 5 1 -15 7 9 13 -1 -13 21 1 -13 19 1 -13 -11 3 11 3 5 11 -19 5 -13 -21 13 -13 -7 21 -13 -21 -1 9 5 3 9 -29 3 -9 -9 5 -9 -11 5 11 -9 5 9 -21 -1 1 -11 15 1 -9 15 -11 -15 13 -11 -17 13 -11 -17 11 -11 -15 11 -11 -15 19 -11 -17 19 -11 -17 17 -11 -15 17 13 11 1 13 9 1 13 9 -1 13 11 -1 13 -25 11 13 -27 11 13 -27 9 13 -25 9 13 -19 5 13 -21 5 13 -21 3 13 -19 3 13 -31 11 13 -33 11 13 -33 9 13 -31 9 -11 -9 7 -11 -11 7 -11 -11 5 -11 -9 5 13 9 7 13 7 7 13 7 5 13 9 5 13 -15 7 13 -17 7 13 -17 5 13 -15 5 13 -25 5 13 -27 5 13 -27 3 13 -25 3 13 -7 11 13 -9 11 13 -9 9 13 -7 9 -11 -5 7 -11 -7 7 -11 -7 5 -11 -5 5 13 -9 17 13 -11 17 13 -11 15 13 -9 15 13 -11 13 13 -9 13 13 -5 7 13 -7 7 13 -7 5 13 -5 5 -11 15 11 -11 13 11 -11 13 9 -11 15 9 13 -1 11 13 -3 11 13 -3 9 13 -1 9 -7 7 7 -7 5 7 -7 5 5 -7 7 5 -11 -19 11 -11 -19 9 -11 -17 9 13 -7 13 -9 11 3 -9 9 3 -9 9 1 -9 11 1 13 -11 11 13 -11 9 13 -13 5 13 -15 3 13 -13 3 13 -19 25 13 -21 25 13 -21 23 13 -19 23 13 1 7 13 -1 7 13 -1 5 13 1 5 13 13 5 13 11 5 13 11 3 13 13 3 13 9 3 13 7 3 13 7 1 13 -37 9 13 -39 9 13 -39 7 13 -37 7 13 27 5 13 25 5 13 25 3 13 27 3 -7 5 9 -7 3 9 -7 3 7 13 -7 21 13 -9 21 13 -9 19 13 -7 19 -11 9 11 -11 7 11 -11 7 9 -11 9 9 -7 7 9 11 23 3 11 21 3 11 21 1 11 23 1 13 -23 3 13 -23 1 13 -21 1 17 -19 15 17 -21 15 17 -21 13 17 -19 13 13 -3 7 13 -3 5 13 9 11 13 7 11 13 7 9 13 9 9 13 -13 9 13 -13 7 13 -11 7 -11 -19 17 -11 -19 15 -11 -17 15 13 -17 21 13 -19 21 13 -19 19 13 -17 19 13 -13 21 13 -15 21 13 -15 19 13 -13 19 13 -23 9 13 -25 7 13 -23 7 13 -19 7 13 -21 7 13 13 1 13 13 -1 13 -23 11 -7 13 7 -7 11 7 -7 11 5 -7 13 5 13 -21 21 13 -21 19 -11 3 9 -11 1 9 -11 1 7 -11 3 7 13 -11 19 13 -13 17 13 -39 5 13 -37 5 -9 13 3 -9 13 1 13 -23 5 7 -17 11 7 -19 11 7 -19 9 7 -17 9 13 -37 11 13 -39 11 -7 15 7 -7 15 5 13 15 11 13 13 11 13 13 9 13 15 9 13 -15 9 13 -17 9 13 -9 7 13 17 5 13 15 5 13 15 3 13 17 3 13 -27 7 13 -5 11 13 -5 9 13 -25 1 13 -25 -1 13 -23 -1 13 -27 1 13 -29 1 13 -29 -1 13 -27 -1 13 -13 11 13 -15 11 13 -33 7 13 -35 7 13 -35 5 13 -33 5 -9 7 3 -9 7 1 -1 -9 13 -1 -11 13 -1 -11 11 -1 -9 11 9 -9 11 9 -11 11 9 -11 9 9 -9 9 -11 -1 9 -11 -1 7 -9 -23 3 -9 -25 3 -9 -25 1 -9 -23 1 13 -35 9 -11 21 9 -11 19 9 -11 19 7 -11 21 7 13 25 11 13 23 11 13 23 9 13 25 9 13 17 7 13 15 7 -7 15 9 -7 13 9 13 -15 15 13 -17 15 13 -17 13 13 -15 13 13 -19 13 13 -21 13 13 -21 11 13 -19 11 13 11 11 13 11 9 13 23 7 13 21 7 13 21 5 13 23 5 -11 -3 9 -11 -3 7 -7 9 7 -7 9 5 -11 -9 11 -11 -11 11 -11 -11 9 -11 -9 9 -11 -1 5 -11 1 5 -11 17 7 -11 15 7 -11 15 5 -11 17 5 13 -15 17 13 -13 15 13 5 3 13 5 1 13 21 9 -9 9 -1 -9 11 -1 13 23 3 -1 -9 9 -1 -11 9 -1 -11 7 -1 -9 7 -11 -13 7 -11 -13 5 -1 -9 15 -1 -11 15 13 5 9 13 5 7 13 -11 21 13 -35 11 13 17 9 9 -11 7 9 -9 7 13 5 -1 13 7 -1 13 21 3 -11 -13 9 13 -9 5 13 -11 5 13 -11 3 13 -9 3 13 -13 13 13 3 7 13 3 5 13 5 5 -11 11 11 -11 11 9 13 -17 11 -11 19 5 -11 21 5 -9 -27 3 -9 -29 3 -9 -29 1 -9 -27 1 -11 -9 19 -11 -11 19 -11 -11 17 -11 -9 17 9 -11 5 9 -9 5 9 -9 15 9 -11 15 9 -11 13 9 -9 13 -9 13 -1 -11 -13 17 -11 -15 15 -11 -13 15 -7 21 3 -7 19 3 -7 19 1 -7 21 1 13 -19 17 13 -17 17 -7 3 5 13 19 3 13 19 1 13 21 1 -9 5 1 -9 5 -1 -9 7 -1 -11 17 9 -11 -15 7 -11 -17 7 -11 -17 5 -11 -15 5 13 -21 17 -7 17 3 -7 17 1 13 13 7 -11 -19 19 13 -21 -1 13 1 9 -9 5 3 -11 -11 15 -11 -13 13 -11 -11 13 13 -19 9 -11 -13 11 -11 -13 19 13 -39 3 13 -37 3 13 -35 3 -9 -29 -1 -9 -27 -1 -11 -19 13 13 5 11 13 3 11 13 3 9 13 -17 3 -11 -19 7 -11 -19 5 -11 19 11 -11 17 11 -11 21 11 13 19 5 13 21 11 13 19 11 13 19 9 13 -17 25 13 -17 23 13 -21 15 13 -19 15 9 -13 7 9 -15 7 9 -15 5 9 -13 5 13 -29 3 13 -7 17 -9 -25 -1 -9 -23 -1 13 -29 5 13 -31 5 13 -31 3 13 -31 7 -11 5 11 -11 5 9 13 1 3 13 3 3 -11 -5 9 -11 -7 9 13 -33 3 13 11 7 -11 -3 5 13 -17 27 13 -19 27 -11 -15 9 13 19 7 13 -21 9 13 -29 7 -11 3 5 13 17 11 13 1 11 -11 -3 11 -11 -5 11 -11 -1 11 13 -5 3 13 -3 3 13 -29 9 -11 3 11 -11 1 11 -1 -11 5 -1 -9 5 13 -7 3 13 25 7 13 -7 15 -11 -9 15 -11 -9 13 11 19 3 11 17 3 11 17 1 11 19 1 -9 -21 1 -9 -21 -1 13 -29 11 -1 -13 7 -1 -13 5 -7 11 9 -7 9 9 -11 -7 11 13 -1 3 -7 23 3 -7 23 1 -1 -15 7 -1 -15 5 -9 -21 3 7 -17 13 7 -19 13 13 -21 27 3 27 3 3 25 3 3 25 1 3 27 1 -1 -1 3 -1 -3 3 -3 -3 3 -3 -1 3 -5 25 3 -5 27 3 1 -15 19 1 -17 19 -1 -17 19 -1 -15 19 11 -21 3 11 -19 3 11 -31 3 11 -33 3 9 -33 3 9 -31 3 -11 -33 3 -11 -35 3 5 -17 3 5 -19 3 3 -19 3 3 -17 3 9 -15 19 9 -13 19 9 -17 19 7 -17 19 7 -15 19 7 -19 3 7 -21 3 5 -21 3 -5 -29 3 -5 -31 3 -7 -31 3 -7 -29 3 -1 -5 3 -3 -5 3 -3 -15 3 -3 -17 3 -5 -17 3 -5 -15 3 -7 -19 3 -7 -21 3 -9 -19 3 -11 1 3 -11 -1 3 -7 11 3 -7 9 3 -7 -35 3 -7 -37 3 -9 -37 3 -9 -35 3 1 -31 3 1 -33 3 -1 -33 3 -1 -31 3 -9 -5 3 -9 -7 3 -11 -7 3 -11 -5 3 5 -11 3 5 -13 3 3 -13 3 3 -11 3 5 -15 3 3 -15 3 -1 -25 3 -1 -27 3 -3 -27 3 -3 -25 3 -3 -31 3 -3 -33 3 -5 -33 3 -5 -25 3 -5 -27 3 -7 -27 3 -7 -25 3 -1 19 3 -1 17 3 -3 17 3 -3 19 3 -1 21 3 -3 21 3 -1 -11 19 -1 -13 19 -3 -13 19 -3 -11 19 3 21 3 3 19 3 1 19 3 1 21 3 -11 -27 -1 -11 -29 -1 -5 -9 3 -5 -11 3 -7 -11 3 -7 -9 3 -1 15 3 -3 15 3 3 9 3 3 7 3 1 7 3 1 9 3 11 -9 3 11 -11 3 9 -11 3 9 -9 3 7 -25 3 7 -27 3 5 -27 3 5 -25 3 -1 -29 3 -3 -29 3 9 21 1 9 23 1 1 -5 3 1 -7 3 -1 -7 3 3 -29 3 3 -31 3 1 -29 3 15 -21 13 15 -19 13 -7 -7 3 -9 -9 3 7 5 3 7 3 3 5 3 3 5 5 3 -5 -13 19 -5 -11 19 3 -11 19 3 -13 19 1 -13 19 1 -11 19 -15 -21 13 -15 -19 13 -3 9 3 -3 7 3 -5 7 3 -5 9 3 11 11 -1 11 13 -1 11 -15 3 11 -17 3 9 -17 3 9 -15 3 5 17 3 5 15 3 3 15 3 3 17 3 1 5 3 1 3 3 -1 3 3 -1 5 3 -5 -1 3 -5 -3 3 -7 -3 3 -7 -1 3 5 -23 3 3 -23 3 3 -21 3 -9 -15 19 -9 -17 19 -5 -19 3 -7 -17 3 -5 21 3 -5 19 3 1 25 3 1 23 3 -1 23 3 -1 25 3 1 -13 3 1 -11 3 -3 -15 19 -7 15 3 -7 13 3 -9 15 3 5 21 3 5 23 3 3 13 3 3 11 3 1 11 3 1 13 3 11 -1 3 11 -3 3 9 -3 3 9 -1 3 11 -25 -1 11 -23 -1 -11 -23 -1 -11 -25 -1 1 -19 19 -1 -19 19 -9 -19 19 -3 -7 3 -7 -13 3 -9 -13 3 -9 -11 3 -5 5 3 -5 3 3 -7 3 3 -7 5 3 3 23 3 -9 3 3 -7 -33 3 -9 -33 3 -9 -31 3 -5 -5 3 9 -13 3 7 -13 3 7 -11 3 1 -1 3 1 -3 3 7 -35 3 7 -37 3 5 -37 3 5 -35 3 -11 9 -1 -11 11 -1 5 13 3 -7 -15 3 -9 -15 3 -3 -35 3 -5 -35 3 11 25 3 -7 -15 19 -7 -17 19 -11 -9 3 1 -21 3 1 -19 3 1 -17 3 -1 -19 3 -1 -17 3 -9 27 3 -9 25 3 -11 25 3 -11 27 3 -5 17 3 -5 15 3 11 5 -1 11 7 -1 -9 -17 3 1 -27 3 -3 -19 3 1 -23 3 -11 -15 3 -11 -13 3 -3 23 3 -5 23 3 9 19 1 3 -27 3 -3 3 3 -3 1 3 -5 1 3 -9 -3 3 -11 -3 3 -11 -31 3 -11 -29 3 -5 13 3 -5 11 3 1 -35 3 -1 -35 3 -7 25 3 -7 27 3 3 -15 19 -9 19 1 -9 21 1 -11 5 -1 -11 7 -1 7 1 3 7 -1 3 5 -1 3 5 1 3 -11 -11 3 -9 17 1 1 27 1 1 25 1 -1 25 1 -1 27 1 9 17 3 9 15 3 7 15 3 3 -37 3 3 -39 3 1 -39 3 1 -37 3 -3 -9 3 -3 -11 3 -11 -17 3 7 9 3 7 11 3 3 3 3 3 1 3 1 1 3 -1 -37 3 11 -13 3 7 -23 3 5 19 3 11 9 -1 1 -25 3 -7 -5 3 11 -29 3 5 -11 19 5 -13 19 -1 1 3 7 -9 3 5 -9 3 -11 13 3 -11 15 3 7 -9 19 7 -11 19 5 -9 19 -7 7 3 -1 -39 3 3 -7 3 3 -9 3 1 -9 3 7 27 3 7 25 3 5 25 3 5 27 3 11 15 3 -3 -21 3 -5 -21 3 7 -29 3 5 -29 3 5 -39 3 1 17 3 -3 -23 3 -5 -23 3 -9 23 3 -11 -19 3 -1 -21 3 -1 -23 3 3 -25 3 5 -17 19 5 -15 19 1 -15 3 11 -5 3 9 -19 19 7 -19 19 11 -7 3 9 -7 3 7 -7 3 7 -17 3 11 -35 3 -11 5 3 -11 3 3 -5 -7 3 -3 5 3 -9 1 3 11 3 3 11 1 3 9 1 3 9 3 3 5 -31 3 5 -33 3 3 -33 3 9 17 1 -7 1 3 -9 -1 3 -3 -17 19 -5 -17 19 -5 -15 19 5 9 3 5 11 3 5 7 3 9 27 3 9 25 3 9 -19 3 -1 -13 3 -1 -15 3 -3 -13 3 5 -7 3 3 -17 19 3 -19 19 7 -13 19 7 7 3 11 27 3 -5 -13 3 -3 -39 3 -3 -37 3 -9 23 1 -5 -37 3 -1 13 3 -3 13 3 -1 -9 3 5 -3 3 3 -3 3 3 -1 3 9 -35 3 -11 -21 -1 -1 -11 3 3 -35 3 9 -11 19 9 -9 19 7 -15 3 7 -39 3 1 -9 19 -1 -9 19 -9 -13 19 7 13 3 3 -9 19 1 15 3 -7 -23 3 11 -37 3 11 -39 3 9 -39 3 9 -37 3 7 -31 3 7 -33 3 -5 -39 3 -7 -39 3 -1 11 3 -1 9 3 -3 11 3 5 -19 9 5 -17 9 11 -29 -1 11 -27 -1 7 -3 3 -11 -37 3 3 5 3 3 -5 3 -5 -9 19 -7 -11 19 -7 -9 19 -1 7 3 5 -5 3 -9 -9 19 -9 -11 19 -5 -19 19 -7 -19 19 -11 13 -1 -9 -39 3 11 -21 -1 -9 17 3 7 -5 3 -11 -21 3 9 23 3 5 -19 19 -11 -39 3 -3 -19 19 -3 -9 19 9 -5 3 -7 -13 19 11 13 3 11 5 3 -3 -1 5 -3 -3 5 -1 -3 5 -1 -1 5 -5 27 5 -5 25 5 -3 25 5 -3 27 5 5 -33 11 5 -35 11 7 -35 11 7 -33 11 -1 -15 21 -1 -17 21 1 -17 21 1 -15 21 11 -31 11 11 -33 11 -5 -25 11 -5 -27 11 -3 -27 11 -3 -25 11 3 -17 5 3 -19 5 5 -19 5 5 -17 5 5 -9 15 5 -11 15 7 -11 15 7 -9 15 9 -13 21 9 -15 21 11 -15 21 11 -13 21 7 -15 21 7 -17 21 9 -17 21 -11 -19 27 -11 -17 27 3 -19 27 3 -21 27 5 -21 27 5 -19 27 -3 -5 5 -1 -5 5 -5 -15 5 -5 -17 5 -3 -17 5 -3 -15 5 -9 5 9 -9 7 9 -9 -7 5 -9 -5 5 3 -15 5 5 -15 5 -11 -11 21 -11 -9 21 -11 -29 11 -11 -31 11 -9 -31 11 -9 -29 11 -3 19 5 -3 17 5 -1 17 5 -1 19 5 -7 -37 11 -7 -39 11 -5 -39 11 -5 -37 11 -9 25 11 -9 23 11 -7 23 11 -7 25 11 9 9 9 9 11 9 -3 21 5 -1 21 5 9 -35 11 9 -33 11 -3 -11 21 -3 -13 21 -1 -13 21 -1 -11 21 1 21 5 1 19 5 3 19 5 3 21 5 5 25 11 5 23 11 7 23 11 7 25 11 7 -31 11 9 -31 11 11 -7 21 11 -9 21 7 -7 21 7 -9 21 9 -9 21 9 -7 21 11 -17 21 -3 15 5 -1 15 5 9 15 9 9 13 9 1 9 5 1 7 5 3 7 5 3 9 5 -1 -7 5 1 -7 5 1 -5 5 15 -19 15 15 -21 15 5 5 5 5 3 5 -5 -11 21 -5 -13 21 1 -11 21 1 -13 21 3 -13 21 3 -11 21 -15 -19 15 -15 -21 15 -5 9 5 -5 7 5 -3 7 5 -3 9 5 9 -17 5 -7 -11 15 -7 -9 15 3 17 5 3 15 5 5 15 5 5 17 5 -7 -1 5 -7 -3 5 -5 -3 5 -5 -1 5 -1 5 5 -1 3 5 1 3 5 1 5 5 -11 -15 21 -11 -17 21 -9 -17 21 -9 -15 21 7 -29 11 9 -29 11 -7 -17 5 -7 -19 5 -5 -19 5 -7 21 5 -7 19 5 -5 19 5 -5 21 5 -3 -15 21 -3 -29 11 -3 -31 11 -1 -31 11 -1 -29 11 5 -17 27 7 -19 27 7 -17 27 -5 -33 11 -5 -35 11 -3 -35 11 -3 -33 11 1 13 5 1 11 5 3 11 5 3 13 5 9 -1 5 9 -3 5 9 -17 27 9 -19 27 11 -19 27 11 -17 27 -11 -39 11 -11 -37 11 -3 -39 11 -3 -37 11 -11 -27 11 -11 -25 11 -1 -7 21 -1 -9 21 1 -9 21 1 -7 21 -3 -7 5 -9 -37 11 -9 -39 11 -9 -27 11 -9 -25 11 9 -21 11 9 -23 11 11 -23 11 11 -21 11 -5 3 5 -5 5 5 -5 25 11 -5 23 11 -3 23 11 -3 25 11 -9 11 9 -9 13 9 -5 -13 7 -5 -15 7 -3 -15 7 -3 -13 7 5 -11 7 5 -13 7 7 -13 7 7 -11 7 -5 -5 5 1 -3 5 1 -1 5 -9 -19 27 -9 -21 27 -7 -21 27 -7 -19 27 9 21 5 9 19 5 5 13 5 -7 -17 21 -7 -15 21 -1 -17 5 -1 -19 5 1 -19 5 1 -17 5 -7 -17 27 -5 -19 27 -5 -17 27 11 -35 11 -11 27 5 -11 25 5 -9 25 5 -9 27 5 -7 17 5 -5 15 5 -5 17 5 -9 -17 5 -9 -19 5 -5 -23 11 -3 -23 11 -3 -19 5 1 -35 11 1 -37 11 3 -37 11 3 -35 11 3 -21 11 3 -23 11 5 -23 11 5 -21 11 9 7 9 -9 -3 5 -5 1 5 -3 1 5 -3 3 5 -5 11 5 -5 13 5 -7 -29 11 -7 -31 11 -5 -31 11 -5 -29 11 -7 27 5 -7 25 5 3 -13 7 3 -11 7 3 -15 21 -7 -23 11 -7 -25 11 5 1 5 5 -1 5 7 -1 5 7 1 5 -9 -33 11 -7 -33 11 5 -31 11 -1 -19 27 -1 -21 27 1 -21 27 1 -19 27 7 17 5 9 15 5 9 17 5 5 21 11 7 21 11 -5 21 11 -3 21 11 1 1 5 3 1 5 3 3 5 -11 -23 11 11 -37 11 -1 23 11 -1 21 11 1 21 11 1 23 11 -11 -21 27 5 19 5 7 19 5 -7 -7 5 -7 -5 5 5 -13 21 5 -11 21 -1 1 5 7 -23 11 7 -21 11 -7 -11 7 -7 -13 7 -5 -11 7 -1 25 11 5 -9 21 7 -11 21 -1 -25 11 -1 -23 11 -1 -27 11 1 -29 11 1 -31 11 3 -31 11 3 -29 11 -9 3 9 5 27 5 5 25 5 7 25 5 7 27 5 -11 25 11 -11 23 11 1 17 5 -7 -15 5 5 -37 11 5 21 5 5 -15 21 5 -17 21 9 23 11 9 21 11 11 23 11 -11 -13 21 5 -29 11 3 27 5 3 25 5 9 25 11 11 25 11 7 21 5 7 -19 5 7 -17 5 5 -19 13 5 -17 13 9 5 9 -3 5 5 9 3 5 9 1 5 -9 1 5 -9 3 5 -9 -1 5 -7 1 5 -5 -15 21 -5 -17 21 -3 -17 21 5 11 5 5 9 5 5 7 5 9 25 5 9 27 5 -11 -21 11 -9 -23 11 -9 -21 11 -9 9 9 9 -19 5 -1 -21 11 1 -23 11 1 -21 11 7 -13 21 11 25 5 11 27 5 3 -15 7 -7 -21 11 1 -39 11 3 -39 11 -1 -33 11 3 -17 21 -3 13 5 -1 13 5 11 -27 11 11 -29 11 3 -17 27 -11 -7 21 -11 -33 11 1 -25 11 1 -27 11 3 -27 11 3 -25 11 3 -1 5 3 -3 5 5 -3 5 -7 21 11 5 -7 21 -9 -35 11 -7 -35 11 9 -11 21 11 -11 21 11 -21 27 9 -21 27 7 -15 5 -5 -7 5 3 -11 15 3 -9 15 9 -27 11 -7 -15 7 11 -25 11 -9 -13 21 -9 19 5 -9 21 5 5 -27 11 7 -27 11 -7 -27 11 -3 -19 27 -3 -17 27 -1 25 5 -1 27 5 -3 -21 11 5 -25 11 7 -25 11 -1 -17 27 3 25 11 3 23 11 3 -9 21 1 15 5 5 -39 11 9 -37 11 9 -39 11 11 -39 11 9 -25 11 -3 -21 27 -5 -21 27 -1 -35 11 1 -33 11 -1 11 5 -3 11 5 -1 9 5 1 -17 27 -9 17 5 -5 -11 15 -5 -9 15 -1 -37 11 -1 -39 11 7 -3 5 3 5 5 3 -5 5 -9 15 9 -7 -9 21 -7 -11 21 -5 -9 21 -3 -9 15 -3 -11 15 -1 7 5 -5 -7 21 -3 -9 21 -3 -7 21 9 3 9 5 -5 5 -9 -11 21 -9 -9 21 -7 -7 21 3 -33 11 -11 -35 11 1 25 5 1 27 5 3 -7 21 -9 -17 27 -9 15 5 5 -7 5 7 -7 5 7 -5 5 3 -7 5 7 -37 11 7 -15 7 3 21 11 1 25 11 -3 -11 7 -9 -7 21 9 -5 5 5 -15 7 -7 -13 21 7 -21 27 7 -39 11 -9 21 11 9 -7 5 -5 -21 11 7 -11 9 5 -11 9 9 3 7 -3 -39 9 -5 -39 9 -5 -39 7 -3 -39 7 -11 -21 21 -11 -21 19 -3 -21 17 -5 -21 17 -5 -21 15 -3 -21 15 5 -11 13 7 -11 13 3 -11 9 9 -9 17 7 -21 17 5 -21 17 5 -21 15 7 -21 15 -7 -39 9 -7 -39 7 3 -21 25 5 -21 25 -7 -21 19 -9 -21 19 -9 -21 17 -7 -21 17 -1 -39 7 -3 -39 5 -1 -39 5 -1 -21 17 -1 -21 15 5 -21 23 3 -21 23 3 -21 21 5 -21 21 -7 21 9 -9 21 9 -9 21 7 -7 21 7 3 -21 17 1 -21 17 1 -21 15 3 -21 15 5 21 7 3 21 7 3 -11 13 3 -39 9 5 -39 9 9 21 9 9 21 7 3 -21 19 1 -21 19 11 -21 25 11 -21 23 -5 -21 13 -7 -21 13 9 -39 9 11 -39 9 11 -39 5 9 -39 5 11 -39 7 -9 3 7 9 -21 25 9 -21 23 -11 -29 1 7 -9 17 5 -9 17 -3 -21 25 -1 -21 25 9 -21 19 7 -21 19 9 -21 17 -1 -21 19 -3 -21 19 -7 -21 25 -5 -21 25 -5 -39 5 -7 -39 5 9 -21 21 11 -21 21 5 -11 11 3 -11 11 1 -9 17 3 -9 17 -9 -21 13 -11 -21 13 5 -21 13 3 -21 13 -7 -21 15 7 -39 9 5 -39 7 7 -39 7 -7 -11 13 7 -21 23 7 -21 21 -7 -9 17 -5 -9 17 -3 -21 23 -1 -21 23 -1 -9 17 7 21 7 -11 -21 17 11 -21 19 -3 -21 13 9 -39 7 -5 -11 13 -11 -39 9 -1 -39 9 1 -39 9 11 -29 1 7 -11 11 -3 -11 13 -3 -11 11 -3 -21 21 -1 -21 21 -9 -39 9 11 -21 13 3 21 9 1 21 9 1 21 7 -3 -9 17 5 21 9 -9 -21 25 11 5 1 -5 -11 11 -3 -11 9 1 -21 21 -5 -11 9 -7 -11 9 -5 21 7 -7 -21 23 -5 -21 23 -5 -21 19 -9 -21 23 -9 -21 21 -7 -21 21 5 -21 19 -1 21 7 7 -39 5 1 -39 7 1 -39 5 -9 -39 5 -3 21 7 -11 5 1 -11 -21 15 -9 -21 15 11 -21 17 9 -21 15 11 -21 15 1 -21 25 1 -21 23 7 -21 13 7 21 9 3 -39 5 -7 -11 11 -5 21 9 -3 21 9 1 -21 13 -9 -39 7 -11 -39 7 -11 -39 5 5 -39 5 -1 21 9 7 -21 25 -11 -21 25 -9 -9 17 9 -21 13 -1 -21 13 -5 -21 21 -11 -21 23 3 -39 7 7 25 7 9 25 7 1 -17 23 -1 -17 23 -1 -17 25 1 -17 25 -7 -19 7 -9 -19 7 -9 -19 9 -7 -19 9 -1 -7 7 1 -7 7 -3 -7 7 -3 -19 15 -5 -19 15 -5 -19 17 -3 -19 17 -3 -17 25 -5 -17 25 11 -7 15 9 -7 15 9 -7 17 11 -7 17 -5 -17 23 -7 -17 23 -7 -17 25 7 -19 15 5 -19 15 5 -19 17 7 -19 17 1 -7 13 -1 -7 13 -1 -7 15 1 -7 15 -11 -7 13 -11 -17 25 -1 27 3 -5 -7 7 3 -7 11 1 -7 11 3 -7 13 9 -7 9 7 -7 9 7 -7 11 9 -7 11 -7 -19 17 -9 -19 17 9 -19 7 5 -7 9 5 -7 11 -1 -19 15 -1 -19 17 5 25 9 3 25 9 -9 -7 7 11 -7 13 3 -19 15 1 -19 15 1 -19 17 3 -19 17 -3 -19 9 -5 -19 9 -5 -19 11 -3 -19 11 7 -7 7 9 -7 7 -7 25 9 -9 25 9 -11 -7 15 -7 -7 9 -9 -7 9 -9 -7 11 -7 -7 11 5 -7 13 7 -7 13 7 25 9 -7 -19 11 -7 -19 13 -5 -19 13 7 -7 15 5 -7 15 5 -7 17 7 -7 17 11 -7 19 9 -19 17 -9 -17 23 9 -7 19 7 -7 19 9 -17 23 11 -17 23 9 15 7 3 -7 17 1 -7 17 1 -7 19 3 -7 19 11 -21 1 -7 25 7 -9 25 7 9 -7 13 -5 -19 7 3 -7 9 -9 -19 11 -9 -19 13 11 13 1 -7 -19 15 -5 -7 17 -7 -7 17 -7 -7 19 -5 -7 19 -1 -7 17 -1 -7 19 -1 25 7 -3 25 7 -3 25 9 -1 25 9 -1 -19 9 -1 -19 11 -11 -17 23 9 -17 25 7 -17 25 -11 13 1 -5 -7 9 -5 -7 11 3 -17 23 5 -17 23 5 -7 19 -9 -7 13 -7 -7 13 -3 -19 13 5 -17 11 -9 15 7 5 -17 25 3 -7 7 5 -7 7 1 25 7 3 25 7 11 -17 25 9 -19 9 9 -19 11 9 25 9 -3 -17 23 11 25 9 -3 -7 17 -3 -7 19 -5 25 9 7 -17 23 11 25 7 -3 -7 15 -5 -7 15 -5 25 7 -1 -7 9 1 -7 9 -1 -7 11 5 25 7 -11 25 9 -3 -7 11 -5 -7 13 -3 -7 13 -9 -7 15 3 -19 7 1 -19 7 1 -19 9 1 25 9 1 27 3 -9 -19 15 3 -7 15 9 -19 15 1 -19 11 -9 -17 25 -11 -7 17 1 -19 13 -11 -7 19 5 -19 7 7 -19 7 -1 -19 7 -3 -19 7 -11 -21 1 -7 -7 7 -3 -7 9 -9 -7 17 9 -19 13 -1 -19 13 -7 -7 15 3 -17 25 -11 25 7 -9 -7 19 </float_array>
<technique_common>
<accessor count="2194" source="#Plane-color-mesh-positions-array" stride="3">
<param name="X" type="float"/>
<param name="Y" type="float"/>
<param name="Z" type="float"/>
</accessor>
</technique_common>
</source>
<vertices id="Plane-color-mesh-vertices">
<input semantic="POSITION" source="#Plane-color-mesh-positions"/>
</vertices>
<polylist count="463" material="Material_68_68_68-material">
<input offset="0" semantic="VERTEX" source="#Plane-color-mesh-vertices"/>
<vcount>4 4 4 4 4 4 4 4 4 4 4 4 4 4 4 4 4 4 4 4 4 4 4 4 4 4 4 4 4 4 4 4 4 4 4 4 4 4 4 4 4 4 4 4 4 4 4 4 4 4 4 4 4 4 4 4 4 4 4 4 4 4 4 4 4 4 4 4 4 4 4 4 4 4 4 4 4 4 4 4 4 4 4 4 4 4 4 4 4 4 4 4 4 4 4 4 4 4 4 4 4 4 4 4 4 4 4 4 4 4 4 4 4 4 4 4 4 4 4 4 4 4 4 4 4 4 4 4 4 4 4 4 4 4 4 4 4 4 4 4 4 4 4 4 4 4 4 4 4 4 4 4 4 4 4 4 4 4 4 4 4 4 4 4 4 4 4 4 4 4 4 4 4 4 4 4 4 4 4 4 4 4 4 4 4 4 4 4 4 4 4 4 4 4 4 4 4 4 4 4 4 4 4 4 4 4 4 4 4 4 4 4 4 4 4 4 4 4 4 4 4 4 4 4 4 4 4 4 4 4 4 4 4 4 4 4 4 4 4 4 4 4 4 4 4 4 4 4 4 4 4 4 4 4 4 4 4 4 4 4 4 4 4 4 4 4 4 4 4 4 4 4 4 4 4 4 4 4 4 4 4 4 4 4 4 4 4 4 4 4 4 4 4 4 4 4 4 4 4 4 4 4 4 4 4 4 4 4 4 4 4 4 4 4 4 4 4 4 4 4 4 4 4 4 4 4 4 4 4 4 4 4 4 4 4 4 4 4 4 4 4 4 4 4 4 4 4 4 4 4 4 4 4 4 4 4 4 4 4 4 4 4 4 4 4 4 4 4 4 4 4 4 4 4 4 4 4 4 4 4 4 4 4 4 4 4 4 4 4 4 4 4 4 4 4 4 4 4 4 4 4 4 4 4 4 4 4 4 4 4 4 4 4 4 4 4 4 4 4 4 4 4 4 4 4 4 4 4 4 4 4 4 4 4 4 4 4 4 4 4 4 4 4 4 4 4 4 4 4 4 4 4 4 4 4 4 4 4 4 4 4 4 4 </vcount>
<p>937 936 1062 1118 1121 1281 946 945 348 347 1005 1004 1243 1303 1306 1288 1095 1094 1144 1171 928 929 930 931 1674 1494 1392 1391 1084 1083 1318 1168 951 1159 1120 968 958 961 962 959 930 1102 1103 1104 964 1008 1009 965 1146 1063 773 886 1756 1786 1582 1498 1047 1046 1301 1225 1077 1078 1079 1080 1650 1349 1560 1634 1347 1389 1390 1348 1472 1471 1800 1784 496 495 1397 1398 1106 1043 1294 1107 1040 1041 1042 1043 1301 1080 1282 994 518 517 1543 1470 997 1320 1048 998 1500 1499 1407 1421 1542 1600 1601 1602 1157 1037 944 943 1043 1042 1242 1294 1484 1485 1486 1487 1645 1627 1629 1566 1169 1285 1286 1287 792 1072 1074 1334 1092 1184 990 1246 1222 1307 1253 1223 1240 1003 1203 1241 929 969 1102 930 1187 1275 1264 1262 959 962 1235 1069 968 1120 1121 969 1016 1255 950 949 1515 1453 1705 1704 1410 1409 1673 1430 1269 1130 935 934 1109 1110 899 898 1126 1142 1231 1230 1451 1487 1792 1452 256 250 1188 1299 1252 1251 1167 1023 990 991 992 993 200 199 1194 926 1149 1150 1151 1097 1253 1254 1255 1016 1107 1294 961 958 985 1047 1225 986 1221 1227 1302 939 1599 1398 1647 1481 1601 1346 1349 1650 998 1048 1051 1325 1262 1264 997 996 1335 1241 1271 1326 1307 1308 1254 1253 1498 1582 1584 1499 1225 1301 994 975 1067 978 979 1145 954 1021 1125 955 986 1225 975 974 1189 1190 1191 1049 1432 1431 1644 1676 1478 1567 162 161 1694 1602 1485 1484 1409 1447 1772 1673 965 1009 928 971 704 518 1470 1469 1726 1783 1782 1727 728 790 85 84 899 932 933 900 1299 1188 1263 1117 1020 993 1021 954 994 1282 1283 995 1108 1107 958 957 1782 1784 1450 1514 1021 1095 1171 1125 901 900 1053 1052 1117 1263 1078 1077 1514 1450 1453 1515 1800 1484 1487 1451 1705 1706 386 420 855 710 1697 1698 1321 1212 1013 1012 1053 1105 1198 1054 830 1473 25 24 1198 1020 954 953 608 704 1469 1603 1477 1516 1567 1478 1241 1203 1204 1271 476 475 444 443 1422 1410 1430 1429 1739 1805 1818 1791 1792 1636 1460 1459 1431 1476 1479 1644 347 442 1222 1005 1150 901 1052 1151 1566 1629 227 390 1024 1170 1190 1189 1277 937 1118 1093 1695 1696 114 436 1325 1051 1247 1035 1784 1800 1451 1450 1037 1036 1210 944 1284 1290 1185 1184 967 968 969 929 1258 1152 1153 942 1056 1007 1232 1057 957 958 959 960 1193 1040 1043 1106 1345 1249 1252 441 1644 1479 1627 1645 999 998 1325 1312 913 912 1308 1307 1286 1321 1012 1110 1055 1054 1152 1258 1288 1306 1112 1111 1690 1689 1713 1473 1179 1299 1117 1045 1389 1533 1454 1390 764 763 410 445 1584 1583 1446 1408 1097 1151 1257 1098 945 946 947 948 1636 1635 1616 1460 987 986 974 978 943 944 524 523 710 709 1699 1697 1052 1053 1054 1055 1617 1739 1791 1618 1634 1560 1737 1635 874 1219 1178 1177 1170 1169 1287 1190 1565 1566 390 389 1482 1558 1389 1347 1254 1114 1291 1255 935 1141 1061 936 1627 161 1628 1629 1129 1230 1220 1141 1255 1291 1158 950 199 348 1004 1194 1499 1584 1408 1407 1096 1097 1098 1099 889 1570 1573 430 1017 949 952 1008 1012 1013 1014 932 936 1061 938 1062 1114 1113 1180 1291 1604 1603 1783 1726 1214 1070 1290 1284 250 189 1187 1188 1014 1284 1184 1092 1048 1049 1050 1051 1064 1135 792 774 996 997 998 999 1235 1128 1130 1269 1582 630 1583 1584 1479 1478 161 1627 918 1058 1126 1127 1119 1139 1186 1143 931 930 1104 756 1567 1704 429 162 1516 1515 1704 1567 1070 1069 1268 1290 912 1288 1111 1308 1517 1518 142 115 1485 1650 1634 1486 1046 1077 1080 1301 963 964 965 966 991 1277 1093 992 1135 1136 1072 792 419 1179 1045 1044 1400 1371 1690 1748 1061 1221 939 938 1483 1482 1347 1346 1076 1075 984 1100 441 1252 1023 1022 1203 1108 957 1204 1128 1127 1129 1130 971 928 931 972 1494 1495 1496 1392 1618 1791 1518 1517 1290 1268 1270 1185 1041 909 1267 1042 1430 1673 1476 1431 1268 1269 934 1270 1042 1267 925 1242 1082 1236 1342 1083 1326 1271 1212 1321 1139 940 1229 1186 1044 1045 1046 1047 1748 1690 1473 830 1460 1616 1619 21 1003 1002 1108 1203 1191 1109 898 1202 1230 1231 1226 1220 1098 1257 1248 1101 1313 1034 1037 1157 1398 1397 1646 1647 831 830 24 411 1270 934 937 1277 1291 1180 1183 1158 630 609 1604 1583 1194 1004 1007 1056 1223 1253 1016 1015 1473 1713 437 25 1727 1782 1514 1513 1204 957 960 1213 1004 1005 1006 1007 1826 1832 62 61 1513 1514 1515 1516 1312 1325 1035 1034 1583 1604 1726 1446 137 136 1075 1076 1394 1393 1570 889 442 913 1307 1222 1688 1645 1566 1565 1559 1456 1793 1738 1022 1023 1024 1025 1697 1699 1480 1700 1099 1098 1101 798 1231 963 966 1226 1006 1223 1015 1148 1600 1483 1346 1601 1348 1390 1456 1559 1772 1513 1516 1477 1585 1586 1495 1494 1456 1455 1819 1793 1049 1191 1202 1050 995 1283 1156 1136 1083 1342 1335 1318 1093 1118 1119 1094 1393 1589 1571 1570 1629 1628 228 227 1102 945 948 1103 1050 1202 1150 1149 1002 1106 1107 1108 1079 999 1312 1311 779 1700 1600 1542 1453 1452 1706 1705 1184 1185 991 990 944 1210 658 524 978 974 977 979 1818 1817 1832 1826 1603 1469 1472 1783 1110 1012 932 899 1294 1242 916 961 911 1243 1288 912 709 848 1599 1699 960 959 1069 1070 1167 1168 1169 1170 1127 1126 1230 1129 136 271 1195 1075 1737 1738 1739 1617 1226 966 970 1227 909 908 200 1267 1446 1726 1727 1447 1368 1369 1370 1371 1195 1044 1047 985 1001 1193 1106 1002 910 911 912 913 979 977 1064 1063 976 995 1136 1135 1704 1705 420 429 926 1194 1056 927 1421 1407 1410 1422 1481 1647 1558 1482 973 972 755 671 1408 1446 1447 1409 1140 1017 1008 964 1371 1370 1689 1690 1148 1015 1017 1140 1078 996 999 1079 1487 1486 1636 1792 972 931 756 755 754 753 1756 1757 1320 1189 1049 1048 1757 1756 1498 1497 475 728 84 444 1051 1050 1149 1247 952 951 968 967 790 789 1585 85 271 419 1044 1195 1005 1222 1223 1006 1036 1096 1099 1210 1188 1187 1262 1263 1197 1140 964 963 1227 970 973 1302 1791 1818 1826 1518 1342 1240 1241 1335 1459 1460 21 20 1035 1247 1096 1036 1391 1392 1393 1394 1287 1286 1110 1109 1025 1024 1189 1320 1246 990 993 1020 1251 1084 1168 1167 1130 1129 1141 935 933 1092 1246 1105 1156 1157 943 1073 1706 1459 20 386 1673 1772 1477 1476 898 899 900 901 753 714 1786 1756 961 916 919 962 1282 1311 1313 1283 1104 1103 914 1154 974 975 976 977 962 919 1128 1235 977 976 1135 1064 1080 1079 1311 1282 940 890 1336 1229 1120 1279 1281 1121 1450 1451 1452 1453 1212 1213 1214 1013 789 816 1586 1585 1159 1192 1279 1120 1616 1617 1618 1619 1236 1239 1240 1342 1275 1022 1025 1264 1220 1226 1227 1221 900 933 1105 1053 1213 960 1070 1214 1158 1183 1192 1159 1699 1599 1481 1480 1700 1480 1483 1600 1177 1178 1179 419 517 779 1542 1543 1334 1074 1206 427 970 971 972 973 1602 1601 1650 1485 932 1014 1092 933 1558 1749 1533 1389 189 188 1275 1187 1009 967 929 928 1066 987 978 1067 975 994 995 976 85 1585 1494 1674 1103 948 915 914 1202 898 901 1150 1407 1408 1409 1410 1000 1001 1002 1003 1045 1117 1077 1046 917 927 1058 918 1619 1618 1517 1696 1062 938 940 1139 938 939 890 940 848 496 1398 1599 1100 984 987 1066 984 985 986 987 1013 1214 1284 1014 1242 925 917 916 1476 1477 1478 1479 188 441 1022 1275 1518 1826 61 142 1058 1057 1142 1126 1142 1197 963 1231 1074 620 1205 1206 948 947 1319 915 1185 1270 1277 991 966 965 971 970 953 954 955 956 1738 1793 1805 1739 1285 1326 1321 1286 1007 1006 1148 1232 1199 910 913 442 1101 1248 941 1245 1346 1347 1348 1349 1470 1543 1694 1471 798 1101 1245 1244 1573 1572 1369 1368 925 926 927 917 992 1093 1094 1095 1786 1815 630 1582 1248 1258 942 941 1805 1816 1817 1818 1311 1312 1034 1313 934 935 936 937 1057 1232 1197 1142 1168 1318 1285 1169 1497 1498 1499 1500 866 881 292 291 1302 973 671 670 927 1056 1057 1058 1399 1368 1371 1400 1210 1099 798 658 1023 1167 1170 1024 1469 1470 1471 1472 1471 1694 1484 1800 1696 1517 115 114 1390 1454 1455 1456 1054 1198 953 1152 867 866 291 358 1152 953 956 1153 1447 1727 1513 1772 1247 1149 1097 1096 1452 1792 1459 1706 1793 1819 1816 1805 1283 1313 1157 1156 1239 1000 1003 1240 1271 1204 1213 1212 1094 1119 1143 1144 1257 1055 1258 1248 714 713 1815 1786 1318 1335 1326 1285 1111 1112 1113 1114 950 1158 1159 951 1008 952 967 1009 1543 1542 1602 1694 1486 1634 1635 1636 919 918 1127 1128 1081 1082 1083 1084 1136 1156 1073 1072 1647 1646 1749 1558 969 1121 945 1102 1676 1644 1645 1688 916 917 918 919 881 889 430 292 1480 1481 1482 1483 1145 979 1063 1146 1072 1073 620 1074 949 950 951 952 1073 943 523 620 1570 1571 1572 1573 1141 1220 1221 1061 1105 1246 1020 1198 1263 1262 996 1078 1349 1348 1559 1560 1232 1148 1140 1197 1015 1016 949 1017 1635 1737 1617 1616 756 1104 1154 1155 430 1573 1368 1399 939 1302 670 890 1560 1559 1738 1737 1250 1081 1084 1251 1264 1025 1320 997 1178 256 1299 1179 1034 1035 1036 1037 1392 1496 1589 1393 1429 1430 1431 1432 993 992 1095 1021 1190 1287 1109 1191 1783 1472 1784 1782 1219 1344 256 1178 1249 1250 1251 1252 609 608 1603 1604 1267 200 926 925 1069 1235 1269 1268 1151 1052 1055 1257 1075 1195 985 984 1308 1111 1114 1254 1698 1697 1700 779 1118 1062 1139 1119 1063 1064 774 773 763 831 411 410 21 1619 1696 1695 </p>
</polylist>
<polylist count="231" material="Material_187_187_187-material">
<input offset="0" semantic="VERTEX" source="#Plane-color-mesh-vertices"/>
<vcount>4 4 4 4 4 4 4 4 4 4 4 4 4 4 4 4 4 4 4 4 4 4 4 4 4 4 4 4 4 4 4 4 4 4 4 4 4 4 4 4 4 4 4 4 4 4 4 4 4 4 4 4 4 4 4 4 4 4 4 4 4 4 4 4 4 4 4 4 4 4 4 4 4 4 4 4 4 4 4 4 4 4 4 4 4 4 4 4 4 4 4 4 4 4 4 4 4 4 4 4 4 4 4 4 4 4 4 4 4 4 4 4 4 4 4 4 4 4 4 4 4 4 4 4 4 4 4 4 4 4 4 4 4 4 4 4 4 4 4 4 4 4 4 4 4 4 4 4 4 4 4 4 4 4 4 4 4 4 4 4 4 4 4 4 4 4 4 4 4 4 4 4 4 4 4 4 4 4 4 4 4 4 4 4 4 4 4 4 4 4 4 4 4 4 4 4 4 4 4 4 4 4 4 4 4 4 4 4 4 4 4 4 4 4 4 4 4 4 4 4 4 4 4 4 4 4 4 4 4 4 4 </vcount>
<p>135 270 271 136 1912 1911 1967 1968 780 873 876 781 1065 1066 1067 1068 1829 1387 1858 2000 541 480 544 542 1218 894 1684 1667 1163 1172 426 425 897 896 1174 1173 73 74 75 45 74 121 172 75 1173 1174 1175 1176 887 1280 1228 886 1176 1175 350 349 1670 1669 1707 1708 1359 1703 2148 2011 1131 1134 1578 1581 2007 1976 1977 1990 2044 352 1353 1764 1280 1164 262 261 176 43 177 178 532 533 534 535 1812 1811 1685 1684 533 1889 1890 534 352 351 902 903 2010 2011 2012 2013 1801 1797 1802 1803 1382 1381 2153 2096 897 1173 2171 894 1147 1256 418 270 1976 1863 1865 1977 2031 2032 2033 2026 776 775 1163 1164 2012 2025 1762 1768 2125 178 69 2043 1814 1561 1564 1574 1977 1865 1211 1182 1134 275 278 1578 2013 2012 1768 1785 1133 264 306 276 480 479 545 544 43 42 383 177 2025 2026 1576 1762 1334 427 426 1172 1134 1133 276 275 1762 1761 1623 1768 1177 419 418 1256 1747 1829 2000 1899 1764 1763 1811 1812 1176 349 352 2044 352 903 1350 1353 1987 1935 1951 1963 1218 1217 895 894 1215 1218 1667 1670 895 1065 1174 896 1065 1068 1175 1174 774 792 793 775 1161 1131 1581 1609 1192 1211 1278 1279 2133 2102 1813 1741 1122 567 1337 1266 1266 1337 137 1216 1768 1623 1626 1785 571 488 645 572 1490 1489 2125 2093 178 177 70 69 70 408 414 71 428 182 434 425 893 1746 1889 533 1164 1163 425 262 1626 1625 1386 1385 622 485 488 571 535 534 610 591 2176 2043 1384 1814 1930 1868 1871 1931 134 135 136 137 792 1334 1172 793 542 544 458 457 740 780 781 782 1180 1181 1182 1183 1865 1864 1278 1211 876 875 1256 1147 71 414 1643 1383 53 54 55 56 262 425 434 433 849 850 532 824 278 277 1579 1578 1265 1266 1216 1215 1761 1778 1624 1623 166 56 147 265 2171 2044 1764 1812 485 486 487 488 2139 2191 1730 1506 270 418 419 271 1173 1176 2044 2171 1719 1718 552 551 1522 1521 850 849 824 2144 1522 849 2127 2139 1506 1508 425 426 427 428 894 895 896 897 1725 1360 2010 2131 261 262 263 264 177 383 408 70 1161 1160 1132 1131 1068 1067 1145 351 1276 1122 1266 1265 824 532 535 825 903 1161 1609 1350 1708 1707 1718 1719 1384 1383 1561 1814 1730 1385 1388 1506 2148 2031 2026 2025 1011 1010 135 134 1779 1563 1911 1912 1625 1624 1905 1986 590 1445 2097 825 2006 383 42 1841 1217 1076 1100 895 1986 1905 1935 1987 1702 1568 2032 2031 887 776 1164 1280 1265 1215 1670 1708 551 552 553 554 1386 1625 1986 1857 1381 1678 2132 2153 1684 1685 1668 1667 1280 261 264 1228 782 781 876 569 2093 2125 2043 2176 902 1146 886 1160 1561 1562 1563 1564 1385 1386 1387 1388 1562 1643 2001 1959 1778 1779 1912 1904 534 1890 1916 610 69 70 71 72 1563 1562 1959 1911 825 535 591 590 165 53 56 166 2132 2131 2191 2139 554 1276 1719 551 552 700 722 553 775 793 1172 1163 554 553 1122 1276 2096 2153 2127 2126 1160 886 1228 1132 903 902 1160 1161 1445 1382 2096 2097 75 172 131 5 1703 1702 2031 2148 1785 1626 1385 1730 1350 1351 1352 1353 1576 1575 1761 1762 2097 2096 2126 2144 1519 1520 1521 1522 1388 1387 1829 1507 773 774 775 776 782 569 568 740 1609 1610 1351 1350 567 568 569 570 1353 1352 1763 1764 262 433 279 263 275 276 277 278 894 2171 1812 1684 570 1011 1337 567 1623 1624 1625 1626 2011 2148 2025 2012 1383 1643 1562 1561 1068 351 350 1175 1746 1747 1899 1889 2043 69 72 1384 1520 1747 1746 1521 2026 2033 1574 1576 1216 137 1076 1217 1183 1182 1211 1192 276 306 307 277 2144 2126 1519 1522 544 545 546 458 1813 1771 1657 1741 2151 2116 1801 1803 1276 1265 1708 1719 349 350 351 352 1564 1563 1779 1575 1387 1386 1857 1858 873 874 875 876 1215 1216 1217 1218 1578 1579 1580 1581 1360 1359 2011 2010 2000 1858 1868 1930 874 1177 1256 875 72 71 1383 1384 1863 1840 1864 1865 2131 2010 2013 2191 2191 2013 1785 1730 2032 2093 2176 2033 1568 1490 2093 2032 1489 176 178 2125 1507 1829 1747 1520 570 569 1010 1011 825 2097 2144 824 850 893 533 532 1508 1507 1520 1519 1521 1746 893 850 2126 2127 1508 1519 1581 1580 1610 1609 1990 1977 1182 1181 886 773 776 887 553 722 567 1122 45 75 5 4 1575 1779 1778 1761 1678 1725 2131 2132 1010 1147 270 135 1574 1564 1575 1576 2033 2176 1814 1574 433 434 182 279 1132 1228 264 1133 1011 134 137 1337 1968 1967 1972 2005 1624 1778 1904 1905 569 876 1147 1010 1506 1388 1507 1508 1667 1668 1669 1670 56 55 128 147 2153 2132 2139 2127 1643 414 408 2001 895 1100 1066 1065 1131 1132 1133 1134 488 487 648 645 2001 408 383 2006 351 1145 1146 902 </p>
</polylist>
<polylist count="259" material="Material_34_34_34-material">
<input offset="0" semantic="VERTEX" source="#Plane-color-mesh-vertices"/>
<vcount>4 4 4 4 4 4 4 4 4 4 4 4 4 4 4 4 4 4 4 4 4 4 4 4 4 4 4 4 4 4 4 4 4 4 4 4 4 4 4 4 4 4 4 4 4 4 4 4 4 4 4 4 4 4 4 4 4 4 4 4 4 4 4 4 4 4 4 4 4 4 4 4 4 4 4 4 4 4 4 4 4 4 4 4 4 4 4 4 4 4 4 4 4 4 4 4 4 4 4 4 4 4 4 4 4 4 4 4 4 4 4 4 4 4 4 4 4 4 4 4 4 4 4 4 4 4 4 4 4 4 4 4 4 4 4 4 4 4 4 4 4 4 4 4 4 4 4 4 4 4 4 4 4 4 4 4 4 4 4 4 4 4 4 4 4 4 4 4 4 4 4 4 4 4 4 4 4 4 4 4 4 4 4 4 4 4 4 4 4 4 4 4 4 4 4 4 4 4 4 4 4 4 4 4 4 4 4 4 4 4 4 4 4 4 4 4 4 4 4 4 4 4 4 4 4 4 4 4 4 4 4 4 4 4 4 4 4 4 4 4 4 4 4 4 4 4 4 4 4 4 4 4 4 4 4 4 4 4 4 </vcount>
<p>458 546 739 459 1751 1750 1373 1372 888 1552 1394 889 358 291 294 359 1824 1553 880 725 545 717 718 546 651 650 1316 1317 785 784 1165 1166 298 297 354 355 1333 446 198 2103 54 398 126 55 444 84 87 365 1375 1374 766 765 460 459 1196 1038 147 128 251 368 1948 1942 1961 1949 1947 1917 1835 1834 1088 988 118 217 796 647 1086 1333 84 85 86 87 623 624 625 626 459 739 1138 1196 847 477 480 541 1942 1929 1991 1961 891 892 624 623 356 357 186 249 834 809 988 1088 1550 1551 1552 1553 249 186 189 250 660 661 662 663 88 89 90 91 1750 447 354 1882 478 732 749 479 829 1821 1748 830 440 216 73 336 988 989 119 118 467 571 572 573 621 2128 1205 620 302 301 442 347 128 127 153 251 877 673 835 878 365 87 1654 1653 737 736 763 764 87 86 1753 1654 1980 398 397 1165 487 832 649 648 1882 354 297 1918 717 1345 1960 718 828 829 830 831 287 288 289 290 1315 1314 288 287 1289 440 336 2184 2103 198 200 908 757 1901 989 808 1838 1855 1856 1839 1949 1961 1964 1962 393 397 398 54 667 666 736 737 661 1948 1949 662 604 460 1038 1039 880 888 889 881 621 526 721 769 416 415 1691 1692 299 300 301 302 600 599 485 622 798 1244 1980 783 1834 1835 1554 1557 626 625 1314 1315 294 293 1611 1612 260 265 104 100 216 217 74 73 5 131 133 6 890 670 673 877 91 90 348 199 1849 296 294 1612 1138 1137 380 379 1961 1991 1965 1964 1551 1753 1674 1391 739 738 1137 1138 659 783 784 785 832 1199 1946 649 769 1331 2128 621 1835 1849 1612 1554 457 458 459 460 723 724 725 726 259 166 265 260 525 659 785 720 672 758 809 834 725 880 881 866 783 1980 1165 784 573 572 647 796 620 523 526 621 756 1155 1901 757 1039 1038 356 432 90 302 347 348 647 646 1085 1086 448 447 1750 1751 1720 431 430 1399 1315 287 290 2137 645 648 651 646 1331 1116 324 423 1374 1373 1847 1848 524 658 659 525 89 299 302 90 726 725 866 867 1474 159 158 1929 670 671 672 673 1964 1965 1653 1655 477 478 479 480 1372 1373 1374 1375 44 45 4 46 1289 1087 216 440 662 1949 1962 724 121 120 353 172 730 1799 1948 661 663 662 724 723 794 847 541 540 604 1039 2111 603 1552 1551 1391 1394 664 665 666 667 835 834 1088 1087 364 365 366 367 1373 1750 1882 1847 1962 1964 1655 1824 1333 1086 88 446 292 430 431 293 1839 1856 1914 1913 1944 1837 1840 1863 1654 1753 1551 1550 1837 1838 1839 1840 1787 1474 1929 1942 1086 1085 89 88 729 730 661 660 1554 1555 1556 1557 1039 432 255 2111 809 808 989 988 649 1946 1316 650 2111 255 256 1344 546 718 738 739 131 132 12 133 599 642 486 485 1553 1552 888 880 1653 1654 1550 1655 355 354 447 448 767 1848 1947 665 523 524 525 526 602 600 622 466 673 672 834 835 1087 1088 217 216 198 91 199 200 724 1962 1824 725 603 457 460 604 1475 1474 1787 1788 1085 1317 299 89 1612 1611 1555 1554 1115 1166 393 325 1655 1550 1553 1824 1917 1918 1849 1835 423 324 165 424 1821 1827 1400 1748 878 1289 2184 877 671 755 758 672 443 444 365 364 172 353 132 131 721 720 1115 1116 1847 1882 1918 1917 1753 86 85 1674 543 542 457 603 1798 1799 730 729 255 249 250 256 626 1315 2137 623 1901 120 119 989 357 379 187 186 1331 423 424 2128 877 2184 1336 890 1799 1787 1942 1948 1926 1884 1927 1928 432 356 249 255 1199 442 301 1946 332 333 158 157 187 381 441 188 1918 297 296 1849 765 766 767 768 324 325 53 165 796 1333 2103 573 642 854 836 486 118 119 120 121 325 393 54 53 1196 1138 379 357 2128 424 259 1205 291 292 293 294 1116 1115 325 324 336 73 45 44 157 158 159 160 1244 126 398 1980 367 366 333 332 666 1834 1557 736 1788 1787 1799 1798 1848 1847 1917 1947 769 721 1116 1331 293 431 1720 1611 718 1960 1137 738 878 835 1087 1289 479 749 717 545 766 1374 1848 767 466 622 571 467 1827 1720 1399 1400 1840 1839 1913 1864 46 4 7 201 736 828 831 763 1557 1556 828 736 55 126 127 128 290 289 415 416 4 5 6 7 1317 1316 300 299 755 756 757 758 2137 290 416 1692 1555 1827 1821 1556 160 159 1474 1475 665 1947 1834 666 1166 1165 397 393 1927 2007 1990 1998 758 757 808 809 603 2111 1344 543 1928 1927 1998 1975 1965 366 365 1653 265 147 368 104 646 651 1317 1085 648 649 650 651 186 187 188 189 1945 1944 1863 1976 295 296 297 298 1960 381 380 1137 1946 301 300 1316 446 88 91 198 658 798 783 659 540 541 542 543 526 525 720 721 1155 353 120 1901 1611 1720 1827 1555 1929 158 333 1991 1884 1883 2007 1927 720 785 1166 1115 359 294 296 295 1692 1691 892 891 1038 1196 357 356 217 118 121 74 1883 1945 1976 2007 573 2103 908 467 379 380 381 187 768 767 665 664 424 165 166 259 2184 336 44 1336 1556 1821 829 828 623 2137 1692 891 572 645 646 647 1345 441 381 1960 1991 333 366 1965 486 836 832 487 </p>
</polylist>
<polylist count="238" material="Material_51_51_51-material">
<input offset="0" semantic="VERTEX" source="#Plane-color-mesh-vertices"/>
<vcount>4 4 4 4 4 4 4 4 4 4 4 4 4 4 4 4 4 4 4 4 4 4 4 4 4 4 4 4 4 4 4 4 4 4 4 4 4 4 4 4 4 4 4 4 4 4 4 4 4 4 4 4 4 4 4 4 4 4 4 4 4 4 4 4 4 4 4 4 4 4 4 4 4 4 4 4 4 4 4 4 4 4 4 4 4 4 4 4 4 4 4 4 4 4 4 4 4 4 4 4 4 4 4 4 4 4 4 4 4 4 4 4 4 4 4 4 4 4 4 4 4 4 4 4 4 4 4 4 4 4 4 4 4 4 4 4 4 4 4 4 4 4 4 4 4 4 4 4 4 4 4 4 4 4 4 4 4 4 4 4 4 4 4 4 4 4 4 4 4 4 4 4 4 4 4 4 4 4 4 4 4 4 4 4 4 4 4 4 4 4 4 4 4 4 4 4 4 4 4 4 4 4 4 4 4 4 4 4 4 4 4 4 4 4 4 4 4 4 4 4 4 4 4 4 4 4 4 4 4 4 4 4 4 4 4 4 4 4 </vcount>
<p>2136 2086 2022 2021 1891 1892 1721 1833 1867 1846 1940 2004 2114 2187 2193 2115 449 450 451 452 689 691 694 752 1939 1906 1908 1983 500 499 501 502 1851 1852 1853 1854 312 2146 2188 313 1853 1879 1924 1923 2021 2022 2023 2024 415 2178 2065 2064 1209 1300 1920 1903 2047 2160 2039 2038 2187 2177 2179 2193 328 303 305 282 1324 1327 2002 1932 1691 415 2064 2035 596 593 778 715 1876 1877 1878 1879 2058 2021 2024 2059 617 715 687 716 1341 1322 1933 1957 35 1850 765 32 593 592 777 778 2057 2046 2048 2081 448 729 660 355 2175 2124 2189 2178 3 2 148 304 2178 2189 2058 2065 2165 2164 2156 2155 2086 2085 2112 2022 1866 1843 1846 1867 871 799 801 872 32 33 34 35 453 454 455 456 1322 1324 1932 1933 232 313 371 233 2002 762 871 160 2130 2080 2135 2164 2070 2084 2085 2086 2146 624 892 2188 77 241 326 78 1921 1922 1709 1711 244 234 245 179 455 587 588 589 2054 587 795 1091 456 455 589 771 589 588 810 450 1207 1209 1903 1902 2172 588 587 2054 2052 2051 2082 2106 179 245 421 180 2034 2035 2036 2037 2082 2081 2088 2087 501 746 652 527 771 589 450 449 2059 2024 1340 1090 326 327 303 328 241 334 327 326 2150 2113 2116 2151 1910 1969 1844 1843 2003 1988 1652 1538 1892 1921 1711 1721 378 2052 2106 2063 1983 1908 1984 1985 1969 1859 1862 1844 450 810 519 451 2023 2053 1330 1329 2039 2165 2155 2040 2110 810 588 2172 1923 1924 1594 1597 231 232 233 234 1903 1920 1751 1372 1877 1866 1867 1878 2155 2156 2113 2150 1936 1957 1798 729 2035 2064 2067 2036 716 687 690 746 799 772 800 801 1924 1994 1716 1594 1919 1936 729 448 1906 1907 1851 1908 761 770 772 799 560 616 498 497 233 371 309 308 1843 1844 1845 1846 1861 1938 1981 1982 1908 1851 1854 1984 801 800 803 706 2134 2042 2076 2166 1902 1903 1372 1375 2085 2110 2172 2112 759 760 761 762 2090 2089 2133 2095 1296 1297 1936 1919 0 1 2 3 266 231 234 244 78 326 328 112 1850 1902 1375 765 1988 1923 1597 1652 2112 2172 2054 2053 1973 1887 1876 1852 2029 2090 2095 2094 2156 2190 2114 2113 35 34 181 422 1879 1878 1994 1924 497 498 499 500 308 309 310 311 2087 2088 2089 2090 157 872 705 332 1860 1842 1938 1861 2166 2076 2177 2187 499 716 746 501 2164 2135 2190 2156 305 8 11 267 52 266 244 33 309 2092 1237 310 219 218 231 266 2109 519 810 2110 1907 1973 1852 1851 804 453 456 770 2022 2112 2053 2023 1844 1862 1925 1845 1297 1341 1957 1936 2024 2023 1329 1340 1982 1981 1922 1921 2135 2134 2166 2190 1859 1860 1861 1862 1984 1854 1988 2003 1293 1207 1902 1850 51 52 33 32 109 108 52 51 778 777 827 688 760 804 770 761 245 308 311 421 1 98 338 2 1957 1933 1788 1798 2188 892 2034 2174 2038 2039 2040 2041 690 689 752 653 2089 2099 2102 2133 1862 1861 1982 1925 2066 2059 1090 1089 772 771 449 800 2071 2070 2086 2136 2117 2150 2151 2118 1852 1876 1879 1853 1845 1925 1892 1891 2106 2082 2087 2028 51 768 664 109 2051 2057 2081 2082 2092 2037 1238 1237 303 304 8 305 274 312 313 232 2065 2058 2059 2066 892 1691 2035 2034 770 456 771 772 281 282 93 92 355 660 663 298 2 338 149 148 108 219 266 52 2173 2041 2100 2099 688 827 691 689 2064 2065 2066 2067 597 596 715 617 2040 2155 2150 2117 160 871 872 157 1933 1932 1475 1788 2079 884 2042 2134 2099 2100 2101 2102 2041 2040 2117 2100 502 501 527 490 1909 1910 1843 1866 2053 2054 1091 1330 2190 2166 2187 2114 2063 2106 2028 2027 2088 2173 2099 2089 334 0 3 327 2048 2038 2041 2173 454 795 587 455 715 778 688 687 1846 1845 1891 1940 371 2174 2092 309 313 2188 2174 371 33 244 179 34 1854 1853 1923 1988 234 233 308 245 872 801 706 705 2037 2036 1338 1238 1888 1909 1866 1877 34 179 180 181 2160 2163 2165 2039 32 765 768 51 2036 2067 1273 1338 2030 2029 2094 2091 2067 2066 1089 1273 2113 2114 2115 2116 2046 2047 2038 2048 9 150 40 10 304 148 9 8 282 305 267 93 746 690 653 652 2189 2136 2021 2058 1887 1888 1877 1876 2174 2034 2037 2092 2084 2109 2110 2085 1932 2002 160 1475 2004 1940 1765 1714 800 449 452 803 112 328 282 281 1994 2004 1714 1716 2028 2087 2090 2029 148 149 150 9 218 274 232 231 1327 759 762 2002 1940 1891 1833 1765 1300 1296 1919 1920 1920 1919 448 1751 2027 2028 2029 2030 2163 2130 2164 2165 2080 2079 2134 2135 687 688 689 690 1985 1984 2003 1953 2124 2071 2136 2189 1953 2003 1538 1541 1925 1982 1921 1892 616 597 617 498 289 2175 2178 415 498 617 716 499 8 9 10 11 1878 1867 2004 1994 762 761 799 871 422 1293 1850 35 2100 2117 2118 2101 2081 2048 2173 2088 327 3 304 303 </p>
</polylist>
<polylist count="28" material="Material_255_255_255-material">
<input offset="0" semantic="VERTEX" source="#Plane-color-mesh-vertices"/>
<vcount>4 4 4 4 4 4 4 4 4 4 4 4 4 4 4 4 4 4 4 4 4 4 4 4 4 4 4 4 </vcount>
<p>1952 1943 1996 1995 1935 1934 1950 1951 1890 1900 1915 1916 1970 2006 1841 1971 1904 1912 1968 1934 549 1897 1895 618 1899 2000 1930 1900 101 382 369 102 1905 1904 1934 1935 550 549 618 619 1857 1986 1987 1869 1894 1893 1941 1897 1889 1899 1900 1890 1900 1930 1931 1915 1934 1968 2005 1950 102 369 211 210 547 548 549 550 1869 1987 1963 1870 1967 1970 1971 1972 548 1894 1897 549 1996 369 382 1997 1995 1996 1997 1978 1959 2001 2006 1970 1897 1941 1896 1895 1943 211 369 1996 1911 1959 1970 1967 1858 1857 1869 1868 1868 1869 1870 1871 </p>
</polylist>
<polylist count="951" material="Material_204_51_0-material">
<input offset="0" semantic="VERTEX" source="#Plane-color-mesh-vertices"/>
<vcount>4 4 4 4 4 4 4 4 4 4 4 4 4 4 4 4 4 4 4 4 4 4 4 4 4 4 4 4 4 4 4 4 4 4 4 4 4 4 4 4 4 4 4 4 4 4 4 4 4 4 4 4 4 4 4 4 4 4 4 4 4 4 4 4 4 4 4 4 4 4 4 4 4 4 4 4 4 4 4 4 4 4 4 4 4 4 4 4 4 4 4 4 4 4 4 4 4 4 4 4 4 4 4 4 4 4 4 4 4 4 4 4 4 4 4 4 4 4 4 4 4 4 4 4 4 4 4 4 4 4 4 4 4 4 4 4 4 4 4 4 4 4 4 4 4 4 4 4 4 4 4 4 4 4 4 4 4 4 4 4 4 4 4 4 4 4 4 4 4 4 4 4 4 4 4 4 4 4 4 4 4 4 4 4 4 4 4 4 4 4 4 4 4 4 4 4 4 4 4 4 4 4 4 4 4 4 4 4 4 4 4 4 4 4 4 4 4 4 4 4 4 4 4 4 4 4 4 4 4 4 4 4 4 4 4 4 4 4 4 4 4 4 4 4 4 4 4 4 4 4 4 4 4 4 4 4 4 4 4 4 4 4 4 4 4 4 4 4 4 4 4 4 4 4 4 4 4 4 4 4 4 4 4 4 4 4 4 4 4 4 4 4 4 4 4 4 4 4 4 4 4 4 4 4 4 4 4 4 4 4 4 4 4 4 4 4 4 4 4 4 4 4 4 4 4 4 4 4 4 4 4 4 4 4 4 4 4 4 4 4 4 4 4 4 4 4 4 4 4 4 4 4 4 4 4 4 4 4 4 4 4 4 4 4 4 4 4 4 4 4 4 4 4 4 4 4 4 4 4 4 4 4 4 4 4 4 4 4 4 4 4 4 4 4 4 4 4 4 4 4 4 4 4 4 4 4 4 4 4 4 4 4 4 4 4 4 4 4 4 4 4 4 4 4 4 4 4 4 4 4 4 4 4 4 4 4 4 4 4 4 4 4 4 4 4 4 4 4 4 4 4 4 4 4 4 4 4 4 4 4 4 4 4 4 4 4 4 4 4 4 4 4 4 4 4 4 4 4 4 4 4 4 4 4 4 4 4 4 4 4 4 4 4 4 4 4 4 4 4 4 4 4 4 4 4 4 4 4 4 4 4 4 4 4 4 4 4 4 4 4 4 4 4 4 4 4 4 4 4 4 4 4 4 4 4 4 4 4 4 4 4 4 4 4 4 4 4 4 4 4 4 4 4 4 4 4 4 4 4 4 4 4 4 4 4 4 4 4 4 4 4 4 4 4 4 4 4 4 4 4 4 4 4 4 4 4 4 4 4 4 4 4 4 4 4 4 4 4 4 4 4 4 4 4 4 4 4 4 4 4 4 4 4 4 4 4 4 4 4 4 4 4 4 4 4 4 4 4 4 4 4 4 4 4 4 4 4 4 4 4 4 4 4 4 4 4 4 4 4 4 4 4 4 4 4 4 4 4 4 4 4 4 4 4 4 4 4 4 4 4 4 4 4 4 4 4 4 4 4 4 4 4 4 4 4 4 4 4 4 4 4 4 4 4 4 4 4 4 4 4 4 4 4 4 4 4 4 4 4 4 4 4 4 4 4 4 4 4 4 4 4 4 4 4 4 4 4 4 4 4 4 4 4 4 4 4 4 4 4 4 4 4 4 4 4 4 4 4 4 4 4 4 4 4 4 4 4 4 4 4 4 4 4 4 4 4 4 4 4 4 4 4 4 4 4 4 4 4 4 4 4 4 4 4 4 4 4 4 4 4 4 4 4 4 4 4 4 4 4 4 4 4 4 4 4 4 4 4 4 4 4 4 4 4 4 4 4 4 4 4 4 4 4 4 4 4 4 4 4 4 4 4 4 4 4 4 4 4 4 4 4 4 4 4 4 4 4 4 4 4 4 4 4 4 4 4 4 4 4 4 4 4 4 4 4 4 4 4 4 4 4 4 4 4 4 4 4 4 4 4 4 4 4 4 4 4 4 4 4 4 4 4 4 4 4 4 4 4 4 4 4 4 4 4 4 4 4 4 4 4 4 4 4 4 4 4 4 4 4 4 4 4 4 4 4 4 4 4 4 4 4 4 4 4 4 4 4 4 4 4 4 4 4 4 4 4 4 4 4 4 4 </vcount>
<p>1589 1496 2107 2183 1503 1512 1724 1504 264 263 279 306 579 506 861 862 1913 1914 1310 1309 1436 1435 1679 1686 734 627 547 674 1425 1426 1427 1428 1380 1381 1382 1377 269 268 1488 1682 732 747 748 749 581 811 731 582 388 230 254 361 1607 1509 1512 1503 1376 1377 1378 1379 983 982 1026 1027 1806 1755 1828 1796 859 884 845 844 1958 1954 1881 1880 513 644 503 578 1468 401 400 1032 194 195 196 197 788 815 816 789 1732 1810 1742 1620 1648 1677 1380 1717 1491 1490 1568 1569 1660 1659 1733 1715 387 388 361 360 652 653 635 584 1593 1592 1675 1355 654 655 656 657 225 316 344 345 1395 1666 556 555 565 564 1396 1712 530 814 1041 1040 942 1153 314 81 243 99 57 316 1740 1831 1873 1872 60 59 508 507 1724 1780 1590 1781 691 692 693 694 285 346 819 1672 331 281 92 335 634 633 794 684 1437 1357 1424 1438 564 841 1395 1396 842 885 1081 1250 522 2063 2027 870 1675 1773 1830 1820 146 205 218 219 695 580 583 696 253 210 213 375 1701 1702 1703 1501 633 696 847 794 1731 1402 1807 1825 464 463 642 599 1587 1364 1367 1588 235 138 141 236 237 31 373 238 1999 1993 1979 1974 641 640 1219 874 708 707 474 473 252 175 405 370 361 254 391 362 701 844 493 702 1462 1701 1501 1426 821 822 823 719 1279 1278 1309 1281 1420 1419 138 235 566 555 516 515 1244 1245 413 126 180 421 920 921 516 557 779 517 1124 1330 1091 1060 1539 1777 1754 1540 113 112 281 331 822 856 735 823 1298 1059 453 804 1606 1621 1509 1607 1714 1660 1715 1716 1162 1272 905 904 104 368 122 105 1509 1510 1511 1512 2017 2016 2109 2084 344 60 507 818 1440 1745 733 559 19 18 240 239 106 107 108 109 907 906 1259 1071 694 693 853 802 385 417 1732 1404 64 63 377 206 1680 1631 1989 1885 1677 1678 1381 1380 1544 1545 1546 1547 870 2027 2030 833 2072 2141 2056 2050 1693 1804 340 339 2016 520 519 2109 722 740 568 567 749 748 843 717 1997 382 394 1339 161 162 163 164 1811 1763 2119 2142 2141 2140 2108 2056 1526 1525 1790 1789 1461 1462 1426 1425 93 267 269 94 780 641 874 873 679 680 681 682 1885 1989 1937 1886 2149 2147 1686 1687 1898 615 855 1698 2068 2069 2070 2071 1401 1682 1755 1806 377 2049 2052 378 168 253 375 417 1830 1773 1884 1926 674 547 550 655 531 530 1040 1193 1642 1641 1822 1770 61 62 63 64 145 27 205 146 706 803 741 707 30 19 239 372 2098 164 209 1448 711 712 713 714 505 742 745 868 214 154 156 215 797 514 537 536 2091 2094 1444 1439 507 508 509 510 1424 1423 1577 1363 223 224 225 226 1874 678 754 1757 1652 1651 1539 1538 353 129 130 132 858 859 844 701 1716 1715 1595 1594 678 677 753 754 314 169 28 315 492 491 637 504 340 1804 1836 404 860 858 701 668 80 81 82 83 1200 1201 1029 1028 1880 1881 1432 1676 1978 1997 1339 1332 474 727 728 475 204 330 312 274 1030 904 907 981 1458 826 692 1018 1749 1646 2185 2045 1717 1380 1377 1376 97 203 406 98 1396 1395 555 566 1796 1828 1462 1461 1502 1503 1504 1505 405 407 865 864 1922 438 406 1709 1540 1754 461 605 702 493 496 848 601 602 466 465 1672 819 1831 1416 100 104 105 58 748 539 842 843 838 846 911 910 1622 1354 1357 1437 2142 2119 2122 2170 1245 941 80 413 1795 1796 1461 1797 338 1033 1467 149 107 146 219 108 2121 2152 1544 1547 81 314 315 82 1505 1504 1663 1662 156 155 1403 1527 1370 1369 2167 2180 514 513 578 537 489 378 2063 522 16 17 18 19 1343 1123 1059 1298 58 105 273 59 1767 1759 1752 1777 1856 1995 1978 1914 1668 1685 2143 2161 1671 1672 1416 1415 1019 1018 692 691 124 370 840 563 2061 2170 1823 1769 1455 1454 2018 2019 611 1939 1983 791 2049 2050 2051 2052 586 585 529 743 1819 1455 2019 2140 2185 2062 2078 2077 669 702 848 709 2182 2183 2068 2123 1323 1343 1298 1328 17 246 247 18 692 1953 1541 693 563 840 841 564 1742 1534 1411 1743 149 320 171 150 1357 1356 1423 1424 1033 399 402 1467 580 581 582 583 1745 1379 594 733 1434 1630 1631 1435 360 1885 1886 387 837 657 846 838 1770 1822 1630 1434 1501 1703 1359 1358 577 576 1018 1019 522 502 490 489 364 473 476 443 26 329 330 204 283 284 285 286 1293 1292 1208 1207 337 215 1528 1637 151 83 173 152 868 745 1000 1239 585 481 484 529 612 613 614 615 843 842 1250 1249 1465 1613 1677 1648 2094 2095 1441 1444 636 802 601 482 557 1898 1698 779 258 259 260 242 1721 1614 1587 1833 175 174 407 405 539 538 885 842 490 527 528 491 403 396 858 860 1954 1955 1956 1881 125 124 563 562 2018 2020 2186 2158 846 807 1243 911 2042 79 113 2076 396 395 859 858 2045 2185 2077 2129 445 410 144 272 863 472 839 854 238 373 395 396 153 152 175 252 407 403 860 865 941 942 81 80 340 321 392 341 182 183 184 185 574 575 576 577 1893 1926 1928 1941 342 341 812 811 1545 1632 1633 1546 693 605 598 853 332 705 708 367 1327 1328 760 759 1759 1492 1493 1752 320 1468 1032 438 1633 1632 1992 1993 537 578 579 538 1449 1420 235 195 1955 1999 1974 1956 143 64 206 66 2162 283 286 1671 2062 494 845 2078 1741 1657 1442 1441 827 826 1458 1457 36 37 38 39 1729 1362 469 879 1071 1259 1260 1261 1536 1406 1605 1760 359 726 867 358 1059 1060 454 453 786 510 712 711 451 519 520 521 24 25 26 27 1229 1336 44 191 1364 1365 1366 1367 463 863 854 642 2060 2061 1769 1433 2105 2192 2162 2075 1657 1649 1658 1442 924 923 1233 1234 1914 1978 1332 1310 40 41 42 43 2009 2008 2083 2147 1547 1546 1639 1656 853 598 600 602 150 171 41 40 1594 1595 1596 1597 1864 1913 1309 1278 185 184 243 224 491 528 586 637 1510 1414 1526 1511 640 543 1344 1219 1443 1744 1745 1440 508 750 751 509 1403 1404 1405 1406 375 213 1524 1810 1687 1681 680 679 317 193 318 319 111 50 1419 1420 862 861 1236 1082 1419 1598 139 138 598 464 599 600 1817 1816 2141 2072 1663 1781 1809 1664 1733 1734 1735 1736 2138 712 510 1794 529 484 530 531 1358 1359 1360 1361 1831 819 675 1873 703 515 518 704 814 468 909 1041 1870 1963 1888 1887 594 595 596 597 406 337 1637 1709 1206 1205 259 258 154 15 155 156 613 668 669 614 1488 1489 1490 1491 682 2149 1687 679 437 1713 2055 329 1428 1427 1464 1463 705 706 707 708 372 239 77 76 99 100 58 57 1823 1642 1770 1769 1413 1412 1855 1838 367 708 473 364 655 550 619 656 1631 1630 1958 1989 1773 1723 1883 1884 220 394 382 101 742 743 744 745 27 26 204 205 98 406 438 338 1832 1817 2072 2073 629 2138 1794 685 489 490 491 492 109 664 667 106 615 614 710 855 1155 1154 129 353 504 637 742 505 832 838 910 1199 1651 1767 1777 1539 1496 1495 2014 2107 318 343 97 96 2168 2182 2123 2169 1802 1425 1428 1530 1736 1735 1758 1766 1528 1527 1536 1537 836 837 838 832 637 586 743 742 384 96 1 0 1171 1144 322 435 1414 1413 1525 1526 68 67 512 511 844 845 494 493 839 654 657 837 536 537 538 539 472 471 654 839 468 467 908 909 230 229 194 254 184 242 99 243 329 2055 2145 330 1979 1966 1500 1421 10 40 43 176 1881 1956 1429 1432 1781 1590 1593 1809 727 787 790 728 1938 171 320 1981 1027 1026 1343 1323 1433 1434 1435 1436 373 372 76 395 639 540 543 640 656 619 806 807 208 111 1420 1449 1274 924 1234 1201 777 791 826 827 362 391 856 822 2073 2072 2050 2049 206 377 378 207 2147 2083 1436 1686 29 16 19 30 1533 1749 2045 2020 484 483 814 530 1378 1445 590 595 2169 2123 2124 2175 368 251 123 122 1328 1298 804 760 15 14 385 155 1744 1376 1379 1745 399 400 401 402 322 323 317 246 906 1090 1340 1259 1711 1710 1614 1721 39 38 103 167 14 168 417 385 1665 1664 1622 1683 280 185 224 223 638 639 640 641 1855 1952 1995 1856 288 2169 2175 289 947 1332 1339 1319 982 1071 1261 1026 2193 2179 1731 1825 1233 1338 1273 1272 811 812 813 731 129 36 39 130 1324 1323 1328 1327 1809 1593 1355 1354 923 1238 1338 1233 1019 691 827 1457 1598 1693 339 139 410 411 145 144 1937 1880 1676 1688 743 529 531 744 246 317 319 247 1646 1397 2062 2185 339 340 341 342 1966 1875 1497 1500 23 22 412 409 1292 921 1274 1208 248 435 17 16 643 489 492 644 1794 1549 686 685 181 180 921 1292 1771 1466 1649 1657 224 243 316 225 1989 1958 1880 1937 510 509 1549 1794 1527 1403 1406 1536 590 591 592 593 1769 1770 1434 1433 1531 1463 1466 1771 511 512 513 514 2120 2157 2152 2121 819 817 676 675 852 683 638 820 57 58 59 60 321 65 68 392 163 110 111 208 2181 2180 1314 625 106 667 737 272 1541 1540 605 693 1804 412 22 1836 884 76 79 2042 1112 1295 1224 1113 183 258 242 184 1886 1937 1688 1565 1435 1631 1680 1679 295 723 726 359 1972 1971 1860 1859 435 322 246 17 1649 1648 1717 1658 1586 816 815 2015 559 733 616 560 582 731 732 478 203 202 337 406 284 226 346 285 683 684 639 638 267 11 268 269 323 190 193 317 584 635 481 585 2116 2115 1808 1801 363 362 822 821 2157 2104 2074 2152 48 23 409 49 170 248 16 29 1689 1370 2180 2181 905 1089 1090 906 527 652 584 528 870 500 502 522 315 28 31 237 1209 1200 1028 1300 2108 2159 2047 2046 132 130 13 12 65 66 67 68 2177 331 335 2179 823 735 683 852 653 752 636 635 1467 1468 320 149 1592 1723 1773 1675 2077 2078 2079 2080 341 392 857 812 1872 1873 1874 1875 1895 1896 1305 1304 346 345 817 819 1369 1572 2168 2167 1466 1465 1648 1649 190 191 192 193 164 163 208 209 66 206 207 67 420 386 48 47 222 238 396 403 1416 1831 1740 1417 733 594 597 616 1512 1511 1780 1724 127 151 152 153 1658 1717 1376 1744 1613 1725 1678 1677 1534 1535 1412 1411 1590 1591 1592 1593 92 93 94 95 1810 1524 1534 1742 1444 1443 1440 1439 452 451 521 851 632 695 696 633 635 636 482 481 215 156 1527 1528 735 634 684 683 390 227 230 388 851 521 788 787 360 361 362 363 591 610 611 592 94 269 1682 1401 1354 1355 1356 1357 1580 1579 2192 2105 1341 983 1027 1322 2075 2162 1671 1415 37 220 101 38 657 656 807 846 833 497 500 870 1201 1234 1162 1029 1621 1743 1510 1509 1639 1640 1641 1642 133 12 15 154 883 566 515 703 11 10 176 268 1686 1679 1681 1687 864 865 613 612 1406 1405 1606 1605 209 208 1449 1448 1548 1712 883 882 1713 1689 2181 2055 1992 1872 1875 1966 2154 2009 2147 2149 1272 1273 1089 905 698 852 820 699 25 437 329 26 122 123 124 125 2076 113 331 2177 1060 1091 795 454 1916 1915 1906 1939 1807 1806 1796 1795 226 225 345 346 2158 2186 2163 2160 1571 1589 2183 2182 319 318 96 384 741 851 787 727 2179 335 439 1731 13 167 168 14 904 905 906 907 1352 1351 2157 2120 1931 1871 1973 1907 750 562 565 751 820 638 641 780 575 1458 1018 576 856 631 634 735 439 95 1402 1731 1971 1841 1842 1860 2055 2181 625 2145 404 117 321 340 509 751 1548 1549 607 703 704 608 528 584 585 586 138 139 140 141 155 385 1404 1403 63 2073 2049 377 1439 1440 559 558 236 141 580 695 1362 1363 470 469 79 78 112 113 1597 1596 1651 1652 803 452 851 741 338 438 1032 1033 1538 1539 1540 1541 583 582 478 477 865 860 668 613 1029 1162 904 1030 67 207 643 512 2170 2122 1656 1823 1537 1536 1760 1615 247 319 384 257 1186 1229 191 190 1493 1438 1362 1729 2186 2129 2130 2163 686 882 607 606 417 375 1810 1732 707 741 727 474 1281 1309 1310 946 1664 1809 1354 1622 946 1310 1332 947 1974 1979 1421 1422 1296 1031 980 1297 343 201 203 97 1319 1339 394 220 196 236 695 632 193 192 343 318 242 260 100 99 1530 1428 1463 1531 1608 1607 1503 1502 2050 2056 2057 2051 1828 1569 1701 1462 471 674 655 654 1963 1951 1909 1888 1815 713 712 2138 619 618 805 806 1620 1742 1743 1621 818 507 510 786 105 122 125 273 2008 2161 2060 2083 370 405 864 840 697 698 699 700 1261 1260 1124 1123 1743 1411 1414 1510 1415 1416 1417 1418 286 285 1672 1671 2074 2075 1415 1418 610 1916 1939 611 1397 495 494 2062 389 390 388 387 1300 1028 1031 1296 1259 1340 1329 1260 1825 1807 1795 1808 920 922 923 924 685 686 606 629 1875 1874 1757 1497 914 915 37 36 921 920 924 1274 854 839 837 836 2143 2142 2170 2061 1153 956 169 314 207 378 489 643 915 1319 220 37 700 699 740 722 1569 1568 1702 1701 482 601 465 483 1950 2005 1969 1910 395 76 884 859 273 125 562 750 802 853 602 601 2122 2121 1547 1656 2123 2068 2071 2124 1718 1707 2009 2154 1454 1533 2020 2018 1763 1352 2120 2119 59 273 750 508 391 197 631 856 76 77 78 79 2145 625 624 2146 307 280 223 374 677 711 714 753 140 342 811 581 1915 1931 1907 1906 114 115 116 117 330 2145 2146 312 20 21 22 23 1789 1790 1722 1591 1975 1998 1224 1295 1666 612 615 1898 1463 1464 1465 1466 272 737 764 445 515 516 517 518 1367 1366 1661 1659 1448 1449 195 194 116 143 66 65 31 30 372 373 1780 1789 1591 1590 1417 1740 1632 1545 1841 42 41 1842 1363 1577 734 470 1441 1442 1443 1444 631 632 633 634 791 1983 1985 826 2129 2077 2080 2130 1822 1641 1955 1954 1833 1587 1588 1765 956 955 170 169 1758 1683 1492 1759 197 196 632 631 38 101 102 103 1351 1610 2104 2157 745 744 1001 1000 2069 2017 2084 2070 826 1985 1953 692 1322 1027 1323 1324 2167 2168 2169 288 374 223 226 284 429 420 47 110 1723 1722 1945 1883 1707 1669 2008 2009 1998 1990 1181 1224 684 794 540 639 1524 1523 1535 1534 1836 22 21 1695 731 813 747 732 173 221 222 174 228 1628 2098 229 1776 1775 1893 1894 1656 1639 1642 1823 201 7 202 203 1641 1640 1999 1955 1572 1571 2182 2168 1765 1588 1660 1714 1596 1766 1767 1651 387 1886 1565 389 555 556 557 516 1679 1680 363 1681 1632 1740 1872 1992 2078 845 884 2079 813 797 536 747 229 2098 1448 194 605 461 464 598 191 44 46 192 512 643 644 513 1842 41 171 1938 561 2091 1439 558 409 412 1804 1693 1464 1361 1613 1465 857 511 514 797 462 879 863 463 1591 1722 1723 1592 680 821 719 681 139 339 342 140 1525 1413 1838 1837 1715 1733 1736 1595 1775 1830 1926 1893 1492 1437 1438 1493 696 583 477 847 1405 1620 1621 1606 1033 1032 400 399 141 140 581 580 1685 1811 2142 2143 1125 1171 435 248 1207 1208 1200 1209 629 606 609 630 1577 1638 627 734 1774 1775 1776 1638 1734 1662 1665 1735 1404 1732 1620 1405 205 204 274 218 2180 2167 288 1314 506 505 868 861 1549 1548 882 686 2183 2107 2069 2068 1402 1401 1806 1807 538 579 862 885 473 474 475 476 1683 1622 1437 1492 1712 1396 566 883 1728 1729 879 462 115 142 143 116 392 68 511 857 1123 1124 1060 1059 436 114 117 404 428 427 183 182 1260 1329 1330 1124 345 344 818 817 1438 1424 1363 1362 2083 2060 1433 1436 1993 1992 1966 1979 2115 2193 1825 1808 6 133 154 214 461 462 463 464 2014 2015 2016 2017 592 611 791 777 841 612 1666 1395 1610 1580 2105 2104 2020 2045 2129 2186 817 818 786 676 257 384 0 334 240 257 334 241 2140 2019 2159 2108 558 559 560 561 470 734 674 471 103 102 210 253 1871 1870 1887 1973 192 46 201 343 335 92 95 439 1752 1493 1729 1728 1790 1525 1837 1944 1766 1758 1759 1767 18 247 257 240 1630 1822 1954 1958 7 6 214 202 2152 2074 1418 1544 2019 2018 2158 2159 668 701 702 669 1306 1305 1295 1112 1873 675 678 1874 2104 2105 2075 2074 1956 1974 1422 1429 95 94 1401 1402 2095 2133 1741 1441 503 504 505 506 28 29 30 31 812 857 797 813 1154 914 36 129 1797 1461 1425 1802 787 788 789 790 717 843 1249 1345 12 13 14 15 2159 2158 2160 2047 411 24 27 145 980 981 982 983 1661 1505 1662 1734 465 466 467 468 152 173 174 175 1808 1795 1797 1801 1418 1417 1545 1544 1659 1661 1734 1733 386 20 23 48 1495 1586 2015 2014 174 222 403 407 955 1125 248 170 363 1680 1885 360 1361 1360 1725 1613 427 1206 258 183 1681 363 821 680 1941 1928 1975 1896 1588 1367 1659 1660 1028 1029 1030 1031 699 820 780 740 227 228 229 230 1208 1274 1201 1200 1365 1608 1502 1366 162 429 110 163 618 1895 1304 805 1760 1605 1608 1365 1735 1665 1683 1758 1535 1523 1943 1952 1144 1143 323 322 1755 1491 1569 1828 1816 1819 2140 2141 833 2030 2091 561 402 401 1468 1467 481 482 483 484 1504 1724 1781 1663 272 144 107 106 1709 1637 1710 1711 306 279 280 307 1442 1658 1744 1443 130 39 167 13 50 49 1598 1419 1615 1760 1365 1364 169 170 29 28 1379 1378 595 594 413 80 83 151 681 719 698 697 1710 1537 1615 1614 1628 161 164 2098 1234 1233 1272 1162 2161 2143 2061 2060 562 563 564 565 1297 980 983 1341 110 47 50 111 840 864 612 841 239 240 241 77 630 1815 2138 629 49 409 1693 1598 1377 1382 1445 1378 47 48 49 50 1026 1261 1123 1343 2005 1972 1859 1969 577 1019 1457 574 1423 1774 1638 1577 254 194 197 391 123 252 370 124 1356 1820 1774 1423 882 883 703 607 1366 1502 1505 1661 2107 2014 2017 2069 1595 1736 1766 1596 404 1836 1695 436 1457 1458 575 574 62 1832 2073 63 1722 1790 1944 1945 806 805 1304 1303 1411 1412 1413 1414 1951 1950 1910 1909 483 465 468 814 1640 1633 1993 1999 1412 1535 1952 1855 96 97 98 1 117 116 65 321 251 153 252 123 202 214 215 337 556 1666 1898 557 144 145 146 107 82 315 237 221 606 607 608 609 1605 1606 1607 1608 316 57 60 344 1614 1615 1364 1587 421 311 922 920 2015 815 520 2016 1820 1830 1775 1774 1511 1526 1789 1780 861 868 1239 1236 126 413 151 127 469 470 471 472 311 310 1237 922 561 560 497 833 752 694 802 636 1896 1975 1295 1305 221 237 238 222 1031 1030 981 980 1754 1728 462 461 167 103 253 168 981 907 1071 982 747 536 539 748 1143 1186 190 323 744 531 1193 1001 2056 2108 2046 2057 1303 1304 1305 1306 298 663 723 295 578 503 506 579 1777 1752 1728 1754 1637 1528 1537 1710 493 494 495 496 1662 1663 1664 1665 1682 1488 1491 1755 195 235 236 196 719 823 852 698 644 492 504 503 142 61 64 143 614 669 709 710 521 520 815 788 1669 1668 2161 2008 1426 1501 1358 1427 268 176 1489 1488 595 590 593 596 675 676 677 678 676 786 711 677 279 182 185 280 1427 1358 1361 1464 1546 1633 1640 1639 879 469 472 863 2119 2120 2121 2122 885 862 1082 1081 1981 320 438 1922 422 181 1292 1293 83 82 221 173 1113 1224 1181 1180 1355 1675 1820 1356 922 1237 1238 923 807 806 1303 1243 751 565 1712 1548 </p>
</polylist>
<polylist count="6" material="Material_255_153_51-material">
<input offset="0" semantic="VERTEX" source="#Plane-color-mesh-vertices"/>
<vcount>4 4 4 4 4 4 </vcount>
<p>210 211 212 213 1638 1776 628 627 628 1776 1894 548 627 628 548 547 213 212 1523 1524 1523 212 211 1943 </p>
</polylist>
<polylist count="14" material="Material_238_0_0-material">
<input offset="0" semantic="VERTEX" source="#Plane-color-mesh-vertices"/>
<vcount>4 4 4 4 4 4 4 4 4 4 4 4 4 4 </vcount>
<p>552 1718 2154 869 869 2154 2149 682 2101 2118 1529 1532 682 681 697 869 2192 376 283 2162 376 374 284 283 277 307 374 376 1532 1531 1771 1813 2102 2101 1532 1813 2118 2151 1803 1529 1803 1802 1530 1529 1529 1530 1531 1532 1579 277 376 2192 869 697 700 552 </p>
</polylist>
</mesh>
</geometry>
</library_geometries>
<library_visual_scenes>
<visual_scene id="Scene" name="Scene">
<node id="PlaneCOL" name="PlaneCOL" type="NODE">
<translate sid="location">0 0 0</translate>
<rotate sid="rotationZ">0 0 1 0</rotate>
<rotate sid="rotationY">0 1 0 0</rotate>
<rotate sid="rotationX">1 0 0 0</rotate>
<scale sid="scale">0.05 0.05 0.05</scale>
<instance_geometry url="#Plane-color-mesh">
<bind_material>
<technique_common>
<instance_material symbol="Material_204_51_0-material" target="#Material_204_51_0-material"/>
<instance_material symbol="Material_255_255_255-material" target="#Material_255_255_255-material"/>
<instance_material symbol="Material_187_187_187-material" target="#Material_187_187_187-material"/>
<instance_material symbol="Material_34_34_34-material" target="#Material_34_34_34-material"/>
<instance_material symbol="Material_255_153_51-material" target="#Material_255_153_51-material"/>
<instance_material symbol="Material_51_51_51-material" target="#Material_51_51_51-material"/>
<instance_material symbol="Material_238_0_0-material" target="#Material_238_0_0-material"/>
<instance_material symbol="Material_68_68_68-material" target="#Material_68_68_68-material"/>
</technique_common>
</bind_material>
</instance_geometry>
</node>
</visual_scene>
</library_visual_scenes>
<scene>
<instance_visual_scene url="#Scene"/>
</scene>
</COLLADA>
