<?xml version="1.0" encoding="UTF-8"?><COLLADA xmlns="http://www.collada.org/2005/11/COLLADASchema" version="1.4.1">
<asset>
<contributor>
<author>PS4k User</author>
<authoring_tool>1.5.02</authoring_tool>
</contributor>
<created>2016-03-02T21:34:44</created>
<modified>2016-03-02T21:34:44</modified>
<unit meter="1" name="meter"/>
<up_axis>Z_UP</up_axis>
</asset>
<library_effects>
<effect id="Material_255_204_153-effect">
<profile_COMMON>
<technique sid="common">
<lambert>
<emission>
<color sid="emission">0 0 0 1</color>
</emission>
<ambient>
<color sid="ambient">0 0 0 1</color>
</ambient>
<diffuse>
<color sid="diffuse">1.0 0.8 0.6 1</color>
</diffuse>
<index_of_refraction>
<float sid="index_of_refraction">1</float>
</index_of_refraction>
</lambert>
</technique>
</profile_COMMON>
</effect>
<effect id="Material_255_255_255-effect">
<profile_COMMON>
<technique sid="common">
<lambert>
<emission>
<color sid="emission">0 0 0 1</color>
</emission>
<ambient>
<color sid="ambient">0 0 0 1</color>
</ambient>
<diffuse>
<color sid="diffuse">1.0 1.0 1.0 1</color>
</diffuse>
<index_of_refraction>
<float sid="index_of_refraction">1</float>
</index_of_refraction>
</lambert>
</technique>
</profile_COMMON>
</effect>
<effect id="Material_187_187_187-effect">
<profile_COMMON>
<technique sid="common">
<lambert>
<emission>
<color sid="emission">0 0 0 1</color>
</emission>
<ambient>
<color sid="ambient">0 0 0 1</color>
</ambient>
<diffuse>
<color sid="diffuse">0.73333335 0.73333335 0.73333335 1</color>
</diffuse>
<index_of_refraction>
<float sid="index_of_refraction">1</float>
</index_of_refraction>
</lambert>
</technique>
</profile_COMMON>
</effect>
<effect id="Material_0_102_153-effect">
<profile_COMMON>
<technique sid="common">
<lambert>
<emission>
<color sid="emission">0 0 0 1</color>
</emission>
<ambient>
<color sid="ambient">0 0 0 1</color>
</ambient>
<diffuse>
<color sid="diffuse">0.0 0.4 0.6 1</color>
</diffuse>
<index_of_refraction>
<float sid="index_of_refraction">1</float>
</index_of_refraction>
</lambert>
</technique>
</profile_COMMON>
</effect>
<effect id="Material_34_34_34-effect">
<profile_COMMON>
<technique sid="common">
<lambert>
<emission>
<color sid="emission">0 0 0 1</color>
</emission>
<ambient>
<color sid="ambient">0 0 0 1</color>
</ambient>
<diffuse>
<color sid="diffuse">0.13333334 0.13333334 0.13333334 1</color>
</diffuse>
<index_of_refraction>
<float sid="index_of_refraction">1</float>
</index_of_refraction>
</lambert>
</technique>
</profile_COMMON>
</effect>
<effect id="Material_255_153_51-effect">
<profile_COMMON>
<technique sid="common">
<lambert>
<emission>
<color sid="emission">0 0 0 1</color>
</emission>
<ambient>
<color sid="ambient">0 0 0 1</color>
</ambient>
<diffuse>
<color sid="diffuse">1.0 0.6 0.2 1</color>
</diffuse>
<index_of_refraction>
<float sid="index_of_refraction">1</float>
</index_of_refraction>
</lambert>
</technique>
</profile_COMMON>
</effect>
<effect id="Material_51_51_51-effect">
<profile_COMMON>
<technique sid="common">
<lambert>
<emission>
<color sid="emission">0 0 0 1</color>
</emission>
<ambient>
<color sid="ambient">0 0 0 1</color>
</ambient>
<diffuse>
<color sid="diffuse">0.2 0.2 0.2 1</color>
</diffuse>
<index_of_refraction>
<float sid="index_of_refraction">1</float>
</index_of_refraction>
</lambert>
</technique>
</profile_COMMON>
</effect>
<effect id="Material_238_0_0-effect">
<profile_COMMON>
<technique sid="common">
<lambert>
<emission>
<color sid="emission">0 0 0 1</color>
</emission>
<ambient>
<color sid="ambient">0 0 0 1</color>
</ambient>
<diffuse>
<color sid="diffuse">0.93333334 0.0 0.0 1</color>
</diffuse>
<index_of_refraction>
<float sid="index_of_refraction">1</float>
</index_of_refraction>
</lambert>
</technique>
</profile_COMMON>
</effect>
<effect id="Material_68_68_68-effect">
<profile_COMMON>
<technique sid="common">
<lambert>
<emission>
<color sid="emission">0 0 0 1</color>
</emission>
<ambient>
<color sid="ambient">0 0 0 1</color>
</ambient>
<diffuse>
<color sid="diffuse">0.26666668 0.26666668 0.26666668 1</color>
</diffuse>
<index_of_refraction>
<float sid="index_of_refraction">1</float>
</index_of_refraction>
</lambert>
</technique>
</profile_COMMON>
</effect>
</library_effects>
<library_materials>
<material id="Material_255_204_153-material" name="Material_255_204_153">
<instance_effect url="#Material_255_204_153-effect"/>
</material>
<material id="Material_255_255_255-material" name="Material_255_255_255">
<instance_effect url="#Material_255_255_255-effect"/>
</material>
<material id="Material_187_187_187-material" name="Material_187_187_187">
<instance_effect url="#Material_187_187_187-effect"/>
</material>
<material id="Material_0_102_153-material" name="Material_0_102_153">
<instance_effect url="#Material_0_102_153-effect"/>
</material>
<material id="Material_34_34_34-material" name="Material_34_34_34">
<instance_effect url="#Material_34_34_34-effect"/>
</material>
<material id="Material_255_153_51-material" name="Material_255_153_51">
<instance_effect url="#Material_255_153_51-effect"/>
</material>
<material id="Material_51_51_51-material" name="Material_51_51_51">
<instance_effect url="#Material_51_51_51-effect"/>
</material>
<material id="Material_238_0_0-material" name="Material_238_0_0">
<instance_effect url="#Material_238_0_0-effect"/>
</material>
<material id="Material_68_68_68-material" name="Material_68_68_68">
<instance_effect url="#Material_68_68_68-effect"/>
</material>
</library_materials>
<library_geometries>
<geometry id="Plane-color-mesh" name="Plane-color">
<mesh>
<source id="Plane-color-mesh-positions">
<float_array count="6678" id="Plane-color-mesh-positions-array">3 -1 7 3 -3 7 3 -3 9 3 -1 9 -15 23 3 -15 21 3 -15 21 5 -15 23 5 13 5 15 13 3 15 13 3 17 13 5 17 -15 -3 15 -15 -5 15 -15 -5 17 -15 -3 17 -15 -23 7 -15 -25 7 -15 -25 9 -15 -23 9 -15 -25 3 -15 -27 3 -15 -27 5 -15 -25 5 3 -3 3 3 -5 3 3 -5 5 3 -3 5 -15 1 3 -15 -1 3 -15 -1 5 -15 1 5 -15 3 15 -15 1 15 -15 1 17 -15 3 17 -15 -3 11 -15 -5 11 -15 -5 13 -15 -3 13 -11 21 3 -11 19 3 -11 19 5 -11 21 5 5 -9 9 5 -11 9 5 -11 11 5 -9 11 -15 27 7 -15 25 7 -15 25 9 -15 27 9 -15 -15 7 -15 -17 7 -15 -17 9 -15 -15 9 -15 9 7 -15 7 7 -15 7 9 -15 9 9 -15 -3 5 -15 -5 5 -15 -5 7 -15 -3 7 13 -9 5 13 -11 5 13 -11 7 13 -9 7 3 -7 3 3 -7 5 -15 9 13 -15 7 13 -15 7 15 -15 9 15 13 11 15 13 9 15 13 9 17 13 11 17 -11 -17 3 -11 -19 3 -11 -19 5 -11 -17 5 -15 -7 1 -15 -9 1 -15 -9 3 -15 -7 3 -15 -11 9 -15 -13 9 -15 -13 11 -15 -11 11 -15 13 3 -15 11 3 -15 11 5 -15 13 5 5 -9 7 5 -11 7 -15 23 7 -15 21 7 -15 21 9 -15 23 9 -15 -11 17 -15 -13 17 -15 -13 19 -15 -11 19 13 9 13 13 7 13 13 7 15 -15 5 13 -15 3 13 -15 5 15 13 -9 9 13 -11 9 13 -11 11 13 -9 11 13 -3 11 13 -5 11 13 -5 13 13 -3 13 3 25 -1 3 23 -1 3 23 1 3 25 1 -15 5 17 -15 7 17 13 5 13 13 3 13 3 -1 11 3 -3 11 3 -3 13 3 -1 13 -15 7 1 -15 5 1 -15 5 3 -15 7 3 -15 7 11 -15 5 11 3 -1 3 3 -1 5 -15 -7 9 -15 -9 9 -15 -9 11 -15 -7 11 13 -5 15 13 -7 15 13 -7 17 13 -5 17 -11 -17 1 -11 -19 1 -15 27 5 -15 25 5 -15 -9 17 -15 -9 19 -9 23 -1 -9 21 -1 -9 21 1 -9 23 1 -15 1 13 -15 -1 13 -15 -1 15 -15 -9 5 -15 -11 5 -15 -11 7 -15 -9 7 13 3 9 13 1 9 13 1 11 13 3 11 13 -1 11 13 -1 13 13 1 13 13 -7 3 13 -9 3 13 -7 5 -15 -7 17 -15 -7 19 -15 -5 19 -15 -3 3 13 7 5 13 5 5 13 5 7 13 7 7 13 -7 9 13 -7 11 13 -5 5 13 -7 7 13 -5 7 -15 11 7 -15 11 9 13 -7 13 -15 -21 5 -15 -23 5 -15 -21 7 -15 9 11 13 7 9 13 5 9 13 5 11 13 7 11 -15 5 7 -15 3 7 -15 3 9 -15 5 9 -15 3 3 -15 3 5 -15 5 5 -15 3 1 -15 1 1 -15 15 1 -15 13 1 -15 15 3 -15 -1 17 -15 -1 19 -15 1 19 -15 -7 13 -15 25 1 -15 23 1 -15 25 3 13 3 5 13 3 7 -15 9 3 -15 7 5 -15 9 5 -15 -11 1 -15 -13 1 -15 -13 3 -15 -11 3 -15 -21 1 -15 -23 1 -15 -23 3 -15 -21 3 -15 1 7 -15 1 9 -15 15 5 -15 17 7 -15 15 7 -15 15 9 -15 17 9 -15 -19 5 -15 -19 7 -15 13 7 -15 13 9 13 -5 9 -15 -13 5 -15 -15 5 -15 -13 7 -9 19 -1 -9 19 1 -11 19 1 -11 17 1 -11 17 3 13 -9 15 13 -11 15 13 -11 17 13 -9 17 -15 -3 1 -15 -5 1 -15 -5 3 -11 -13 3 -11 -15 3 -11 -15 5 -11 -13 5 -15 -1 9 -15 -1 11 -15 1 11 -15 9 17 -15 7 19 -15 9 19 -15 -1 1 13 5 3 13 3 3 -15 -7 7 -15 -5 9 -19 -11 11 -19 -13 11 -19 -13 13 -19 -11 13 -15 -3 19 -15 3 11 13 1 15 13 1 17 13 -9 13 13 -11 13 -11 17 5 13 1 5 13 -1 5 13 -1 7 13 1 7 -15 11 11 -15 11 17 -15 11 19 -15 19 7 -15 19 9 -15 -7 5 5 -9 5 5 -11 5 13 -3 15 -15 11 1 13 9 9 13 9 11 -15 -27 7 -15 13 15 -15 11 15 -15 13 17 -15 5 19 -15 -3 9 -11 15 3 -11 15 5 -15 13 19 -15 -19 1 -15 -19 3 13 -1 15 13 -1 9 -15 13 13 -15 11 13 -15 -17 5 13 7 17 13 -3 17 13 11 13 -7 27 -1 -7 25 -1 -7 25 1 -7 27 1 13 1 3 13 -1 3 -15 -1 7 -15 -7 15 -15 -9 15 -15 17 5 -15 27 1 -15 27 3 -15 -25 1 13 -3 7 13 -3 9 -15 -19 9 -15 21 1 3 21 -1 3 19 -1 3 19 1 3 21 1 -15 -9 13 -15 -27 9 13 -11 3 -15 13 11 -15 -11 15 13 -1 17 -15 -11 13 -11 -13 1 -11 -15 1 -15 -13 13 -15 -13 15 -15 19 5 13 9 5 13 9 7 -15 -27 1 -15 -21 9 -15 9 1 -11 21 1 -15 3 19 -9 25 -1 -9 25 1 5 27 -1 5 25 -1 5 25 1 5 27 1 -11 15 1 13 -3 5 15 27 5 15 25 5 15 25 3 15 27 3 15 5 17 15 3 17 15 3 15 15 5 15 -13 -3 17 -13 -5 17 -13 -5 15 -13 -3 15 15 -11 3 15 -13 3 15 -13 1 15 -11 1 11 -17 5 11 -19 5 11 -19 3 11 -17 3 -13 1 5 -13 -1 5 -13 -1 3 -13 1 3 -3 25 1 -3 23 1 -3 23 -1 -3 25 -1 -13 3 17 -13 1 17 -13 1 15 -13 3 15 -13 -3 13 -13 -5 13 -13 -5 11 -13 -3 11 15 -23 3 15 -25 3 15 -25 1 15 -23 1 15 13 9 15 11 9 15 11 7 15 13 7 15 11 5 15 13 5 15 27 7 15 25 7 -13 9 9 -13 7 9 -13 7 7 -13 9 7 -13 -3 7 -13 -5 7 -13 -5 5 -13 -3 5 15 -9 7 15 -11 7 15 -11 5 15 -9 5 -13 9 15 -13 7 15 -13 7 13 -13 9 13 15 11 17 15 9 17 15 9 15 15 11 15 -3 -3 5 -3 -5 5 -3 -5 3 -3 -3 3 15 27 9 15 25 9 15 -11 11 15 -13 11 15 -13 9 15 -11 9 15 7 3 15 5 3 15 5 1 15 7 1 15 21 7 15 19 7 15 19 5 15 21 5 11 -13 3 11 -15 3 11 -15 1 11 -13 1 15 7 15 15 7 13 15 9 13 -13 5 15 -13 3 13 -13 5 13 15 -9 11 15 -9 9 15 -3 13 15 -5 13 15 -5 11 15 -3 11 -13 7 17 -13 5 17 15 3 13 15 5 13 -13 5 11 -13 7 11 -13 -7 11 -13 -9 11 -13 -9 9 -13 -7 9 15 -5 17 15 -7 17 15 -7 15 15 -5 15 11 -19 1 11 -17 1 -3 -1 7 -3 -3 7 -3 -1 5 15 -15 9 15 -17 9 15 -17 7 15 -15 7 -13 -1 15 -13 -1 13 -13 1 13 -13 -9 7 -13 -11 7 -13 -11 5 -13 -9 5 15 3 11 15 1 11 15 1 9 15 3 9 19 -11 13 19 -13 13 19 -13 11 19 -11 11 15 1 13 15 -1 13 15 -1 11 15 21 9 15 19 9 15 23 9 15 23 7 15 -7 5 15 -9 3 15 -7 3 15 7 7 15 5 7 15 5 5 15 7 5 -3 -1 3 15 23 3 15 21 3 15 21 1 15 23 1 15 -7 11 15 -7 9 15 -5 5 15 -5 3 15 -11 17 15 -13 17 15 -13 15 15 -11 15 15 -5 7 15 -7 7 15 -7 13 -13 9 11 -13 -11 9 15 7 11 15 5 11 15 5 9 15 7 9 -13 5 9 -13 3 9 -13 3 7 -13 5 7 -3 -7 5 -3 -7 3 15 25 1 15 27 1 -13 5 5 -13 3 5 -13 3 3 -13 5 3 -13 -7 13 15 3 7 15 3 5 15 -21 7 15 -23 7 15 -23 5 15 -21 5 -13 1 9 -13 1 7 15 -5 9 15 -9 1 15 1 3 15 -1 3 15 -1 1 15 1 1 15 -9 17 15 -9 15 9 25 1 9 23 1 9 23 -1 9 25 -1 -13 1 11 -13 -1 11 -13 -1 9 15 15 7 15 15 5 15 3 3 15 -13 5 15 -19 9 15 -19 7 -13 -5 9 -13 -7 7 15 -3 3 15 -5 1 15 -3 1 11 -9 9 11 -11 9 11 -11 7 11 -9 7 -13 3 11 15 11 19 15 9 19 15 1 17 15 1 15 11 -15 5 15 -17 5 15 -15 5 15 -11 13 15 -9 13 15 -3 19 15 -5 19 15 -3 17 11 17 3 11 15 3 11 15 1 11 17 1 15 9 9 15 9 7 15 -25 7 15 -25 5 15 11 3 15 9 3 15 9 1 15 11 1 15 1 7 15 -1 7 15 -1 5 15 1 5 15 -3 9 15 -1 9 -13 -7 5 -13 -9 3 -13 -7 3 15 1 19 15 -1 19 15 -1 17 15 -3 15 15 13 13 15 11 13 15 11 11 15 13 11 15 9 11 15 -3 7 15 7 19 15 7 17 15 5 19 15 3 19 15 23 5 15 15 3 15 13 3 15 13 1 15 15 1 15 -23 9 15 -25 9 15 -13 7 -3 -1 9 -3 -3 9 15 -1 15 15 13 15 15 17 9 15 17 7 11 19 5 11 17 5 11 19 3 9 21 1 9 21 -1 -3 21 1 -3 21 -1 -5 27 1 -5 25 1 -5 25 -1 -5 27 -1 -13 7 5 11 19 1 -13 -1 7 15 -27 3 15 -27 1 -13 -1 17 -13 -7 17 -13 -9 17 -13 -9 15 -13 -7 15 15 -3 5 15 13 19 15 13 17 -3 -1 13 -3 -3 13 -3 -3 11 -3 -1 11 -13 -9 13 15 15 9 15 -11 19 15 -13 19 11 15 5 15 -7 19 11 -13 5 15 9 5 -13 11 15 -13 11 13 15 -19 3 15 -21 3 15 -21 1 15 -19 1 15 -21 9 11 -11 5 11 -9 5 15 -13 13 15 -19 5 15 -27 7 15 -27 5 -13 -11 17 -13 -11 15 -3 19 1 -3 19 -1 -13 -11 13 15 3 1 11 -9 11 11 -11 11 11 21 3 11 21 1 -13 -11 11 -13 9 5 -13 11 17 -13 9 17 15 -9 19 -13 -11 3 -13 -3 9 15 -7 1 11 21 5 9 19 1 9 19 -1 15 17 5 7 27 1 7 25 1 7 25 -1 7 27 -1 15 -27 9 9 -9 17 9 -11 17 7 -11 17 7 -9 17 11 5 17 11 7 17 7 1 17 7 -1 17 5 -1 17 5 1 17 1 19 1 1 21 1 11 -9 1 11 -11 1 9 -11 1 9 -9 1 -1 -1 1 -1 -3 1 -3 -3 1 -3 -1 1 -1 13 1 -1 11 1 -3 11 1 -3 13 1 -1 11 17 -1 9 17 -3 9 17 -3 11 17 -5 -21 1 -5 -23 1 -7 -23 1 -7 -21 1 13 -25 1 13 -27 1 11 -27 1 11 -25 1 -5 -7 1 -5 -9 1 -7 -9 1 -7 -7 1 7 -21 1 7 -23 1 5 -23 1 5 -21 1 5 -3 17 3 -3 17 3 -1 17 -13 -19 5 -13 -17 5 1 -9 1 1 -11 1 -1 -11 1 -1 -9 1 -11 5 17 -11 3 17 7 -1 1 7 -3 1 5 -3 1 5 -1 1 13 -23 1 9 5 17 9 3 17 7 3 17 7 5 17 -3 7 17 -3 5 17 -5 5 17 -5 7 17 -11 -5 17 -11 -7 17 3 -5 1 3 -7 1 1 -7 1 1 -5 1 5 -17 1 5 -19 1 3 -19 1 3 -17 1 11 13 1 11 11 1 9 11 1 9 13 1 11 9 17 11 11 17 1 -1 17 1 -3 17 -1 -3 17 -1 -1 17 -9 -5 17 -9 -7 17 -1 -7 17 -1 -9 17 -3 -9 17 -3 -7 17 -11 23 1 13 5 1 13 7 1 5 -7 1 5 -9 1 3 -9 1 7 15 1 7 13 1 5 13 1 5 15 1 -3 -5 1 -5 -5 1 -5 -3 1 -3 -7 1 -3 -9 1 -7 1 1 -7 -1 1 -9 -1 1 -9 1 1 9 -15 1 9 -13 1 3 -5 17 1 -5 17 -7 -17 1 -7 -19 1 -9 -19 1 -9 -17 1 3 -25 1 3 -27 1 1 -27 1 1 -25 1 -13 15 5 -13 17 5 9 11 17 9 9 17 7 9 17 7 11 17 -13 7 1 -13 5 1 9 -21 1 9 -23 1 9 -17 1 9 -19 1 7 -19 1 7 -17 1 5 9 17 5 11 17 -5 -9 17 -5 -7 17 -3 1 1 -5 -1 1 -5 1 1 5 7 17 5 5 17 3 5 17 3 7 17 3 -15 1 1 -17 1 1 -15 1 11 -5 17 11 -3 17 5 -7 17 5 -9 17 3 -9 17 3 -7 17 7 -3 17 -7 17 1 -7 15 1 -9 15 1 -9 17 1 -11 9 1 -11 7 1 -13 9 1 9 7 17 7 23 -1 7 21 -1 5 21 -1 5 23 -1 -11 3 1 -11 1 1 -13 1 1 -13 3 1 -7 9 1 -7 7 1 -9 7 1 -9 9 1 17 -11 11 17 -13 11 -3 3 17 -5 3 17 -7 7 17 -7 5 17 -9 5 17 -9 7 17 1 23 1 1 25 1 3 -1 1 3 -3 1 1 -3 1 1 -1 1 3 5 1 3 3 1 1 3 1 1 5 1 9 17 1 7 17 1 7 19 1 9 15 1 1 7 17 1 5 17 -1 5 17 -1 7 17 13 25 1 13 27 1 -7 3 17 -9 3 17 3 7 1 1 7 1 -13 -15 5 1 -7 17 -11 -25 1 -11 -27 1 -13 -27 1 -13 -25 1 1 -9 17 -7 11 17 -7 9 17 -9 9 17 -9 11 17 -7 1 17 -7 -1 17 -9 -1 17 -9 1 17 -11 -9 17 -11 -11 17 11 5 1 11 3 1 9 3 1 9 5 1 11 -21 1 3 3 17 1 3 17 13 -13 5 13 -15 5 9 7 1 7 5 1 7 7 1 -13 -3 1 -13 -5 1 -1 23 1 -1 25 1 13 19 5 13 17 5 3 17 1 3 15 1 1 15 1 1 17 1 -1 -5 17 -3 -5 17 -3 -3 17 -11 -1 17 -11 1 17 5 9 1 5 7 1 3 9 1 13 15 1 13 13 1 -17 -11 11 -17 -13 11 9 -7 17 7 -7 17 -11 7 17 -3 17 1 -5 17 1 -5 19 1 -7 -11 1 -7 -13 1 -9 -13 1 -9 -11 1 5 5 1 -11 -3 1 -11 -5 1 -3 -11 1 -13 -7 1 -13 -1 1 -5 21 -1 -5 19 -1 -7 19 -1 -7 21 -1 -9 27 1 11 -23 1 3 1 17 1 1 17 1 27 1 -1 27 1 -3 -1 17 7 7 17 -9 -7 1 -9 -9 1 -11 -9 1 -11 -7 1 3 -21 1 -1 -25 1 -1 -27 1 -3 -27 1 -3 -25 1 3 27 1 11 -1 17 9 -3 17 9 -1 17 11 -11 17 11 -9 17 -9 -3 17 -11 -3 17 5 -11 17 -7 -9 17 -7 -11 17 -9 -11 17 -9 -9 17 5 11 1 3 11 1 -7 -3 1 -9 -3 1 -13 13 1 -13 11 1 -1 -13 1 -1 -15 1 -3 -15 1 -3 -13 1 9 -5 17 7 -5 17 -5 -25 1 -7 -25 1 -9 -23 1 -9 -25 1 -11 -23 1 -5 13 1 -5 11 1 -7 11 1 -7 13 1 -11 13 1 -13 15 1 11 23 1 9 -1 1 9 -3 1 -7 -5 1 -9 -5 1 11 3 17 -1 -5 1 -11 9 17 -11 11 17 -1 -7 1 -1 15 1 -1 17 1 -5 -27 1 5 -11 1 5 -13 1 3 -13 1 3 -11 1 -5 15 1 -7 -15 1 -9 -15 1 -5 1 17 -5 -1 17 11 -1 1 11 -3 1 5 17 1 -5 -3 17 -5 -5 17 -7 -5 17 -7 -3 17 13 3 1 -11 -11 1 1 -11 17 -1 -11 17 -3 1 17 -11 -1 1 -5 -11 17 13 11 1 -3 5 1 -3 3 1 -5 3 1 -5 5 1 -3 15 1 3 -23 1 1 -23 1 7 9 1 -3 9 1 -3 7 1 -5 7 1 -5 9 1 -1 -17 1 -1 -19 1 -3 -19 1 -3 -17 1 7 -15 1 1 -21 1 -1 -23 1 -1 -21 1 9 1 1 7 1 1 7 3 1 -13 27 1 -13 25 1 5 -5 1 13 -17 5 13 -19 5 -13 23 1 -13 21 1 -5 -17 1 -5 -19 1 -3 -11 17 1 9 1 1 11 1 9 -25 1 7 -25 1 3 13 1 -11 11 1 1 9 17 5 19 1 -11 25 1 13 -21 1 13 -19 1 11 -7 17 9 -11 5 9 -9 5 -7 5 1 13 9 1 11 9 1 -5 23 -1 -7 23 -1 11 27 1 11 25 1 9 27 1 -11 27 1 -1 5 1 -1 7 1 11 7 1 3 9 17 3 11 17 7 -27 1 5 -27 1 5 -25 1 13 23 1 13 21 1 -13 -9 1 -13 -11 1 -3 -21 1 9 1 17 -3 27 1 -9 13 1 -9 11 1 13 1 1 -1 21 1 -1 19 1 -7 3 1 -9 3 1 -9 5 1 -9 -27 1 7 11 1 1 -13 1 13 15 5 -5 -11 1 -3 -23 1 -11 5 1 1 11 17 -5 -13 1 -5 -15 1 -7 -27 1 7 19 -1 13 21 5 13 -7 1 13 -9 1 11 -7 1 9 -5 1 7 -5 1 11 1 17 5 -15 1 1 -19 1 -5 9 17 13 -11 1 13 -13 1 9 -27 1 -1 1 1 11 -5 1 9 -7 1 -7 19 1 7 -11 1 7 -9 1 -7 -7 17 7 -7 1 5 3 17 -1 1 17 3 -11 17 3 1 1 1 1 1 -1 3 1 9 9 1 5 -5 17 5 3 1 13 -1 1 11 1 1 -1 9 1 1 13 1 7 -13 1 -13 -13 1 -13 -21 1 -13 -23 1 -13 -13 5 13 -5 1 13 -3 1 5 1 1 -9 -21 1 -13 19 5 -13 21 5 -1 3 17 7 -9 5 7 -11 5 -11 -21 1 -5 11 17 -13 -19 1 5 19 -1 7 -9 19 7 -11 19 9 -11 19 9 -9 19 7 -1 13 7 -3 13 9 -3 13 9 -1 13 3 -13 9 3 -15 9 5 -15 9 5 -13 9 11 7 19 11 5 19 13 5 19 13 7 19 -9 -21 9 -9 -23 9 -7 -23 9 -7 -21 9 9 -15 9 9 -17 9 11 -17 9 11 -15 9 5 1 19 5 -1 19 7 -1 19 7 1 19 -9 9 5 -9 7 5 -7 7 5 -7 9 5 9 -9 3 9 -11 3 11 -11 3 11 -9 3 5 -17 9 7 -17 9 7 -15 9 -1 -3 3 -1 -1 3 -3 11 19 -3 9 19 -1 9 19 -1 11 19 -3 7 5 -3 5 5 -1 5 5 -1 7 5 -13 -25 9 -13 -23 9 9 11 13 9 9 13 11 9 13 11 11 13 -7 -7 3 -7 -9 3 -5 -9 3 -5 -7 3 -11 -17 9 -11 -19 9 -9 -19 9 -9 -17 9 -11 -21 9 3 -1 19 3 -3 19 5 -3 19 -11 -1 13 -11 -3 13 -9 -3 13 -9 -1 13 5 -5 5 5 -3 5 -7 -19 9 -7 -17 9 3 21 9 3 19 9 5 19 9 5 21 9 -3 27 9 -3 25 9 -1 25 9 -1 27 9 -13 5 19 -13 3 19 -11 3 19 -11 5 19 9 -19 9 11 -19 9 -1 -9 3 -1 -11 3 1 -11 3 1 -9 3 7 -23 9 7 -25 9 9 -25 9 9 -23 9 -7 -15 9 -5 -17 9 -5 -15 9 -1 -17 9 -1 -19 9 1 -19 9 1 -17 9 7 5 19 7 3 19 9 3 19 9 5 19 -3 9 5 -1 9 5 1 11 13 1 9 13 3 9 13 3 11 13 -1 11 13 -1 9 13 7 -11 11 7 -9 11 -5 7 19 -5 5 19 -3 5 19 -3 7 19 -13 25 9 -13 27 9 -13 -5 19 -13 -7 19 -11 -7 19 -11 -5 19 -13 -17 9 -13 -15 9 11 -3 13 11 -1 13 1 -5 3 1 -7 3 5 -7 5 11 11 19 11 9 19 13 9 19 13 11 19 -1 -1 19 -1 -3 19 1 -3 19 1 -1 19 -11 23 9 -11 21 9 -9 21 9 -9 23 9 -9 -7 19 -9 -5 19 3 17 9 3 15 9 5 15 9 5 17 9 -3 -7 19 -3 -9 19 -1 -9 19 -1 -7 19 13 27 9 13 25 9 3 -9 3 5 -9 3 5 -7 3 -3 -9 3 -9 1 3 -9 -1 3 -7 -1 3 -7 1 3 -13 -11 19 -13 -13 19 -11 -13 19 -11 -11 19 1 -5 19 3 -5 19 -3 23 9 -3 21 9 -1 21 9 -1 23 9 -7 -25 9 -7 -27 9 -5 -27 9 -5 -25 9 9 7 5 9 5 5 11 5 5 11 7 5 5 23 9 7 21 9 7 23 9 7 11 19 7 9 19 9 9 19 9 11 19 -13 -21 9 -11 -23 9 -1 -25 9 -1 -27 9 1 -27 9 1 -25 9 5 11 19 5 9 19 -5 -7 19 -5 -9 19 -11 7 5 -11 9 5 3 7 19 3 5 19 5 5 19 5 7 19 1 23 9 1 21 9 3 23 9 -5 1 3 -5 -1 3 -3 1 3 9 21 9 9 23 9 11 -3 19 11 -5 19 13 -5 19 13 -3 19 3 -7 19 3 -9 19 5 -9 19 5 -7 19 -5 -19 9 7 -3 19 9 7 19 -9 13 19 -9 11 19 -7 11 19 -7 13 19 13 -15 9 13 -17 9 -11 1 3 -11 3 3 17 -13 13 17 -11 13 -5 3 19 -3 3 19 13 21 9 13 19 9 -9 7 19 -9 5 19 -7 5 19 -7 7 19 3 -23 9 3 -25 9 5 -25 9 5 -23 9 -7 17 9 -7 15 9 -5 15 9 -5 17 9 11 17 9 11 15 9 13 15 9 13 17 9 7 -19 9 1 -1 3 1 -3 3 7 11 13 7 9 13 1 5 3 1 3 3 3 3 3 3 5 3 -1 7 19 -1 5 19 1 5 19 1 7 19 -5 -5 5 -5 -7 5 -9 3 19 -7 3 19 1 -7 19 -13 -1 19 -13 1 19 1 -9 19 -9 9 19 -7 9 19 -9 1 19 -9 -1 19 -7 -1 19 -7 1 19 -13 -9 19 -11 -9 19 9 5 3 9 3 3 11 3 3 11 5 3 3 13 19 3 11 19 5 13 19 1 25 9 -13 15 9 -13 17 9 -13 13 9 9 25 9 11 23 9 11 25 9 1 3 19 3 3 19 7 15 9 7 13 9 9 13 9 9 15 9 7 -7 5 7 -5 5 1 -13 9 1 -15 9 -11 1 19 -11 -1 19 -3 -3 19 -3 -5 19 -1 -5 19 -11 -25 9 -9 -25 9 3 13 9 5 13 9 -17 -13 13 -17 -11 13 7 -7 19 9 -7 19 -11 17 9 -11 15 9 -9 15 9 -9 17 9 -13 7 19 -11 7 19 -5 -21 9 -5 -23 9 -3 -23 9 -3 -21 9 9 -21 9 11 -21 9 -9 5 5 -7 5 5 9 -13 19 11 -13 19 11 -11 19 -9 11 13 -9 9 13 -7 9 13 -7 11 13 -3 -11 3 3 -27 9 1 1 19 3 1 19 -11 -5 5 -11 -3 5 -3 -1 19 7 7 19 -11 11 13 -11 9 13 -11 -7 3 -11 -9 3 -9 -9 3 -9 -7 3 9 -1 19 9 -3 19 11 -1 19 11 -9 19 13 -11 19 13 -9 19 11 -23 9 13 -23 9 13 -21 9 -13 13 19 -13 11 19 -11 11 19 -11 13 19 -1 -15 9 5 -27 9 7 -27 9 -5 13 19 -5 11 19 -3 13 19 -1 15 9 -1 13 9 1 13 9 1 15 9 -11 -3 19 -9 -3 19 5 -11 19 -9 -9 19 -9 -11 19 -7 -11 19 -7 -9 19 -13 -13 9 -7 19 9 -5 19 9 7 -5 19 9 -5 19 -7 13 9 -5 13 9 1 13 19 1 11 19 -11 -7 5 11 3 19 13 3 19 -1 -5 3 5 9 5 5 7 5 7 7 5 7 9 5 -11 9 19 -1 -7 3 -13 23 9 -9 -13 9 -9 -15 9 -7 -13 9 -11 5 5 -5 -1 19 -5 1 19 -7 -3 19 -7 -5 19 -5 -5 19 -5 -3 19 13 -13 9 1 5 5 1 7 5 11 -25 9 13 -25 9 5 -19 9 5 -21 9 7 -21 9 -3 1 19 -1 -11 19 1 -11 19 11 9 5 1 19 9 1 17 9 11 -27 9 13 -27 9 -5 -11 19 -5 5 3 -5 3 3 -3 3 3 -3 5 3 -3 11 13 -3 9 13 -1 19 9 13 23 9 7 3 3 7 1 3 9 1 3 13 -1 19 7 19 9 7 17 9 9 17 9 9 19 9 7 -1 3 9 -1 3 13 1 19 -5 -1 13 -5 -3 13 -3 -11 19 9 13 19 11 13 19 13 13 9 -7 27 9 -7 25 9 -5 25 9 -5 27 9 -7 21 9 -5 21 9 -11 19 9 -9 19 9 13 -7 19 -3 -25 9 -9 -11 3 -7 -11 3 1 9 19 -13 -27 9 -1 -21 9 -1 -23 9 1 -23 9 1 -21 9 9 -11 11 9 -9 11 -13 -3 19 11 21 9 11 19 9 11 -7 19 3 7 5 3 5 5 5 5 5 9 -7 5 9 -5 5 -3 13 9 -3 15 9 -11 -15 9 -11 -13 9 9 -27 9 -13 9 19 -9 -13 19 3 9 19 3 -21 9 -5 11 13 -5 9 13 9 1 19 7 -3 5 9 -3 5 3 -19 9 3 -17 9 -11 13 9 -1 13 19 -9 5 3 -9 3 3 -7 3 3 -7 5 3 11 -7 5 11 -5 5 -7 -3 13 -7 -1 13 9 27 9 11 27 9 11 13 9 -7 23 9 -11 25 9 -9 25 9 -5 -11 3 3 -11 19 3 -13 19 5 -13 19 -11 5 3 -9 -3 5 -9 -5 5 -7 -5 5 -7 -3 5 -3 -19 9 -3 -17 9 -3 19 9 -3 17 9 -1 17 9 11 -3 5 -3 -15 9 -5 23 9 13 -19 9 1 27 9 7 -13 9 9 -13 9 -5 7 5 -5 5 5 11 -7 3 7 27 9 7 25 9 -5 -3 5 11 1 19 -13 -19 9 -5 9 19 -1 1 3 7 13 19 -9 13 9 7 -9 3 7 -11 3 -7 -7 19 -11 -1 3 13 -13 19 -11 27 9 -9 27 9 11 -13 9 -9 -27 9 3 25 9 5 25 9 -3 -13 19 -1 -13 19 5 11 13 5 9 13 5 3 19 -5 -13 9 -13 21 9 -1 1 19 5 -3 13 5 -1 13 7 -13 19 1 1 3 3 1 3 -1 3 3 1 9 5 3 9 5 3 27 9 5 27 9 -9 -7 5 -7 -7 5 -5 9 5 9 9 5 5 -5 19 5 3 3 5 5 3 -11 -27 9 -1 5 3 11 1 3 11 -1 3 -7 -13 19 1 -13 19 7 5 3 9 -7 3 -3 -27 9 5 1 3 7 -7 3 3 -11 3 5 -11 3 13 13 19 -1 3 19 -13 19 9 -1 -13 9 -11 -11 3 -5 -13 19 7 5 5 5 -1 3 -3 -13 9 -11 -27 7 -13 -27 7 -13 -27 5 -11 -27 5 7 -3 11 9 -3 11 5 -3 9 5 -3 7 13 -13 3 9 -3 7 7 -3 7 -13 21 3 9 -27 3 7 -27 3 -7 -27 7 -9 -27 7 -9 -27 5 -7 -27 5 -13 -27 3 9 9 11 11 9 11 13 -27 3 11 -27 3 5 -13 15 3 -13 15 3 -13 13 5 -13 13 11 -3 9 11 -3 7 1 -13 15 -1 -13 15 -1 -13 13 1 -13 13 1 11 15 3 11 15 -11 -3 11 -9 -3 11 9 11 15 7 11 15 -7 -13 11 -9 -13 11 7 9 7 5 9 7 1 9 11 3 9 11 -1 9 11 11 -13 17 13 -13 17 3 -13 11 1 -13 11 7 -3 9 9 -3 9 11 -3 11 -9 9 7 -11 9 7 -13 -13 3 11 11 15 7 9 11 5 9 11 5 9 9 7 9 9 13 -27 7 11 -27 7 11 -27 5 13 -27 5 -1 9 9 1 9 9 5 -27 5 3 -27 5 3 -27 3 5 -27 3 -3 -13 17 -1 -13 17 13 -13 11 -13 -13 11 3 -13 17 1 -13 17 -5 -13 17 -7 -13 17 -7 -13 15 -5 -13 15 -13 -13 17 -11 -13 17 -7 9 7 -9 11 15 -7 11 15 -5 -27 7 1 -27 3 -9 -13 13 -11 -13 13 -11 -13 11 5 -3 11 -1 -27 7 1 -27 7 -3 9 11 -3 9 9 7 -13 17 9 -13 17 9 -27 5 -5 -3 7 -13 -13 15 -11 -13 15 11 -13 11 -5 11 15 -1 -13 11 -3 -13 11 5 -13 11 13 21 3 7 -27 5 13 -13 15 -5 -3 11 -7 -3 11 -7 -3 9 -5 -3 9 -1 9 7 1 9 7 -9 -13 17 -13 -13 13 11 9 7 9 9 7 -3 11 15 -11 -27 3 -11 -3 9 -11 -3 7 -9 -13 15 5 11 15 -1 11 15 -11 11 15 -7 -13 13 1 -27 5 -9 -3 9 -9 -3 7 -3 -13 15 -5 -13 13 -3 -13 13 11 -13 15 11 -13 13 13 -13 13 -3 -27 7 -7 9 11 -9 9 11 -9 9 9 -7 9 9 -7 -3 7 3 -27 7 5 -27 7 9 -13 13 7 -13 13 7 -13 11 9 -13 11 11 9 9 9 9 9 -11 9 11 -1 -27 3 -3 -27 3 3 9 9 3 9 7 -5 9 11 5 -13 17 7 -27 7 -9 -27 3 -7 -27 3 -1 -27 5 -3 -27 5 -11 9 9 -5 -27 3 -5 -27 5 7 -13 15 -5 -13 11 9 -13 15 -3 9 7 -5 9 7 -5 9 9 9 -27 7 9 -1 11 7 -1 11 5 -1 7 5 -1 9 13 27 3 13 27 5 9 -1 5 7 -1 5 7 -1 7 9 -1 7 -9 13 11 -11 13 11 -11 13 13 -9 13 13 -5 13 11 -7 13 11 -7 13 13 -5 13 13 7 13 17 5 13 17 3 13 11 5 13 11 11 -1 7 11 -1 9 5 -11 13 3 -11 13 3 -11 15 5 -11 15 11 13 11 9 13 11 9 13 13 11 13 13 1 -11 13 -1 -11 13 -1 -11 15 1 -11 15 -9 -1 11 -11 -1 11 3 13 15 1 13 15 1 13 17 3 13 17 3 13 13 5 13 13 7 13 13 7 13 15 9 13 15 -7 -11 9 -9 -11 9 -9 -11 11 -7 -11 11 -3 13 11 -1 27 7 -3 27 7 9 13 17 7 -9 9 3 -11 9 1 -11 9 1 -11 11 3 -11 11 -9 27 7 -11 27 7 7 27 3 5 27 3 5 27 5 7 27 5 9 -1 9 7 -1 9 13 27 7 -13 27 7 -13 -19 3 11 -1 11 -11 -11 5 11 13 15 1 27 5 -1 27 5 1 27 7 7 -9 7 11 27 5 9 27 5 9 27 7 11 27 7 3 -11 7 -5 -11 15 -7 -11 15 -7 13 15 -9 13 15 -9 13 17 -7 13 17 -11 -11 11 -11 -11 13 -9 -11 13 5 -1 11 1 -11 7 -1 -11 7 -1 -11 9 11 -1 5 5 -1 5 -9 -11 7 -11 -11 7 -11 -11 9 -13 27 5 -7 27 7 -9 27 5 -11 27 5 5 27 7 3 27 7 -5 -1 5 -5 -1 7 -11 -11 15 -5 13 15 -3 -11 9 -3 -11 11 -1 -11 11 11 27 3 -7 -11 7 3 27 3 3 27 5 -5 -1 9 -7 -1 9 -7 -1 11 -5 -1 11 -1 13 11 -3 13 13 -1 13 13 7 13 11 -3 13 15 -13 15 3 13 -19 3 3 -11 5 1 -11 5 -7 -1 5 9 27 3 -11 -1 7 -11 -1 9 -9 -11 15 -3 27 5 -9 -1 5 5 13 15 1 13 13 -1 13 15 -11 13 15 -11 13 17 -5 13 17 -3 13 17 -7 -11 13 -9 -1 7 -9 -1 9 -3 -11 13 -5 -11 13 -3 -11 15 11 -11 13 11 -11 15 13 15 3 -7 27 3 -9 27 3 -7 27 5 13 13 13 13 13 15 -13 13 11 -13 13 13 9 -9 7 9 -9 9 -7 -1 7 7 27 7 7 -11 13 9 -11 13 -5 27 3 -3 27 3 13 13 17 11 13 17 -1 -11 5 -3 -11 5 -3 -11 7 -11 -1 5 -5 27 5 -1 27 3 1 27 3 -13 13 17 1 13 11 -5 -11 7 -5 -11 9 -7 -11 5 -9 -11 5 13 13 11 -1 13 17 -13 13 15 7 -11 15 -5 -11 5 -5 -11 11 -5 27 7 9 -11 15 -11 27 3 -13 27 3 </float_array>
<technique_common>
<accessor count="2226" source="#Plane-color-mesh-positions-array" stride="3">
<param name="X" type="float"/>
<param name="Y" type="float"/>
<param name="Z" type="float"/>
</accessor>
</technique_common>
</source>
<vertices id="Plane-color-mesh-vertices">
<input semantic="POSITION" source="#Plane-color-mesh-positions"/>
</vertices>
<polylist count="389" material="Material_68_68_68-material">
<input offset="0" semantic="VERTEX" source="#Plane-color-mesh-vertices"/>
<vcount>4 4 4 4 4 4 4 4 4 4 4 4 4 4 4 4 4 4 4 4 4 4 4 4 4 4 4 4 4 4 4 4 4 4 4 4 4 4 4 4 4 4 4 4 4 4 4 4 4 4 4 4 4 4 4 4 4 4 4 4 4 4 4 4 4 4 4 4 4 4 4 4 4 4 4 4 4 4 4 4 4 4 4 4 4 4 4 4 4 4 4 4 4 4 4 4 4 4 4 4 4 4 4 4 4 4 4 4 4 4 4 4 4 4 4 4 4 4 4 4 4 4 4 4 4 4 4 4 4 4 4 4 4 4 4 4 4 4 4 4 4 4 4 4 4 4 4 4 4 4 4 4 4 4 4 4 4 4 4 4 4 4 4 4 4 4 4 4 4 4 4 4 4 4 4 4 4 4 4 4 4 4 4 4 4 4 4 4 4 4 4 4 4 4 4 4 4 4 4 4 4 4 4 4 4 4 4 4 4 4 4 4 4 4 4 4 4 4 4 4 4 4 4 4 4 4 4 4 4 4 4 4 4 4 4 4 4 4 4 4 4 4 4 4 4 4 4 4 4 4 4 4 4 4 4 4 4 4 4 4 4 4 4 4 4 4 4 4 4 4 4 4 4 4 4 4 4 4 4 4 4 4 4 4 4 4 4 4 4 4 4 4 4 4 4 4 4 4 4 4 4 4 4 4 4 4 4 4 4 4 4 4 4 4 4 4 4 4 4 4 4 4 4 4 4 4 4 4 4 4 4 4 4 4 4 4 4 4 4 4 4 4 4 4 4 4 4 4 4 4 4 4 4 4 4 4 4 4 4 4 4 4 4 4 4 4 4 4 4 4 4 4 4 4 4 4 4 4 4 4 4 4 4 4 4 4 4 4 4 </vcount>
<p>1511 1510 1834 1835 811 810 1183 831 1146 481 383 2160 1080 1201 880 1081 358 155 824 1144 1285 1646 1378 1505 1006 1052 1190 1186 1021 1022 1023 1024 874 836 1045 840 919 918 973 974 867 770 773 805 1118 1117 1134 1133 1219 923 746 1207 1220 1207 873 1104 969 1125 1223 1003 452 384 482 453 779 780 781 782 451 452 453 454 1221 968 970 1110 68 1405 1406 1407 1505 1378 25 24 1186 1190 1000 999 893 892 363 247 40 1869 1132 355 785 786 787 788 1089 1208 1198 1068 1123 1067 785 1124 824 355 1132 1131 625 624 1601 1600 1866 451 454 1205 963 1014 864 863 1052 1051 1191 1190 481 963 863 866 1278 1279 1280 1281 1646 1652 1379 1378 918 741 1177 973 902 903 904 905 962 961 1125 969 1797 1286 1504 1822 875 874 840 839 1211 1228 1080 1079 1180 842 903 902 1156 1066 571 570 1174 1175 1141 1064 836 835 1069 1045 1001 1085 346 345 903 1100 1008 904 744 844 1228 1211 864 1138 1139 771 454 453 843 844 1137 1136 1226 751 841 1046 1004 1100 1479 1803 1410 1409 894 895 861 896 1076 750 753 1107 1210 890 893 245 1025 1108 1109 1120 1838 1839 322 321 753 752 1061 1060 1199 1214 827 1128 827 828 829 801 1845 1856 1697 1690 960 1225 1123 961 1014 765 1138 864 1690 1697 1698 1691 607 808 811 931 1965 711 712 1168 801 829 779 802 1202 1120 1122 1116 1105 875 839 1179 121 120 918 919 781 1049 1052 1006 842 841 1100 903 1214 1212 828 827 882 881 1115 1050 1044 988 1136 1137 435 546 1652 1646 849 1236 1242 147 388 387 1803 1479 1756 1755 1682 1681 1509 1822 1823 1510 1022 1002 1096 1023 605 606 607 608 740 980 1077 1178 1077 1076 1107 996 1119 868 804 1201 1059 944 947 1231 1379 1338 1405 68 839 840 841 842 769 768 1022 1021 1064 1141 1048 1047 1004 1005 972 971 789 762 765 1014 997 1083 891 890 930 929 1090 1143 850 849 147 146 1043 986 988 1044 924 925 926 927 1085 850 146 346 840 1045 1046 841 363 1065 2159 304 1242 1059 1231 1230 1049 1050 1051 1052 988 940 941 1136 1228 1119 1201 1080 1846 1800 1278 1843 746 747 748 749 1800 1801 1279 1278 868 867 805 804 346 146 78 257 1227 1137 751 750 1103 1104 1105 1106 881 1202 1116 1115 1281 1280 340 171 1843 1278 1281 1790 1459 519 1286 1797 1338 1337 1847 1405 1000 1084 1085 1001 482 481 866 865 1790 1281 171 170 1112 1103 1106 1113 803 802 1075 1072 892 1174 1064 363 837 838 767 766 761 760 1057 1236 1823 136 1856 1845 1286 1285 1505 1504 1117 1171 758 1134 1128 827 801 800 780 1184 1049 781 782 781 1006 838 825 1095 960 959 804 805 806 807 1175 909 894 1141 436 435 1646 1285 829 1082 780 779 246 247 248 41 1120 1109 1121 1122 973 1177 659 390 1208 1197 1209 1198 1100 1004 971 1008 970 969 1003 987 830 831 832 833 940 924 927 941 998 997 890 1210 1603 1602 1302 1301 1837 1824 1509 1508 923 922 747 746 1121 1026 1029 1187 1136 941 1160 1226 1183 1110 986 1043 1124 785 788 1235 1084 847 850 1085 741 740 1178 1177 1068 1198 1199 786 1160 1159 1103 1112 1083 1060 1063 891 926 1219 1207 1220 1113 1106 1150 907 987 1003 924 940 608 607 931 928 1133 1134 848 847 805 773 1025 806 828 1079 1082 829 1104 873 875 1105 336 977 980 740 1405 1847 1848 1406 1600 1601 1602 1603 1226 1160 1112 1111 1050 1115 1118 1051 519 436 1285 1286 1095 1176 1225 960 906 907 908 909 1824 1797 1822 1509 974 973 390 389 656 605 608 666 928 931 830 929 1114 1113 907 906 1233 1195 1197 1208 834 837 766 835 1144 824 1131 1127 808 809 810 811 345 346 257 256 1302 1717 1767 1303 990 1102 809 808 1060 1061 1062 1063 880 807 881 882 1684 1683 1824 1837 1409 1410 1411 1412 835 766 769 1069 1143 1090 977 336 1178 1077 996 705 832 1043 1044 1140 810 1221 1110 1183 908 1181 1188 895 941 927 1159 1160 980 979 1076 1077 800 801 802 803 745 744 1211 1212 1771 1480 1754 1753 1109 854 1026 1121 922 803 1072 747 1081 880 882 1184 1115 1116 1117 1118 1171 1187 759 758 1116 1122 1171 1117 1601 1853 1716 1602 751 1226 1111 752 866 863 770 867 1072 1075 837 834 929 830 833 1090 1176 1224 1088 1225 1602 1716 1717 1302 1534 1838 321 268 748 834 835 836 1188 902 905 862 355 246 41 40 863 864 771 770 831 1183 1043 832 1682 1457 1459 1683 1075 782 838 837 1070 1021 1024 1005 752 1111 1114 1061 1207 746 749 873 1689 1690 1691 1533 1480 1479 1409 1754 245 893 247 246 1096 345 1229 1170 959 960 961 962 1181 1180 902 1188 1195 1196 742 1197 920 921 922 923 722 928 929 930 1504 1505 24 136 1145 789 1014 963 1023 1096 1170 1169 1681 1682 1683 1684 771 1139 1166 772 1082 1081 1184 780 1179 839 842 1180 996 1107 1083 997 961 1123 1124 1125 1407 1406 1800 1846 747 1072 834 748 968 962 969 970 1079 1080 1081 1082 1141 894 896 1048 120 337 741 918 453 482 865 843 1106 1105 1179 1150 1508 1509 1510 1511 931 811 831 830 1122 1121 1187 1171 1510 1823 1845 1834 1236 1057 1059 1242 1003 1223 925 924 1161 959 962 968 705 996 997 998 865 866 867 868 1069 769 1021 1070 788 787 921 920 909 908 895 894 759 1055 1056 760 1134 758 761 848 154 245 246 355 1057 1058 944 1059 1146 1145 963 481 1051 1118 1133 1191 807 806 1202 881 1177 1178 705 659 247 363 304 248 989 990 808 607 1304 1303 1408 546 1190 1191 1084 1000 1167 1168 712 1066 624 718 1853 1601 1102 1151 1152 809 766 767 768 769 1061 1114 906 1062 833 832 1140 978 1088 1089 1068 1067 1691 1698 1839 1838 363 1064 1047 1065 1204 1205 454 743 786 1199 1128 787 1533 1691 1838 1534 1191 1133 847 1084 1066 712 657 571 1301 1302 1303 1304 1218 920 923 1219 1002 1001 345 1096 1024 1023 1169 1007 1062 906 909 1175 743 454 844 744 760 1056 1058 1057 1406 1848 1801 1800 147 1242 1230 1244 978 1140 1227 979 1212 1211 1079 828 1159 1220 1104 1103 977 978 979 980 1197 742 745 1209 337 336 740 741 1408 1590 1336 1335 809 1152 1221 810 1412 1411 1458 1457 712 666 722 657 1535 1534 268 267 1125 1124 1235 1223 711 656 666 712 1234 1233 1208 1089 146 147 79 78 1184 882 1050 1049 772 1166 851 1108 1108 851 854 1109 1652 1335 1338 1379 666 608 928 722 1005 1024 1007 972 921 800 803 922 907 1150 1181 908 1755 1412 1457 1682 843 865 868 1119 1834 1845 1690 1689 873 749 874 875 551 388 1479 1480 1457 1458 519 1459 1378 1379 68 25 1842 1689 1533 1532 552 551 1480 1771 1196 1204 743 742 1835 1834 1689 1842 742 743 744 745 1303 1767 1590 1408 767 1186 999 768 1224 1234 1089 1088 847 848 849 850 1223 1235 1218 925 1683 1459 1797 1824 256 1913 1229 345 787 1128 800 921 1201 804 807 880 802 779 782 1075 1152 1161 968 1221 384 383 481 482 826 825 959 1161 1151 826 1161 1152 895 1188 862 861 1045 1069 1070 1046 768 999 1002 1022 770 771 772 773 773 772 1108 1025 1754 1409 1412 1755 844 843 1119 1228 927 926 1220 1159 1209 745 1212 1214 1335 1336 1337 1338 758 759 760 761 1235 788 920 1218 838 1006 1186 767 1063 1062 1175 1174 546 1408 1335 1652 1198 1209 1214 1199 1532 1533 1534 1535 155 154 355 824 1046 1070 1005 1004 147 1244 2102 79 891 1063 1174 892 890 891 892 893 1753 1754 1755 1756 1140 1044 1137 1227 1111 1112 1113 1114 806 1025 1120 1202 749 748 836 874 1225 1088 1067 1123 979 1227 750 1076 999 1000 1001 1002 1822 1504 136 1823 1090 833 978 977 989 607 606 2185 1107 753 1060 1083 1110 970 987 986 925 1218 1219 926 986 987 940 988 1067 1068 786 785 936 1167 1066 1156 1150 1179 1180 1181 848 761 1236 849 1187 1029 1055 759 750 751 752 753 </p>
</polylist>
<polylist count="331" material="Material_51_51_51-material">
<input offset="0" semantic="VERTEX" source="#Plane-color-mesh-vertices"/>
<vcount>4 4 4 4 4 4 4 4 4 4 4 4 4 4 4 4 4 4 4 4 4 4 4 4 4 4 4 4 4 4 4 4 4 4 4 4 4 4 4 4 4 4 4 4 4 4 4 4 4 4 4 4 4 4 4 4 4 4 4 4 4 4 4 4 4 4 4 4 4 4 4 4 4 4 4 4 4 4 4 4 4 4 4 4 4 4 4 4 4 4 4 4 4 4 4 4 4 4 4 4 4 4 4 4 4 4 4 4 4 4 4 4 4 4 4 4 4 4 4 4 4 4 4 4 4 4 4 4 4 4 4 4 4 4 4 4 4 4 4 4 4 4 4 4 4 4 4 4 4 4 4 4 4 4 4 4 4 4 4 4 4 4 4 4 4 4 4 4 4 4 4 4 4 4 4 4 4 4 4 4 4 4 4 4 4 4 4 4 4 4 4 4 4 4 4 4 4 4 4 4 4 4 4 4 4 4 4 4 4 4 4 4 4 4 4 4 4 4 4 4 4 4 4 4 4 4 4 4 4 4 4 4 4 4 4 4 4 4 4 4 4 4 4 4 4 4 4 4 4 4 4 4 4 4 4 4 4 4 4 4 4 4 4 4 4 4 4 4 4 4 4 4 4 4 4 4 4 4 4 4 4 4 4 4 4 4 4 4 4 4 4 4 4 4 4 4 4 4 4 4 4 4 4 4 4 4 4 4 4 4 4 4 4 4 4 4 4 4 4 4 4 4 4 4 4 4 4 4 4 4 4 </vcount>
<p>754 757 1978 1984 670 373 376 490 2057 2064 2067 2058 72 109 122 123 1959 1958 1975 1947 107 108 32 109 674 673 682 553 1929 1935 1938 1990 109 32 35 122 2184 2223 731 1034 370 595 596 371 1549 1564 2053 2157 303 270 37 36 1751 1542 2191 2043 672 703 704 673 629 480 464 463 1890 1889 1962 1907 1942 1985 1598 1586 1978 1961 1744 1685 1948 1932 1634 1738 949 952 1942 1943 1983 1892 1359 1813 300 73 263 287 1990 1938 1991 1992 70 71 72 73 2172 2158 2176 2217 2090 2145 2065 2064 568 528 531 569 2171 2156 2172 2071 2056 2057 2058 2059 458 396 459 460 2026 1897 1656 1816 124 125 9 8 506 463 466 507 478 568 569 479 1887 1888 1889 1890 507 466 621 622 490 376 397 491 375 674 553 398 2066 2182 1135 1098 338 344 342 325 36 37 38 39 1563 1625 2211 2052 73 72 123 263 1933 1934 1887 1882 59 58 134 192 2170 2070 2073 2051 1905 1904 1993 1967 1940 1939 1958 1959 181 110 113 182 1904 1955 2027 1993 74 1914 1300 316 2122 707 704 2141 601 600 439 461 425 426 427 428 1937 1982 1946 1986 125 169 277 9 77 813 1914 74 371 596 505 469 135 276 108 107 477 478 479 480 1799 1751 2043 2042 2074 2171 2071 2070 2005 1884 1964 2006 1985 690 691 1598 459 492 574 592 331 240 115 114 2047 2042 2045 2048 374 671 674 375 200 199 276 135 1946 1947 1948 1898 467 468 458 426 2117 2118 2119 2120 1936 1974 1982 1937 8 9 10 11 1897 1898 1654 1656 497 498 499 500 325 342 100 150 2006 1964 1257 1786 431 455 456 457 455 372 470 456 2183 2198 2223 2184 1640 1639 2047 2046 1994 2004 2007 1960 2211 2154 2156 2171 1914 1895 1297 1300 9 277 278 10 2088 2089 2090 2091 279 280 250 249 2045 2044 2173 2118 471 592 542 541 632 634 609 406 473 474 475 476 192 134 71 70 466 465 562 621 1995 1994 1960 1931 2070 2071 2072 2073 1935 1936 1937 1938 139 86 89 140 2004 2005 2006 2007 1955 1954 2025 2027 2089 2127 2145 2090 2075 2074 2070 2170 376 375 398 397 1883 1890 1907 1906 637 369 372 455 461 439 442 462 534 601 461 524 1974 1940 1959 1982 2079 2080 2081 2082 1724 1362 2197 2198 1892 1891 1356 1359 2177 2123 2167 2116 456 470 538 537 117 116 142 294 280 2183 2184 250 373 374 375 376 469 505 498 497 1639 1799 2042 2047 1982 1959 1947 1946 1884 1883 1906 1964 116 188 143 142 397 398 399 400 212 338 325 324 1550 1549 2157 2061 2223 2219 732 731 1889 1992 1963 1962 1931 1960 1807 1664 1963 2026 1816 1857 2048 2045 2118 2117 428 427 472 535 2043 2191 2192 2044 650 629 463 506 195 166 125 124 690 425 428 691 535 472 414 413 2071 2172 2217 2072 2219 2059 1038 732 188 279 249 143 429 430 431 432 2158 2142 2175 2176 193 194 195 196 427 460 471 472 432 431 457 631 270 138 141 37 37 141 212 38 457 456 537 634 1163 1189 1891 1892 196 195 124 105 2062 2076 2077 2078 400 399 583 719 1964 1906 1254 1257 463 464 465 466 2061 2157 2076 2062 13 324 173 14 250 2184 1034 251 2216 2060 2063 2189 1189 754 1984 1891 157 39 12 158 115 182 188 116 2167 2141 958 1041 474 713 536 475 604 477 480 629 46 2091 2057 2056 2118 2173 2174 2119 1986 1946 1898 1897 1564 1563 2052 2053 2052 2211 2171 2074 39 38 13 12 142 143 144 145 2143 2213 2221 2144 105 124 8 106 524 461 462 525 1895 1896 1506 1297 860 870 1983 1896 2081 2121 2122 2123 1991 1986 1897 2026 1898 1948 1738 1654 12 13 14 15 1967 1993 1994 1995 671 672 673 674 716 467 426 425 249 250 251 252 2142 2117 2120 2175 2121 713 707 2122 2065 2180 2182 2066 2042 2043 2044 2045 112 710 2183 280 634 537 540 609 2053 2052 2074 2075 187 59 192 286 2180 2181 2115 2182 538 497 500 539 316 104 75 74 111 589 710 112 1947 1975 1932 1948 38 212 324 13 297 196 105 104 479 569 601 534 2078 2077 2050 2086 715 716 425 690 1625 1624 2154 2211 2181 2177 2116 2115 2080 2132 2121 2081 2060 2061 2062 2063 673 704 707 682 398 553 473 399 312 70 73 300 166 165 169 125 110 111 112 113 114 115 116 117 1243 949 1943 1961 569 531 600 601 430 637 455 431 2059 2058 1217 1038 2132 536 713 2121 260 303 36 261 2105 2078 2086 2202 108 156 33 32 74 75 76 77 1960 2007 1787 1807 399 473 476 583 1906 1907 1554 1254 45 2088 2091 46 1992 1991 2026 1963 2091 2090 2064 2057 468 393 396 458 1984 1978 1685 1360 113 112 280 279 2044 2192 2218 2173 396 395 492 459 75 106 314 76 372 371 469 470 324 325 150 173 369 370 371 372 1934 1930 1888 1887 158 12 15 209 2064 2065 2066 2067 138 139 140 141 2154 2083 2155 2156 2145 2144 2180 2065 1962 1963 1857 1852 1882 1887 1890 1883 470 469 497 538 261 36 39 157 2123 2122 2141 2167 2213 2079 2082 2221 460 459 592 471 182 113 279 188 1961 1943 1589 1744 480 479 534 464 2190 2105 2202 2201 2155 2049 2142 2158 1705 1763 2060 2216 2221 2082 2177 2181 1735 1640 2046 2083 628 604 629 650 1624 1735 2083 2154 426 458 460 427 465 524 525 562 163 164 165 166 32 33 34 35 2082 2081 2123 2177 58 200 135 134 2076 2075 2170 2077 2049 2048 2117 2142 134 135 107 71 2063 2062 2078 2105 2077 2170 2051 2050 276 262 156 108 682 707 713 474 2058 2067 1097 1217 393 394 395 396 631 457 634 632 286 192 70 312 2198 2197 2219 2223 2115 2116 1040 1101 710 1724 2198 2183 240 181 182 115 2025 1881 1884 2005 1938 1937 1986 1991 464 534 524 465 592 574 560 542 199 230 262 276 2016 1933 1882 1881 472 471 541 414 537 538 539 540 1888 1990 1992 1889 294 142 145 315 2156 2155 2158 2172 1907 1962 1852 1554 1954 2016 1881 2025 1763 1550 2061 2060 106 8 11 314 296 193 196 297 1943 1942 1586 1589 2141 704 703 958 143 249 252 144 71 107 109 72 2067 2066 1098 1097 194 163 166 195 2144 2221 2181 2180 952 1074 1985 1942 2182 2115 1101 1135 1896 1983 1813 1506 2116 2167 1041 1040 2083 2046 2049 2155 2173 2218 2210 2174 168 117 294 309 309 294 315 343 2197 2056 2059 2219 1993 2027 2004 1994 813 857 1895 1914 2046 2047 2048 2049 1881 1882 1883 1884 1362 46 2056 2197 1074 715 690 1985 2007 2006 1786 1787 2189 2063 2105 2190 1930 1929 1990 1888 140 89 344 338 857 860 1896 1895 757 1243 1961 1978 2157 2053 2075 2076 141 140 338 212 1891 1984 1360 1356 553 682 474 473 2127 2143 2144 2145 2027 2025 2005 2004 870 1163 1892 1983 104 105 106 75 </p>
</polylist>
<polylist count="65" material="Material_187_187_187-material">
<input offset="0" semantic="VERTEX" source="#Plane-color-mesh-vertices"/>
<vcount>4 4 4 4 4 4 4 4 4 4 4 4 4 4 4 4 4 4 4 4 4 4 4 4 4 4 4 4 4 4 4 4 4 4 4 4 4 4 4 4 4 4 4 4 4 4 4 4 4 4 4 4 4 4 4 4 4 4 4 4 4 4 4 4 4 </vcount>
<p>1987 2020 2011 1945 854 853 1027 1026 722 930 1193 723 389 390 391 392 659 705 706 660 359 360 361 362 899 1193 1245 900 1009 1010 1011 1012 930 1143 1245 1193 705 998 1010 706 2106 2107 2084 2108 728 727 360 359 900 1245 335 334 1210 245 244 1011 152 153 154 155 360 118 121 361 998 1210 1011 1010 663 1153 1154 318 357 152 155 358 1153 1009 1012 1154 2149 2106 2108 2138 153 244 245 154 2011 2012 1028 1027 573 727 726 570 119 334 337 120 657 722 723 658 572 658 899 898 360 901 119 118 2020 2021 2012 2011 1945 2011 1027 853 2107 2168 2085 2084 317 318 319 320 664 663 318 317 571 657 658 572 2148 2209 2106 2149 851 852 853 854 118 119 120 121 2187 2224 2136 2135 660 706 1010 1009 1154 1012 153 152 898 899 900 901 2209 2208 2107 2106 318 357 358 319 728 359 362 725 334 335 336 337 658 723 1193 899 570 571 572 573 392 663 662 389 2208 2200 2168 2107 664 317 320 661 727 898 901 360 1026 1027 1028 1029 1927 1945 853 852 391 660 1009 1153 901 900 334 119 1012 1011 244 153 390 659 660 391 2146 2164 2111 2110 725 726 727 728 1926 1987 1945 1927 318 1154 152 357 392 391 1153 663 661 662 663 664 1143 336 335 1245 573 572 898 727 </p>
</polylist>
<polylist count="12" material="Material_255_255_255-material">
<input offset="0" semantic="VERTEX" source="#Plane-color-mesh-vertices"/>
<vcount>4 4 4 4 4 4 4 4 4 4 4 4 </vcount>
<p>1874 1861 1979 2018 1873 1858 1861 1874 1919 1920 1921 1922 1861 1860 1876 1979 2096 2149 2138 2137 2200 2199 2207 2168 1920 2031 1956 1921 1858 1859 1860 1861 2168 2207 2222 2085 2095 2148 2149 2096 1921 1956 1870 1880 1922 1921 1880 1879 </p>
</polylist>
<polylist count="11" material="Material_34_34_34-material">
<input offset="0" semantic="VERTEX" source="#Plane-color-mesh-vertices"/>
<vcount>4 4 4 4 4 4 4 4 4 4 4 </vcount>
<p>1950 1996 2021 2020 2021 2024 2023 2012 1966 1925 1928 1871 2017 2003 1925 1966 1996 1944 2024 2021 1925 1926 1927 1928 1951 1950 2020 1987 2003 2002 1926 1925 2024 1875 2019 2023 1944 1872 1875 2024 2002 1951 1987 1926 </p>
</polylist>
<polylist count="269" material="Material_255_204_153-material">
<input offset="0" semantic="VERTEX" source="#Plane-color-mesh-vertices"/>
<vcount>4 4 4 4 4 4 4 4 4 4 4 4 4 4 4 4 4 4 4 4 4 4 4 4 4 4 4 4 4 4 4 4 4 4 4 4 4 4 4 4 4 4 4 4 4 4 4 4 4 4 4 4 4 4 4 4 4 4 4 4 4 4 4 4 4 4 4 4 4 4 4 4 4 4 4 4 4 4 4 4 4 4 4 4 4 4 4 4 4 4 4 4 4 4 4 4 4 4 4 4 4 4 4 4 4 4 4 4 4 4 4 4 4 4 4 4 4 4 4 4 4 4 4 4 4 4 4 4 4 4 4 4 4 4 4 4 4 4 4 4 4 4 4 4 4 4 4 4 4 4 4 4 4 4 4 4 4 4 4 4 4 4 4 4 4 4 4 4 4 4 4 4 4 4 4 4 4 4 4 4 4 4 4 4 4 4 4 4 4 4 4 4 4 4 4 4 4 4 4 4 4 4 4 4 4 4 4 4 4 4 4 4 4 4 4 4 4 4 4 4 4 4 4 4 4 4 4 4 4 4 4 4 4 4 4 4 4 4 4 4 4 4 4 4 4 4 4 4 4 4 4 4 4 4 4 4 4 4 4 4 4 4 4 4 4 4 4 4 4 </vcount>
<p>2153 2152 1760 1700 1989 1981 1595 1772 2001 1989 1772 1775 1294 1293 1665 1666 137 27 1 0 1916 1902 2013 1917 1291 1292 1293 1294 117 1376 1910 114 1910 1863 1909 1885 1731 1665 1508 1511 3 2 127 126 1666 1665 1731 1730 2035 3 126 2124 2166 576 575 2069 698 1149 2193 591 1803 387 386 2206 1855 1732 1835 1842 678 679 680 681 434 545 546 435 1953 2030 2029 2028 1649 1855 1428 1427 1969 1894 1988 1970 1506 1507 1298 1297 25 68 69 26 1355 1294 1666 1825 679 1701 1968 680 1318 1317 1553 1747 322 1839 2128 283 545 1517 1304 546 1998 2010 2022 1999 1894 1893 1980 1988 1893 400 719 1980 2068 2069 1313 1316 1363 1362 1724 1725 1313 1314 1315 1316 1599 428 535 2010 665 549 1657 1448 26 69 1380 1317 1865 1 27 1318 2041 2040 2099 2098 1973 1972 1355 1825 2028 2029 1831 1354 2163 2169 2178 2195 2015 1997 2000 2030 1941 1911 1274 1277 1240 292 94 2109 1952 2015 2030 1953 1250 1251 1252 1253 1650 1649 1427 1832 1830 1829 1603 1301 2140 2195 2151 2150 1732 1731 1511 1835 1517 1830 1301 1304 1826 1730 1648 1647 172 1757 1790 170 1901 1903 1923 1924 2014 1973 1825 1826 1361 1686 1952 1903 433 434 435 436 2034 0 3 2035 1274 1275 1276 1277 1516 1517 545 434 1903 1952 1953 1923 2022 413 416 1912 1648 1732 1855 1649 1686 1745 2015 1952 485 433 436 519 1297 1298 1299 1300 588 2194 1725 709 1825 1666 1730 1826 1430 1429 178 177 2033 2124 1820 1250 1458 1411 2163 2139 1899 1900 1647 1650 1149 1240 2109 2193 691 428 1599 1598 1380 69 68 1407 1595 1594 1773 1772 1957 2001 1775 1793 104 1299 1878 297 1376 1252 1863 1910 296 2008 1976 351 2139 2163 2195 2140 1923 1953 2028 1972 1586 1587 1588 1589 1582 1581 1753 1756 1908 1864 1865 1868 1354 1291 1294 1355 1665 1293 1837 1508 681 2153 1700 678 485 2139 2140 483 1358 1357 1901 1902 483 2140 2150 648 1877 1915 1918 2009 1700 1701 679 678 419 623 1643 1594 2124 126 129 1820 1317 1380 1552 1553 1772 1773 1774 1775 1878 1877 2009 2008 491 397 1314 1313 1594 1643 1829 1773 1588 1587 1998 1997 1411 1410 2169 2163 1276 1582 1789 1788 2152 2068 1316 1760 129 128 1819 1820 47 46 1362 1363 2128 2038 2041 2054 649 1971 1957 484 1587 1599 2010 1998 648 2150 2153 681 1734 1733 1757 1758 1360 1361 1357 1356 2029 1941 1277 1831 1730 1731 1732 1648 1685 1686 1361 1360 1657 549 552 1771 2032 2033 1250 1253 1275 1581 1582 1276 1377 1376 117 168 1448 1657 1581 1275 2039 2129 2034 2040 1293 1292 1684 1837 1598 1599 1587 1586 1748 1734 1758 1781 1863 1862 1908 1909 1864 2 1 1865 2013 1924 1973 2014 2195 2178 2179 2151 94 95 45 44 1553 1552 1733 1734 1774 1830 1517 1516 2129 137 0 2034 2179 2166 2069 2068 1775 1774 1516 1793 2103 2032 1253 1377 167 2103 1377 168 1314 397 400 1893 2098 2099 2033 2032 1429 1428 1532 1535 1912 416 714 1449 126 127 128 129 292 293 95 94 1277 1276 1788 1831 297 1878 2008 296 1315 1314 1893 1894 330 1886 1781 364 44 45 46 47 1788 1789 1292 1291 483 484 433 485 2193 2109 2087 2194 1253 1252 1376 1377 1868 1865 1318 1747 2008 2009 1977 1976 1357 1361 1903 1901 1781 1758 183 364 1701 1759 1969 1968 1909 1908 1868 1867 1449 1448 1275 1274 1981 417 420 1595 484 1957 1793 433 420 419 1594 1595 591 590 697 698 1697 1856 2129 2039 1760 1759 1701 1700 648 649 484 483 1773 1829 1830 1774 1292 1789 1681 1684 1789 1582 1756 1681 1643 623 625 1600 1988 1980 1981 1989 284 2054 2055 310 1252 1251 1862 1863 1757 1733 1843 1790 709 710 589 588 1359 1358 1814 1813 1829 1643 1600 1603 2109 94 44 2087 1675 1430 177 350 2150 2151 2152 2153 2169 2206 2165 2178 2087 44 47 1363 1428 1855 1842 1532 1240 1241 293 292 1997 1998 1999 2000 2069 575 491 1313 588 589 590 591 680 1968 1971 649 2178 2165 2166 2179 1149 1148 1241 1240 1867 1868 1747 1748 1949 127 2 1864 2055 2098 2032 2103 1698 1697 2039 2038 1917 2013 2014 1900 2194 2087 1363 1725 1589 1588 1745 1744 714 665 1448 1449 2165 667 576 2166 1911 1912 1449 1274 1900 2014 1826 1647 2054 2041 2098 2055 2040 2034 2035 2099 1813 1814 1507 1506 1980 719 417 1981 1745 1588 1997 2015 1298 1507 1915 1877 1744 1745 1686 1685 1999 2022 1912 1911 1820 1819 1251 1250 24 25 26 27 1819 128 127 1949 331 1885 1886 330 1918 1917 1900 1899 27 26 1317 1318 1968 1969 1970 1971 0 1 2 3 1758 1757 172 183 2030 2000 1941 2029 1977 1899 1650 1832 1300 1299 104 316 681 680 649 648 1976 1977 1832 1675 1793 1516 434 433 1832 1427 1430 1675 1915 1916 1917 1918 1581 1657 1771 1753 1970 1988 1989 2001 351 1976 1675 350 136 24 27 137 1759 1315 1894 1969 178 1429 1535 267 2038 2039 2040 2041 2099 2035 2124 2033 1647 1648 1649 1650 1725 1724 710 709 310 2055 2103 167 1862 1949 1864 1908 591 2193 2194 588 1747 1553 1734 1748 1552 1380 1407 1846 1856 136 137 2129 2151 2179 2068 2152 1410 1803 2206 2169 2009 1918 1899 1977 2010 535 413 2022 1316 1315 1759 1760 698 697 1148 1149 114 1910 1885 331 283 2128 2054 284 1507 1814 1916 1915 1885 1909 1867 1886 1839 1698 2038 2128 1831 1788 1291 1354 1886 1867 1748 1781 1972 2028 1354 1355 1814 1358 1902 1916 2000 1999 1911 1941 1356 1357 1358 1359 1251 1819 1949 1862 1299 1298 1877 1878 1733 1552 1846 1843 2206 386 667 2165 1902 1901 1924 2013 1427 1428 1429 1430 519 1458 2139 485 1971 1970 2001 1957 1924 1923 1972 1973 </p>
</polylist>
<polylist count="1123" material="Material_0_102_153-material">
<input offset="0" semantic="VERTEX" source="#Plane-color-mesh-vertices"/>
<vcount>4 4 4 4 4 4 4 4 4 4 4 4 4 4 4 4 4 4 4 4 4 4 4 4 4 4 4 4 4 4 4 4 4 4 4 4 4 4 4 4 4 4 4 4 4 4 4 4 4 4 4 4 4 4 4 4 4 4 4 4 4 4 4 4 4 4 4 4 4 4 4 4 4 4 4 4 4 4 4 4 4 4 4 4 4 4 4 4 4 4 4 4 4 4 4 4 4 4 4 4 4 4 4 4 4 4 4 4 4 4 4 4 4 4 4 4 4 4 4 4 4 4 4 4 4 4 4 4 4 4 4 4 4 4 4 4 4 4 4 4 4 4 4 4 4 4 4 4 4 4 4 4 4 4 4 4 4 4 4 4 4 4 4 4 4 4 4 4 4 4 4 4 4 4 4 4 4 4 4 4 4 4 4 4 4 4 4 4 4 4 4 4 4 4 4 4 4 4 4 4 4 4 4 4 4 4 4 4 4 4 4 4 4 4 4 4 4 4 4 4 4 4 4 4 4 4 4 4 4 4 4 4 4 4 4 4 4 4 4 4 4 4 4 4 4 4 4 4 4 4 4 4 4 4 4 4 4 4 4 4 4 4 4 4 4 4 4 4 4 4 4 4 4 4 4 4 4 4 4 4 4 4 4 4 4 4 4 4 4 4 4 4 4 4 4 4 4 4 4 4 4 4 4 4 4 4 4 4 4 4 4 4 4 4 4 4 4 4 4 4 4 4 4 4 4 4 4 4 4 4 4 4 4 4 4 4 4 4 4 4 4 4 4 4 4 4 4 4 4 4 4 4 4 4 4 4 4 4 4 4 4 4 4 4 4 4 4 4 4 4 4 4 4 4 4 4 4 4 4 4 4 4 4 4 4 4 4 4 4 4 4 4 4 4 4 4 4 4 4 4 4 4 4 4 4 4 4 4 4 4 4 4 4 4 4 4 4 4 4 4 4 4 4 4 4 4 4 4 4 4 4 4 4 4 4 4 4 4 4 4 4 4 4 4 4 4 4 4 4 4 4 4 4 4 4 4 4 4 4 4 4 4 4 4 4 4 4 4 4 4 4 4 4 4 4 4 4 4 4 4 4 4 4 4 4 4 4 4 4 4 4 4 4 4 4 4 4 4 4 4 4 4 4 4 4 4 4 4 4 4 4 4 4 4 4 4 4 4 4 4 4 4 4 4 4 4 4 4 4 4 4 4 4 4 4 4 4 4 4 4 4 4 4 4 4 4 4 4 4 4 4 4 4 4 4 4 4 4 4 4 4 4 4 4 4 4 4 4 4 4 4 4 4 4 4 4 4 4 4 4 4 4 4 4 4 4 4 4 4 4 4 4 4 4 4 4 4 4 4 4 4 4 4 4 4 4 4 4 4 4 4 4 4 4 4 4 4 4 4 4 4 4 4 4 4 4 4 4 4 4 4 4 4 4 4 4 4 4 4 4 4 4 4 4 4 4 4 4 4 4 4 4 4 4 4 4 4 4 4 4 4 4 4 4 4 4 4 4 4 4 4 4 4 4 4 4 4 4 4 4 4 4 4 4 4 4 4 4 4 4 4 4 4 4 4 4 4 4 4 4 4 4 4 4 4 4 4 4 4 4 4 4 4 4 4 4 4 4 4 4 4 4 4 4 4 4 4 4 4 4 4 4 4 4 4 4 4 4 4 4 4 4 4 4 4 4 4 4 4 4 4 4 4 4 4 4 4 4 4 4 4 4 4 4 4 4 4 4 4 4 4 4 4 4 4 4 4 4 4 4 4 4 4 4 4 4 4 4 4 4 4 4 4 4 4 4 4 4 4 4 4 4 4 4 4 4 4 4 4 4 4 4 4 4 4 4 4 4 4 4 4 4 4 4 4 4 4 4 4 4 4 4 4 4 4 4 4 4 4 4 4 4 4 4 4 4 4 4 4 4 4 4 4 4 4 4 4 4 4 4 4 4 4 4 4 4 4 4 4 4 4 4 4 4 4 4 4 4 4 4 4 4 4 4 4 4 4 4 4 4 4 4 4 4 4 4 4 4 4 4 4 4 4 4 4 4 4 4 4 4 4 4 4 4 4 4 4 4 4 4 4 4 4 4 4 4 4 4 4 4 4 4 4 4 4 4 4 4 4 4 4 4 4 4 4 4 4 4 4 4 4 4 4 4 4 4 4 4 4 4 4 4 4 4 4 4 4 4 4 4 4 4 4 4 4 4 4 4 4 4 4 4 4 4 4 4 4 4 4 4 4 4 4 4 4 4 4 4 4 4 4 4 4 4 4 4 4 4 4 4 4 4 4 4 4 4 4 4 4 4 4 4 4 4 4 4 4 4 4 4 4 4 4 4 4 4 4 4 4 4 4 4 4 4 4 4 4 4 4 4 4 4 4 4 4 4 4 4 4 4 4 4 4 4 4 4 4 4 4 4 4 4 4 4 4 4 4 4 4 4 4 4 4 4 4 4 4 4 4 4 4 4 4 4 4 4 4 4 4 4 4 4 4 4 4 4 4 4 4 4 4 4 4 4 4 4 4 4 4 4 4 4 4 </vcount>
<p>1017 1018 2208 2209 541 542 543 544 1478 1784 581 487 1631 1741 1840 1632 1035 1034 731 730 550 385 388 551 1556 1557 1527 1526 216 282 285 217 539 500 554 516 1157 570 726 725 17 298 339 18 1816 1345 1782 1857 171 340 65 64 1513 1850 1546 1514 1958 348 347 1975 1475 1525 1796 1621 548 547 936 937 1636 1498 1779 1778 262 261 157 156 939 956 985 784 229 323 260 230 1604 1605 1462 1606 814 815 816 817 1717 1716 2215 2214 320 1013 2187 2186 197 198 199 200 580 599 967 966 725 362 2095 2094 1247 1821 1583 1248 676 593 429 677 1126 1127 213 327 818 819 799 798 1030 121 919 1017 1497 1640 1735 1736 1290 1289 1718 1642 2210 301 306 1613 1017 919 974 1018 1811 1854 1935 1929 1483 1659 1672 1484 498 507 622 499 1437 1436 1382 1381 238 186 187 239 1503 1671 1579 1333 55 54 1374 1375 1435 1597 1472 1436 975 976 655 654 675 526 527 585 1651 1574 1487 1524 1364 1365 1366 1367 620 619 565 564 1752 1290 1642 1641 161 243 87 86 694 404 789 1145 2130 2131 2132 2080 861 862 131 130 1346 1347 1348 1349 1561 1836 1808 1562 937 936 1156 1155 932 933 934 935 982 823 872 1092 1039 1040 1041 1042 1524 1487 1490 1525 1576 1426 1715 1577 1656 1343 1345 1816 981 820 823 982 1071 1200 1172 791 1715 1844 1441 1440 644 989 2185 641 755 935 794 756 2104 495 494 2131 1815 1270 1273 1351 1619 1618 2003 2017 1142 932 935 755 581 696 556 582 1232 241 223 1913 579 564 567 708 1347 1720 1723 1348 1369 1368 1765 1805 1321 1322 1323 1324 103 102 1414 1413 401 402 403 404 1036 818 798 1037 1570 1751 1799 1571 947 946 352 329 1613 1614 1615 1616 1476 1475 1621 1620 213 214 4 215 1512 1513 1514 1515 1663 1662 1559 1558 1742 1450 1453 1445 504 910 1482 501 1768 1769 1770 1629 1326 1419 1422 1327 1739 1619 2017 2031 255 85 291 61 1173 389 662 661 1340 1619 1739 1341 1016 814 817 1216 1590 1767 2220 2204 329 352 21 20 1163 1162 1142 1189 566 587 1234 1224 1433 1432 1460 1461 1323 1398 1694 1693 95 2114 2088 45 1283 1503 1333 1267 1463 1729 1714 1464 915 938 939 916 2114 2125 2089 2088 446 445 825 826 1678 1739 2031 1920 626 627 628 595 1328 1327 1539 1785 514 513 563 720 416 415 665 714 813 812 858 857 950 914 917 951 1436 1472 1258 1382 1272 1471 1605 1604 176 255 61 60 159 160 161 162 563 380 1204 1196 201 28 31 202 1054 994 885 1222 914 915 916 917 81 80 777 778 156 157 158 33 438 510 511 412 2092 2093 1805 1806 1470 1575 1578 1776 557 611 612 558 1232 942 242 241 1538 1444 1434 1798 2199 2186 2188 2207 1784 1612 696 581 511 447 450 640 1265 1264 1576 1575 560 576 667 561 83 221 224 84 1783 1711 1420 1419 1879 1880 764 763 1844 1425 1944 1996 174 151 1530 1371 1519 1529 1659 1483 414 541 544 415 1309 1439 1263 1262 1094 1093 818 1036 248 304 305 281 1580 1610 1611 1612 1668 1679 729 646 1880 1870 1206 764 1374 1795 1306 1305 131 204 201 132 948 1097 1098 821 377 378 379 380 67 66 111 110 886 1038 1217 887 913 1086 953 938 221 222 223 224 1432 1693 1696 1460 215 4 7 149 236 189 191 237 169 168 309 277 774 1222 845 775 1257 1256 1284 1786 1320 1319 1470 1344 411 2100 1403 437 1558 1559 1560 1386 1262 1263 1264 1265 586 720 1195 1233 821 1098 1135 822 1710 1635 1636 1711 275 175 1370 1726 724 578 1185 976 323 63 303 260 1319 1265 1575 1470 1400 1702 1673 1401 2204 2220 2212 2205 1450 1451 1452 1453 62 269 138 270 60 61 62 63 2023 2019 1192 1078 475 536 494 493 1740 1573 1574 1651 949 950 951 952 1555 1349 1750 1255 1420 1778 1687 1421 61 291 269 62 638 639 370 369 1807 1269 1477 1664 647 489 599 580 2188 2135 2092 2134 1798 1434 1437 1703 1821 1770 2016 1954 1515 1514 1451 1450 403 669 763 762 859 1020 876 869 439 440 441 442 1764 1710 1711 1783 683 405 408 577 1852 1617 1555 1554 1366 1484 1850 1513 944 945 946 947 253 254 255 176 778 777 236 313 951 917 995 1073 1445 1453 1597 1435 1216 817 1019 1099 1389 1390 1391 1392 85 84 159 291 2159 208 231 855 1244 307 308 2102 1296 1295 1561 1439 1418 1466 1469 1833 937 1155 2146 2036 123 122 302 264 42 281 856 1237 1238 6 5 1869 543 561 385 550 1672 1596 1385 1818 406 609 610 407 556 557 558 559 1019 983 1091 1087 226 329 20 227 287 263 265 288 817 816 983 1019 293 2161 2114 95 1664 1477 486 441 916 939 784 783 1847 1337 2162 2161 1711 1636 1778 1420 259 1232 1913 256 122 35 356 302 1654 1655 1343 1656 972 1007 82 254 1308 1307 1319 1320 1854 1840 1936 1935 2137 2138 1827 1828 1722 1443 1492 1491 1782 1777 1346 1617 2073 2072 1641 1536 1616 1615 1474 1473 78 79 80 81 1155 1156 570 1157 1726 1370 1373 1627 1801 1848 293 1241 344 347 348 342 2112 2196 1791 1761 164 310 167 165 1707 1764 1783 1708 871 1101 1040 1039 189 190 16 191 1761 1543 1545 1762 1447 1680 1702 1400 1029 1028 1078 1055 1932 88 87 1634 1540 1542 1751 1570 2212 2147 2079 2213 1345 1344 1777 1782 504 503 911 910 1127 1131 214 213 633 2216 2189 630 206 207 90 208 1131 1132 333 214 869 876 879 1162 1568 1249 1607 1729 897 790 793 1020 378 1866 1205 379 583 476 584 418 1008 971 253 266 11 10 1071 734 517 555 579 444 445 708 1095 825 1020 793 877 876 2111 2097 2196 2112 2134 2092 1806 1706 1254 1255 1256 1257 1596 1558 1386 1385 917 916 783 995 97 289 290 98 548 937 2036 368 585 527 586 587 2108 2084 1328 1785 622 621 635 618 496 495 718 624 599 598 1129 967 1655 1308 1320 1343 1676 1677 1395 1322 362 361 121 1030 16 17 18 19 2205 2212 2213 2143 1238 1237 349 6 1708 1783 1419 1326 730 731 732 733 96 97 98 99 1979 1876 946 945 1305 1306 1307 1308 1729 1607 1609 1714 1530 1413 1416 1531 562 525 533 532 1162 879 932 1142 872 871 1039 1213 1469 1468 1246 1567 889 1054 1222 774 1501 1705 405 683 1350 1351 1352 1353 1606 1462 1465 1692 1477 1478 487 486 41 248 281 42 1812 1811 1929 1930 1687 1780 1677 1676 132 201 202 203 52 53 54 55 2186 2187 2135 2188 1455 1676 1322 1321 1058 1182 945 944 178 216 217 179 1638 1568 1729 1463 437 438 412 411 2174 2210 1613 1616 208 90 93 231 1055 1078 1192 1056 1485 1486 509 508 207 295 91 90 1490 1489 1365 1364 1419 1420 1421 1422 173 150 151 174 1033 1032 889 737 1975 347 88 1932 1482 1481 502 501 729 1679 1919 701 687 717 568 478 488 582 700 598 1384 1383 594 593 693 401 404 694 1074 1073 716 715 1620 1621 1287 1622 957 958 703 672 757 756 1203 1243 1850 1818 1592 1546 2147 2130 2080 2079 1468 1629 1247 1246 133 132 203 219 2018 1979 945 1182 1375 1374 1305 1737 227 20 23 190 934 1239 912 795 409 689 614 613 1461 1460 1727 1544 2214 2215 2130 2147 1382 1258 1261 1383 450 1194 1965 521 735 734 790 897 1695 1551 1500 1499 29 176 60 30 1787 1266 1269 1807 1692 1465 602 627 797 796 915 914 955 1036 1037 984 1870 1871 1164 1206 256 257 258 259 354 130 133 218 783 784 393 468 1065 1047 207 206 1719 339 298 1859 1372 1531 1630 1393 87 55 1375 1634 933 965 1239 934 367 520 523 547 587 586 1233 1234 600 699 1481 1482 1393 1630 1633 1802 991 271 274 1566 1661 1802 1446 1662 1572 1571 1496 1495 1786 1284 1266 1787 1841 1812 1930 1934 965 1016 1216 1239 692 693 694 695 1597 1350 1353 1472 595 628 650 596 145 144 1147 883 170 171 64 172 91 218 220 92 304 2159 855 305 1391 1713 1635 1710 418 584 623 419 175 174 1371 1370 1311 1418 1833 1312 1796 1364 1367 1288 1086 1087 954 953 910 439 600 1482 964 1015 1016 965 1056 1192 1182 1058 1392 1391 1710 1764 615 446 826 1151 1853 718 495 2104 43 42 1237 1238 1770 1769 1933 2016 896 861 130 354 2202 2086 1703 1704 596 650 506 505 2102 308 236 777 191 16 19 353 1213 1039 1042 819 1565 273 272 992 64 65 66 67 2119 2174 1616 1473 1434 1435 1436 1437 1802 1633 1447 1446 884 883 1053 1032 410 409 613 642 542 560 561 543 558 612 402 401 204 205 28 201 218 133 219 220 1566 1565 347 344 1913 223 222 1229 53 237 332 54 1289 1512 1515 1718 1284 1283 1267 1266 765 764 1206 1138 1147 1035 730 993 1158 1126 2225 2224 1344 1470 1776 1777 1269 1268 1478 1477 1571 1799 1639 1496 1644 1794 1699 1645 1674 1841 1769 1768 1312 1833 1637 1471 2161 2162 2125 2114 1673 1812 1841 1674 642 613 616 643 513 377 380 563 1721 1440 1443 1722 1031 884 1032 1033 609 540 515 610 877 1215 964 878 2160 383 382 1130 180 179 194 193 415 544 549 665 385 386 387 388 533 421 424 512 1353 1352 1644 1259 689 518 443 614 646 729 701 611 1573 1329 1332 1574 1018 1173 2200 2208 1371 1530 1531 1372 289 232 235 290 1499 1500 1501 1502 1438 1296 1439 1309 56 57 58 59 860 859 869 870 862 905 204 131 2215 2104 2131 2130 593 594 430 429 268 321 282 216 422 647 580 423 10 278 1200 1071 858 897 1020 859 935 934 795 794 1243 1203 950 949 1331 1556 1526 1518 795 912 913 796 790 791 792 793 688 597 452 451 79 2102 777 80 602 603 477 604 1723 1722 1491 1743 440 1931 1664 441 252 251 1034 1035 1492 1591 1618 1493 183 172 184 185 1544 1727 1485 1688 209 15 275 210 1670 1494 1339 1671 228 227 190 189 1388 1387 1311 1310 502 1481 911 503 2126 2205 2143 2127 407 610 689 409 756 794 797 1203 1322 1395 1398 1323 1495 1496 1497 1498 1129 1130 382 381 696 645 557 556 527 514 720 586 449 724 976 975 1007 1169 83 82 1491 1492 1493 1494 210 275 1726 1521 1660 1661 1662 1663 4 5 6 7 1263 1562 1423 1264 1741 1415 1940 1974 1266 1267 1268 1269 1200 1031 1033 1172 531 530 699 600 1244 1230 225 307 1270 1271 1272 1273 99 98 1817 1653 1872 1873 1874 1875 816 981 982 983 554 617 620 555 549 550 551 552 1574 1332 1488 1487 1518 1526 1529 1519 2094 2095 2096 2097 1421 1687 1676 1455 1591 1442 1951 2002 823 822 871 872 417 418 419 420 651 432 631 630 578 410 642 641 1746 1604 1606 1794 879 878 933 932 614 443 446 615 320 319 358 1013 1138 1206 1164 1139 692 2160 1130 700 564 565 566 567 271 272 273 274 2203 2204 2205 2126 1833 1469 1567 1637 172 64 67 184 2050 2051 1538 1798 265 264 1573 1740 792 736 739 1215 1451 1547 1815 1452 529 1905 1967 530 1325 1326 1327 1328 1373 1372 1393 1394 971 972 254 253 1306 1309 1262 1307 799 957 672 671 1267 1333 1334 1268 277 309 343 278 1310 1311 1312 1271 1848 1847 2161 293 1805 1765 1766 1806 350 177 180 351 315 145 883 884 655 686 606 605 699 1995 1931 440 1849 1384 593 676 1279 1801 1241 1148 1099 1019 1087 1086 1769 1841 1934 1933 269 162 139 138 1806 1766 1707 1706 92 220 56 186 349 326 232 289 330 185 240 331 762 763 764 765 956 955 984 985 202 31 229 198 235 234 1540 1541 1585 1584 1804 1608 1203 797 914 950 1583 1821 1954 1955 1194 721 711 1965 1018 974 389 1173 1514 1546 1547 1451 1417 1520 1466 1418 1333 1579 1580 1334 1567 1246 1249 1568 1762 1545 1404 1403 450 449 975 1194 798 799 671 374 878 964 965 933 2218 299 301 2210 299 300 287 301 1736 1735 1624 1623 362 1030 2148 2095 510 508 447 511 1327 1422 1454 1539 1629 1770 1821 1247 186 56 59 187 910 911 440 439 794 795 796 797 943 948 821 820 643 616 1102 990 1728 1499 1502 1486 54 332 1795 1374 1329 1330 1331 1332 1467 1768 1629 1468 1349 1348 1749 1750 1462 1463 1464 1465 597 381 384 452 883 1147 993 1053 677 429 432 651 306 288 1614 1613 1546 1592 1593 1547 1415 1414 1939 1940 1496 1639 1640 1497 1365 1483 1484 1366 1343 1320 1344 1345 521 1965 1168 522 224 223 241 160 1630 1631 1632 1633 532 533 512 526 509 652 653 448 177 178 179 180 66 590 589 111 776 775 815 814 1397 1564 1549 1548 574 575 576 560 719 583 418 417 1352 1746 1794 1644 876 877 878 879 65 697 590 66 343 315 884 1031 18 339 1719 1295 976 1185 686 655 1653 1817 1390 1389 2185 606 686 1185 89 991 1566 344 1626 1625 1563 1396 1486 1502 652 509 1173 661 2199 2200 1048 896 354 295 1677 1626 1396 1395 211 210 1521 1522 1525 1490 1364 1796 912 1099 1086 913 1443 1442 1591 1492 254 82 85 255 1030 1017 2209 2148 822 1135 1101 871 160 241 243 161 1231 947 329 226 1810 1431 1433 1792 1439 1561 1562 1263 540 539 516 515 567 566 1224 1176 2019 2018 1182 1192 994 733 886 885 991 992 272 271 1679 1678 1920 1919 1498 1497 1736 1779 1395 1396 1397 1398 1093 1213 819 818 653 577 578 724 870 869 1162 1163 185 184 181 240 888 887 948 943 1452 1815 1351 1350 2101 48 51 1369 508 509 448 447 1876 21 352 946 784 985 394 393 1330 1522 1556 1331 1709 1708 1326 1325 1013 1158 2224 2187 1386 1560 1417 1387 1307 1262 1265 1319 528 529 530 531 938 953 956 939 448 653 724 449 1531 1416 1631 1630 738 774 775 776 1766 1392 1764 1707 219 203 197 57 1750 1749 1669 1282 1440 1441 1442 1443 1047 1048 295 207 1778 1779 1780 1687 444 579 708 445 1215 739 1015 964 733 732 1038 886 1539 1454 1456 1809 1694 1548 1551 1695 846 943 820 981 1414 102 101 1939 1256 1282 1283 1284 1287 1288 1289 1290 1370 1371 1372 1373 1612 1611 645 696 775 845 846 815 885 886 887 888 214 333 5 4 1641 1642 1537 1536 525 462 421 533 1332 1331 1518 1488 100 101 102 103 405 1705 2216 633 259 258 942 1232 1545 1544 1688 1404 644 643 990 989 1324 1323 1693 1432 685 1804 1905 529 1792 1433 1461 1543 1627 1373 1394 1628 1264 1423 1426 1576 1637 1567 1568 1638 1015 776 814 1016 1706 1707 1708 1709 476 475 493 584 633 632 406 405 1659 1658 1596 1672 1489 1519 1483 1365 1460 1696 1728 1727 462 442 422 421 1527 1628 1660 1528 2164 2094 2097 2111 1543 1461 1544 1545 630 631 632 633 493 494 495 496 290 235 1541 1851 1522 1521 1557 1556 1500 1763 1705 1501 49 96 99 50 2222 2134 1706 1709 230 260 261 262 677 2201 1849 676 1634 1375 1737 1738 14 173 174 175 512 424 513 514 35 34 211 356 618 635 675 619 1013 358 1144 1158 1053 993 994 1054 530 1967 1995 699 486 487 488 489 288 265 1740 1614 1791 1792 1543 1761 1271 1312 1471 1272 2031 2017 1966 1956 2093 2101 1369 1805 636 638 369 637 1139 1164 1165 1166 639 626 595 370 1394 1393 1802 1661 613 614 615 616 721 654 656 711 1749 1743 1670 1669 820 821 822 823 1537 1742 1445 1444 1441 1844 1996 1950 1871 1928 1165 1164 1765 1389 1392 1766 1738 1737 1655 1654 621 562 532 635 984 1037 373 670 1383 1261 636 594 162 161 86 139 28 29 30 31 1248 1583 1584 1585 641 642 643 644 2131 494 536 2132 1422 1421 1455 1454 2196 2137 1828 1791 340 1280 697 65 1073 995 467 716 1239 1216 1099 912 1608 1804 685 684 1398 1397 1548 1694 1472 1353 1259 1258 351 180 193 296 1851 1541 1569 1712 98 290 1851 1817 1817 1851 1712 1390 342 348 101 100 1628 1394 1661 1660 1351 1273 1746 1352 1431 1324 1432 1433 1423 1424 1425 1426 1557 1627 1628 1527 1669 1670 1671 1503 76 314 735 812 1189 1142 755 754 555 620 564 579 2175 2120 1476 1620 1466 1467 1468 1469 1818 1385 1388 1592 15 14 175 275 1642 1718 1742 1537 2084 2085 1325 1328 302 356 1330 1329 82 83 84 85 661 320 2186 2199 1593 1310 1271 1270 1261 1260 638 636 308 228 189 236 1487 1488 1489 1490 1424 1808 1873 1872 1172 1033 737 736 233 238 239 234 356 211 1522 1330 413 414 415 416 144 252 1035 1147 1126 327 328 2225 619 675 585 565 1615 1651 1524 1474 2191 341 311 2192 635 532 526 675 1032 1053 1054 889 736 737 738 739 640 450 521 520 2217 2176 1622 1752 1712 1569 1572 1713 1494 1493 1340 1339 34 209 210 211 516 554 555 517 380 379 1205 1204 1875 1874 2018 2019 1617 1346 1349 1555 1336 1590 2204 2203 313 236 237 53 43 1238 1869 40 307 225 228 308 737 889 774 738 734 1071 791 790 33 158 209 34 857 858 859 860 580 966 1866 378 1401 1673 1674 1523 1632 1840 1854 1680 1249 1248 1585 1607 501 502 503 504 819 1042 957 799 1779 1736 1623 1780 1260 1645 639 638 217 285 164 163 1611 1668 646 645 616 615 1151 1102 1776 1578 1720 1347 1622 1287 1290 1752 1158 1144 1127 1126 151 103 1413 1530 321 322 283 282 1453 1452 1350 1597 368 367 547 548 754 755 756 757 243 52 55 87 2085 2222 1709 1325 487 581 582 488 1465 1464 603 602 408 407 409 410 234 239 1542 1540 641 2185 1185 578 1578 1577 1721 1720 1671 1339 1342 1579 149 7 96 49 1667 1678 1679 1668 341 286 312 311 1716 1853 2104 2215 627 602 604 628 1157 725 2094 2164 1413 1414 1415 1416 353 19 1296 1438 610 515 518 689 1939 101 348 1958 1928 1927 852 1165 423 580 378 377 30 60 63 323 285 284 310 164 314 11 734 735 441 486 489 647 1542 239 341 2191 952 951 1073 1074 1493 1618 1619 1340 1454 1455 1321 1456 231 93 238 233 793 792 1215 877 424 423 377 513 1342 1341 1667 1610 31 30 323 229 1714 1609 717 687 1403 1404 438 437 954 1094 1036 955 1169 1170 221 83 1704 1381 1384 1849 1166 1165 852 851 1795 1438 1309 1306 561 667 386 385 2012 2023 1078 1028 1777 1776 1347 1346 366 640 520 367 327 213 215 328 1402 1401 1523 1520 443 444 445 446 617 618 619 620 1273 1272 1604 1746 651 2190 2201 677 130 131 132 133 505 506 507 498 668 1879 763 669 1237 856 326 349 2125 2126 2127 2089 1258 1259 1260 1261 412 511 640 366 150 100 103 151 1743 1491 1494 1670 77 76 812 813 264 302 1329 1573 1348 1723 1743 1749 594 636 637 430 1548 1549 1550 1551 237 191 353 332 1828 1810 1792 1791 1404 1688 510 438 1869 5 333 1132 301 287 288 306 364 183 185 330 86 87 88 89 1605 1638 1463 1462 1780 1623 1626 1677 1416 1415 1741 1631 905 904 205 204 267 268 216 178 258 81 778 942 1042 1041 958 957 2138 2108 1785 1827 332 353 1438 1795 381 382 383 384 2192 311 299 2218 499 622 618 617 1536 1537 1444 1538 2100 2113 1762 1403 40 41 42 43 1339 1340 1341 1342 1037 798 374 373 967 1129 381 597 274 273 1565 1566 395 490 491 492 1569 1570 1571 1572 1295 1719 1836 1561 241 242 52 243 720 563 1196 1195 282 283 284 285 1246 1247 1248 1249 266 253 176 29 523 522 1168 1167 652 683 577 653 2072 2217 1752 1641 89 88 992 991 1737 1305 1308 1655 257 78 81 258 6 349 289 97 577 408 410 578 421 422 423 424 1703 1437 1381 1704 190 23 17 16 394 670 490 395 630 2189 2190 651 295 354 218 91 500 499 617 554 1387 1417 1418 1311 515 516 517 518 2201 2202 1704 1849 1680 1854 1811 1702 1804 1584 1904 1905 492 491 575 574 1577 1715 1440 1721 700 559 693 692 239 187 286 341 1280 1279 1148 697 966 967 597 688 739 738 776 1015 1155 1157 2164 2146 1091 1092 1093 1094 1385 1386 1387 1388 1560 1402 1520 1417 856 855 231 326 225 226 227 228 904 1008 266 205 1702 1811 1812 1673 50 99 1653 1368 1547 1593 1270 1815 1562 1808 1424 1423 1471 1637 1638 1605 84 224 160 159 326 231 233 232 1390 1712 1713 1391 1827 1809 1810 1828 232 233 234 235 1592 1388 1310 1593 1696 1695 1499 1728 623 496 624 625 791 1172 736 792 1658 1663 1558 1596 1699 1692 627 626 1693 1694 1695 1696 1718 1515 1450 1742 1662 1446 1399 1559 7 6 97 96 717 684 528 568 184 67 110 181 1502 1501 683 652 1368 1653 1389 1765 1809 1456 1431 1810 1194 975 654 721 983 982 1092 1091 1426 1425 1844 1715 695 694 1145 1146 812 735 897 858 198 229 230 199 1529 1528 1658 1659 2097 2096 2137 2196 1541 1540 1570 1569 1268 1334 1784 1478 1474 1524 1525 1475 845 888 943 846 93 92 186 238 1523 1674 1768 1467 1526 1527 1528 1529 1334 1580 1612 1784 654 655 605 656 1481 699 440 911 1442 1441 1950 1951 953 954 955 956 1621 1796 1288 1287 1484 1672 1818 1850 1785 1539 1809 1827 1456 1321 1324 1431 1170 1229 222 221 695 1146 2160 692 584 493 496 623 1288 1367 1512 1289 1610 1667 1668 1611 1087 1091 1094 954 57 197 200 58 220 219 57 56 165 167 168 169 1092 872 1213 1093 63 62 270 303 1609 1608 684 717 1584 1583 1955 1904 489 488 598 599 1633 1632 1680 1447 2220 2214 2147 2212 1528 1660 1663 1658 559 558 401 693 645 646 611 557 2113 2112 1761 1762 1727 1728 1486 1485 1399 1400 1401 1402 1607 1585 1608 1609 90 91 92 93 1579 1342 1610 1580 311 312 300 299 1551 1550 1763 1500 603 687 478 477 547 523 1167 936 1575 1576 1577 1578 1367 1366 1513 1512 263 123 264 265 1488 1518 1519 1489 993 730 733 994 598 700 1130 1129 402 668 669 403 1840 1741 1974 1936 19 18 1295 1296 51 50 1368 1369 526 512 514 527 48 49 50 51 1559 1399 1402 1560 1720 1721 1722 1723 520 521 522 523 2176 2175 1620 1622 347 1565 992 88 796 913 938 915 1521 1726 1627 1557 278 343 1031 1200 1230 1231 226 225 1425 1424 1872 1944 2162 2203 2126 2125 2120 2119 1473 1476 1635 1495 1498 1636 966 688 451 1866 442 441 647 422 708 567 1176 1095 1473 1474 1475 1476 1341 1739 1678 1667 2086 2050 1798 1703 518 517 444 443 1222 885 888 845 281 305 855 856 2207 2188 2134 2222 1520 1523 1467 1466 1396 1563 1564 1397 1623 1624 1625 1626 887 1217 1097 948 544 543 550 549 1618 1591 2002 2003 1614 1740 1651 1615 1065 206 208 2159 1444 1445 1435 1434 995 783 468 467 1259 1644 1645 1260 1836 1719 1859 1858 2051 2073 1536 1538 1794 1606 1692 1699 242 313 53 52 404 403 762 789 1464 1714 687 603 815 846 981 816 1808 1836 1858 1873 1956 1966 1871 1870 1282 1669 1503 1283 1767 1717 2214 2220 582 556 559 700 985 984 670 394 1688 1485 508 510 205 266 29 28 1713 1572 1495 1635 1645 1699 626 639 405 406 407 408 1337 1336 2203 2162 1857 1782 1617 1852 942 778 313 242 447 448 449 450 203 202 198 197 1554 1555 1255 1254 179 217 163 194 1446 1447 1400 1399 1381 1382 1383 1384 1255 1750 1282 1256 565 585 587 566 291 159 162 269 684 685 529 528 </p>
</polylist>
<polylist count="14" material="Material_255_153_51-material">
<input offset="0" semantic="VERTEX" source="#Plane-color-mesh-vertices"/>
<vcount>4 4 4 4 4 4 4 4 4 4 4 4 4 4 </vcount>
<p>365 366 367 368 2036 2146 2110 2037 2225 328 148 2133 1860 22 21 1876 20 21 22 23 23 22 298 17 328 215 149 148 1859 298 22 1860 2224 2225 2133 2136 702 1922 1879 668 368 2036 2037 365 701 1919 1922 702 612 702 668 402 611 701 702 612 </p>
</polylist>
<polylist count="8" material="Material_238_0_0-material">
<input offset="0" semantic="VERTEX" source="#Plane-color-mesh-vertices"/>
<vcount>4 4 4 4 4 4 4 4 </vcount>
<p>2136 2133 2101 2093 2037 2110 2113 2100 411 412 366 365 365 2037 2100 411 2135 2136 2093 2092 148 149 49 48 2110 2111 2112 2113 2133 148 48 2101 </p>
</polylist>
</mesh>
</geometry>
</library_geometries>
<library_visual_scenes>
<visual_scene id="Scene" name="Scene">
<node id="PlaneCOL" name="PlaneCOL" type="NODE">
<translate sid="location">0 0 0</translate>
<rotate sid="rotationZ">0 0 1 0</rotate>
<rotate sid="rotationY">0 1 0 0</rotate>
<rotate sid="rotationX">1 0 0 0</rotate>
<scale sid="scale">0.05 0.05 0.05</scale>
<instance_geometry url="#Plane-color-mesh">
<bind_material>
<technique_common>
<instance_material symbol="Material_255_204_153-material" target="#Material_255_204_153-material"/>
<instance_material symbol="Material_255_255_255-material" target="#Material_255_255_255-material"/>
<instance_material symbol="Material_187_187_187-material" target="#Material_187_187_187-material"/>
<instance_material symbol="Material_0_102_153-material" target="#Material_0_102_153-material"/>
<instance_material symbol="Material_34_34_34-material" target="#Material_34_34_34-material"/>
<instance_material symbol="Material_255_153_51-material" target="#Material_255_153_51-material"/>
<instance_material symbol="Material_51_51_51-material" target="#Material_51_51_51-material"/>
<instance_material symbol="Material_238_0_0-material" target="#Material_238_0_0-material"/>
<instance_material symbol="Material_68_68_68-material" target="#Material_68_68_68-material"/>
</technique_common>
</bind_material>
</instance_geometry>
</node>
</visual_scene>
</library_visual_scenes>
<scene>
<instance_visual_scene url="#Scene"/>
</scene>
</COLLADA>
