<?xml version="1.0" encoding="UTF-8"?><COLLADA xmlns="http://www.collada.org/2005/11/COLLADASchema" version="1.4.1">
<asset>
<contributor>
<author>PS4k User</author>
<authoring_tool>1.5.02</authoring_tool>
</contributor>
<created>2016-03-02T21:32:14</created>
<modified>2016-03-02T21:32:14</modified>
<unit meter="1" name="meter"/>
<up_axis>Z_UP</up_axis>
</asset>
<library_effects>
<effect id="Material_221_221_221-effect">
<profile_COMMON>
<technique sid="common">
<lambert>
<emission>
<color sid="emission">0 0 0 1</color>
</emission>
<ambient>
<color sid="ambient">0 0 0 1</color>
</ambient>
<diffuse>
<color sid="diffuse">0.8666667 0.8666667 0.8666667 1</color>
</diffuse>
<index_of_refraction>
<float sid="index_of_refraction">1</float>
</index_of_refraction>
</lambert>
</technique>
</profile_COMMON>
</effect>
<effect id="Material_153_0_0-effect">
<profile_COMMON>
<technique sid="common">
<lambert>
<emission>
<color sid="emission">0 0 0 1</color>
</emission>
<ambient>
<color sid="ambient">0 0 0 1</color>
</ambient>
<diffuse>
<color sid="diffuse">0.6 0.0 0.0 1</color>
</diffuse>
<index_of_refraction>
<float sid="index_of_refraction">1</float>
</index_of_refraction>
</lambert>
</technique>
</profile_COMMON>
</effect>
<effect id="Material_255_255_255-effect">
<profile_COMMON>
<technique sid="common">
<lambert>
<emission>
<color sid="emission">0 0 0 1</color>
</emission>
<ambient>
<color sid="ambient">0 0 0 1</color>
</ambient>
<diffuse>
<color sid="diffuse">1.0 1.0 1.0 1</color>
</diffuse>
<index_of_refraction>
<float sid="index_of_refraction">1</float>
</index_of_refraction>
</lambert>
</technique>
</profile_COMMON>
</effect>
<effect id="Material_187_187_187-effect">
<profile_COMMON>
<technique sid="common">
<lambert>
<emission>
<color sid="emission">0 0 0 1</color>
</emission>
<ambient>
<color sid="ambient">0 0 0 1</color>
</ambient>
<diffuse>
<color sid="diffuse">0.73333335 0.73333335 0.73333335 1</color>
</diffuse>
<index_of_refraction>
<float sid="index_of_refraction">1</float>
</index_of_refraction>
</lambert>
</technique>
</profile_COMMON>
</effect>
<effect id="Material_51_102_51-effect">
<profile_COMMON>
<technique sid="common">
<lambert>
<emission>
<color sid="emission">0 0 0 1</color>
</emission>
<ambient>
<color sid="ambient">0 0 0 1</color>
</ambient>
<diffuse>
<color sid="diffuse">0.2 0.4 0.2 1</color>
</diffuse>
<index_of_refraction>
<float sid="index_of_refraction">1</float>
</index_of_refraction>
</lambert>
</technique>
</profile_COMMON>
</effect>
<effect id="Material_34_34_34-effect">
<profile_COMMON>
<technique sid="common">
<lambert>
<emission>
<color sid="emission">0 0 0 1</color>
</emission>
<ambient>
<color sid="ambient">0 0 0 1</color>
</ambient>
<diffuse>
<color sid="diffuse">0.13333334 0.13333334 0.13333334 1</color>
</diffuse>
<index_of_refraction>
<float sid="index_of_refraction">1</float>
</index_of_refraction>
</lambert>
</technique>
</profile_COMMON>
</effect>
<effect id="Material_102_102_102-effect">
<profile_COMMON>
<technique sid="common">
<lambert>
<emission>
<color sid="emission">0 0 0 1</color>
</emission>
<ambient>
<color sid="ambient">0 0 0 1</color>
</ambient>
<diffuse>
<color sid="diffuse">0.4 0.4 0.4 1</color>
</diffuse>
<index_of_refraction>
<float sid="index_of_refraction">1</float>
</index_of_refraction>
</lambert>
</technique>
</profile_COMMON>
</effect>
<effect id="Material_255_153_51-effect">
<profile_COMMON>
<technique sid="common">
<lambert>
<emission>
<color sid="emission">0 0 0 1</color>
</emission>
<ambient>
<color sid="ambient">0 0 0 1</color>
</ambient>
<diffuse>
<color sid="diffuse">1.0 0.6 0.2 1</color>
</diffuse>
<index_of_refraction>
<float sid="index_of_refraction">1</float>
</index_of_refraction>
</lambert>
</technique>
</profile_COMMON>
</effect>
<effect id="Material_51_51_51-effect">
<profile_COMMON>
<technique sid="common">
<lambert>
<emission>
<color sid="emission">0 0 0 1</color>
</emission>
<ambient>
<color sid="ambient">0 0 0 1</color>
</ambient>
<diffuse>
<color sid="diffuse">0.2 0.2 0.2 1</color>
</diffuse>
<index_of_refraction>
<float sid="index_of_refraction">1</float>
</index_of_refraction>
</lambert>
</technique>
</profile_COMMON>
</effect>
<effect id="Material_238_0_0-effect">
<profile_COMMON>
<technique sid="common">
<lambert>
<emission>
<color sid="emission">0 0 0 1</color>
</emission>
<ambient>
<color sid="ambient">0 0 0 1</color>
</ambient>
<diffuse>
<color sid="diffuse">0.93333334 0.0 0.0 1</color>
</diffuse>
<index_of_refraction>
<float sid="index_of_refraction">1</float>
</index_of_refraction>
</lambert>
</technique>
</profile_COMMON>
</effect>
<effect id="Material_170_170_170-effect">
<profile_COMMON>
<technique sid="common">
<lambert>
<emission>
<color sid="emission">0 0 0 1</color>
</emission>
<ambient>
<color sid="ambient">0 0 0 1</color>
</ambient>
<diffuse>
<color sid="diffuse">0.6666667 0.6666667 0.6666667 1</color>
</diffuse>
<index_of_refraction>
<float sid="index_of_refraction">1</float>
</index_of_refraction>
</lambert>
</technique>
</profile_COMMON>
</effect>
<effect id="Material_68_68_68-effect">
<profile_COMMON>
<technique sid="common">
<lambert>
<emission>
<color sid="emission">0 0 0 1</color>
</emission>
<ambient>
<color sid="ambient">0 0 0 1</color>
</ambient>
<diffuse>
<color sid="diffuse">0.26666668 0.26666668 0.26666668 1</color>
</diffuse>
<index_of_refraction>
<float sid="index_of_refraction">1</float>
</index_of_refraction>
</lambert>
</technique>
</profile_COMMON>
</effect>
</library_effects>
<library_materials>
<material id="Material_221_221_221-material" name="Material_221_221_221">
<instance_effect url="#Material_221_221_221-effect"/>
</material>
<material id="Material_153_0_0-material" name="Material_153_0_0">
<instance_effect url="#Material_153_0_0-effect"/>
</material>
<material id="Material_255_255_255-material" name="Material_255_255_255">
<instance_effect url="#Material_255_255_255-effect"/>
</material>
<material id="Material_187_187_187-material" name="Material_187_187_187">
<instance_effect url="#Material_187_187_187-effect"/>
</material>
<material id="Material_51_102_51-material" name="Material_51_102_51">
<instance_effect url="#Material_51_102_51-effect"/>
</material>
<material id="Material_34_34_34-material" name="Material_34_34_34">
<instance_effect url="#Material_34_34_34-effect"/>
</material>
<material id="Material_102_102_102-material" name="Material_102_102_102">
<instance_effect url="#Material_102_102_102-effect"/>
</material>
<material id="Material_255_153_51-material" name="Material_255_153_51">
<instance_effect url="#Material_255_153_51-effect"/>
</material>
<material id="Material_51_51_51-material" name="Material_51_51_51">
<instance_effect url="#Material_51_51_51-effect"/>
</material>
<material id="Material_238_0_0-material" name="Material_238_0_0">
<instance_effect url="#Material_238_0_0-effect"/>
</material>
<material id="Material_170_170_170-material" name="Material_170_170_170">
<instance_effect url="#Material_170_170_170-effect"/>
</material>
<material id="Material_68_68_68-material" name="Material_68_68_68">
<instance_effect url="#Material_68_68_68-effect"/>
</material>
</library_materials>
<library_geometries>
<geometry id="Plane-color-mesh" name="Plane-color">
<mesh>
<source id="Plane-color-mesh-positions">
<float_array count="8160" id="Plane-color-mesh-positions-array">11 -3 19 11 -5 19 11 -5 21 11 -3 21 11 -7 21 11 -7 23 11 -5 23 9 -13 9 9 -15 9 9 -15 11 9 -13 11 -13 3 3 -13 1 3 -13 1 5 -13 3 5 -13 -17 5 -13 -19 5 -13 -19 7 -13 -17 7 -13 17 9 -13 15 9 -13 15 11 -13 17 11 7 17 9 7 15 9 7 15 11 7 17 11 11 -3 17 11 -5 17 -13 -15 5 -13 -15 7 -13 19 11 -13 17 13 -13 19 13 -13 15 -1 -13 13 -1 -13 13 1 -13 15 1 9 -13 5 9 -15 5 9 -15 7 9 -13 7 -13 21 7 -13 19 7 -13 19 9 -13 21 9 -11 11 1 -11 9 1 -11 9 3 -11 11 3 -13 15 13 -13 13 13 -13 13 15 -13 15 15 -11 13 3 -11 11 5 -11 13 5 -9 7 3 -9 5 3 -9 5 5 -9 7 5 -11 15 3 -11 15 5 11 -9 21 11 -9 23 -13 -27 7 -13 -29 7 -13 -29 9 -13 -27 9 -7 31 3 -7 29 3 -7 29 5 -7 31 5 -13 -1 11 -13 -3 11 -13 -3 13 -13 -1 13 -13 -7 7 -13 -9 7 -13 -9 9 -13 -7 9 -13 25 9 -13 23 9 -13 23 11 -13 25 11 11 -11 15 11 -13 15 11 -13 17 11 -11 17 -13 29 9 -13 27 9 -13 27 11 -13 29 11 -13 -3 21 -13 -5 21 -13 -5 23 -13 -3 23 -13 -11 3 -13 -13 3 -13 -13 5 -13 -11 5 -11 -39 3 -11 -41 3 -11 -41 5 -11 -39 5 -13 -5 9 -13 -7 11 -13 -5 11 -13 -15 11 -13 -17 11 -13 -17 13 -13 -15 13 -13 -37 7 -13 -39 7 -13 -39 9 -13 -37 9 -13 -5 13 -11 -27 3 -11 -29 3 -11 -29 5 -11 -27 5 11 9 13 11 7 13 11 7 15 11 9 15 9 15 -1 9 13 -1 9 13 1 9 15 1 -13 1 13 -13 -1 15 -13 1 15 -13 5 13 -13 3 13 -13 3 15 -13 5 15 -13 23 7 -13 25 7 -9 9 7 -9 7 7 -9 7 9 -9 9 9 -13 27 7 -11 9 5 -11 9 7 -11 11 7 -13 -27 -1 -13 -29 -1 -13 -29 1 -13 -27 1 -13 27 5 -13 25 5 1 -3 11 1 -5 11 1 -5 13 1 -3 13 11 -7 15 11 -9 15 11 -9 17 11 -7 17 -13 -19 9 -13 -21 9 -13 -21 11 -13 -19 11 -13 9 3 -13 7 3 -13 7 5 -13 9 5 -13 5 3 -13 5 5 11 3 9 11 1 9 11 1 11 11 3 11 -3 31 1 -3 29 1 -3 29 3 -3 31 3 11 21 11 11 19 11 11 19 13 11 21 13 -13 -37 3 -13 -39 3 -13 -39 5 -13 -37 5 11 -11 19 11 -13 19 11 -13 21 11 -11 21 9 -7 7 9 -9 7 9 -9 9 9 -7 9 -13 17 15 -13 19 15 -13 -9 13 -13 -11 13 -13 -11 15 -13 -9 15 -13 -1 9 -13 -3 9 -11 19 5 -11 17 5 -11 17 7 -11 19 7 -13 -23 11 -13 -23 13 -13 -21 13 -13 -7 3 -13 -9 3 -13 -9 5 -13 -7 5 -13 -25 11 -13 -25 13 -13 -35 9 -13 -37 11 -13 -35 11 7 15 7 7 13 7 7 13 9 11 5 13 11 5 15 9 -9 11 9 -11 11 9 -11 13 9 -9 13 -11 -19 15 -11 -21 15 -11 -21 17 -11 -19 17 -9 13 9 -9 11 9 -9 11 11 -9 13 11 -13 17 5 -13 15 5 -13 15 7 -13 17 7 11 31 3 11 29 3 11 29 5 11 31 5 -9 -27 9 -9 -29 9 -9 -29 11 -9 -27 11 11 11 13 11 11 15 9 -29 1 9 -31 1 9 -31 3 9 -29 3 -13 -11 7 -13 1 7 -13 3 7 -13 -17 9 -13 -39 11 -13 -39 13 -13 -37 13 1 -3 7 1 -5 7 1 -5 9 1 -3 9 -13 -11 9 -13 -29 3 -13 -31 3 -13 -31 5 -13 -29 5 -13 23 5 -13 1 9 -13 3 9 11 15 13 11 13 13 11 13 15 11 15 15 -13 -11 11 -13 -13 11 -13 -13 13 -13 -11 17 -13 -13 17 -13 -13 19 -13 -11 19 -13 -7 23 -13 -7 25 -13 -5 25 11 -7 19 11 -9 19 -13 -25 15 -13 -23 15 1 -3 5 1 -5 5 9 -9 5 9 -11 5 9 -11 7 11 5 11 11 3 13 -13 -17 17 -13 -19 17 -13 -19 19 -13 -17 19 -13 -1 17 -13 -3 17 -13 -3 19 -13 -1 19 11 -11 23 -13 29 13 -13 27 13 -13 27 15 -13 29 15 9 -23 1 9 -25 1 9 -25 3 9 -23 3 -11 -25 1 -11 -27 1 -11 -25 3 -13 1 11 11 25 9 11 23 9 11 23 11 11 25 11 -9 -39 9 -9 -41 9 -9 -41 11 -9 -39 11 -9 -31 3 -9 -33 3 -9 -33 5 -9 -31 5 -13 21 5 -13 -5 19 -11 -23 1 -11 -23 3 -19 -15 17 -19 -17 17 -19 -17 19 -19 -15 19 11 17 13 11 17 15 11 -15 15 11 -15 17 -13 -7 13 -13 -7 15 -11 -29 7 -11 -27 7 11 3 15 -13 -5 7 -11 -25 5 -11 -25 7 -13 21 13 -13 21 15 7 7 7 7 5 7 7 5 9 7 7 9 -13 -7 19 -13 -7 21 -9 9 11 -13 17 1 -13 15 3 -13 17 3 -9 5 7 -9 17 7 -9 15 7 -9 15 9 -9 17 9 -13 -1 7 11 23 13 11 25 13 -13 23 13 -13 23 15 -11 -23 5 9 17 1 9 15 3 9 17 3 -11 -29 1 11 -15 21 11 -17 21 11 -17 23 11 -15 23 -13 9 13 -13 7 13 -13 7 15 -13 9 15 -13 -9 17 -13 -7 17 11 5 7 11 3 7 11 5 9 -13 -21 7 -11 -39 7 -11 -41 7 -11 -41 9 -11 -39 9 -13 -27 13 -13 -29 13 -13 -29 15 -13 -27 15 -13 -11 21 -13 -13 21 -13 -13 23 -13 -11 23 9 -7 11 9 -7 13 -13 -25 -1 -13 -25 1 1 -3 15 1 -5 15 1 -5 17 1 -3 17 11 21 9 -11 -17 21 -11 -19 21 -11 -19 23 -11 -17 23 -13 -5 5 -13 -31 11 -13 -33 11 -13 -33 13 -13 -31 13 -13 -31 15 11 7 9 11 7 11 -13 -15 15 -13 -13 15 9 11 1 9 9 1 9 9 3 9 11 3 -13 13 11 -13 11 11 -13 11 13 9 -11 9 -13 21 11 9 -25 -1 9 -27 -1 9 -27 1 -13 -1 3 -13 -1 5 -13 -19 13 -13 -21 15 -13 -19 15 -13 -17 3 -13 -19 3 -13 -35 5 -13 -35 7 -11 15 1 -11 13 1 -13 -9 21 -13 -9 23 -9 -19 3 -9 -21 3 -9 -21 5 -9 -19 5 -13 5 11 -13 3 11 -13 -23 7 -13 -25 7 -13 -25 9 -13 -23 9 -13 -9 19 -13 27 3 -13 25 3 -9 -21 7 -9 -23 7 -9 -23 9 -9 -21 9 7 11 11 7 9 11 7 9 13 7 11 13 -13 29 3 -13 29 5 -13 -33 5 -13 -33 7 11 -17 17 11 -17 19 11 -15 19 -13 -15 19 -13 -17 21 -13 -15 21 7 9 7 7 9 9 -13 -3 7 9 -23 -1 -13 -35 3 -13 -21 3 -13 -23 3 -13 -23 5 -13 -21 5 -9 -33 7 -9 -31 7 11 19 15 11 21 15 7 19 7 7 17 7 7 19 9 -19 -17 21 -19 -15 21 11 -19 17 11 -19 19 -13 -3 15 -13 -5 15 -13 -5 17 -9 -39 13 -9 -41 13 -9 -41 15 -9 -39 15 -13 -3 5 -9 -29 7 -9 -31 9 11 17 11 -13 11 -1 -13 9 -1 -13 9 1 -13 11 1 -13 9 9 -13 7 9 -13 7 11 -13 9 11 11 23 15 -13 -17 15 -13 31 3 -13 31 5 -13 -33 9 -13 25 13 -13 25 15 -13 -13 7 -13 -15 9 -13 -13 9 -13 -3 3 -13 -33 15 -9 -19 7 -13 -15 17 9 13 3 11 23 7 11 21 7 -13 -15 3 -13 -31 9 3 -13 9 3 -15 9 3 -15 11 3 -13 11 1 -13 13 1 -15 13 1 -15 15 1 -13 15 -13 -5 3 1 -7 5 1 -9 5 1 -9 7 1 -7 7 9 -5 11 9 -5 13 11 19 9 -13 -27 11 9 -27 3 -9 15 11 -13 29 7 -9 -3 15 -9 -5 15 -9 -5 17 -9 -3 17 9 -5 9 -13 -23 -1 -13 -23 1 11 25 15 -13 -9 11 -13 -31 7 -13 23 3 -13 21 3 -11 13 7 -11 15 7 7 13 11 7 13 13 -13 -15 23 -13 -17 23 -13 -17 25 -13 -15 25 11 19 7 9 -11 15 9 -9 15 -13 -35 13 -13 -35 15 7 11 9 -13 5 7 11 -5 15 11 -3 15 9 7 1 9 7 3 -13 11 15 -13 -9 25 11 1 13 -13 -11 25 -13 19 3 -13 19 5 -11 19 3 -11 17 3 9 -7 15 9 -5 15 -13 -29 11 7 15 13 -13 -13 25 -13 -39 15 -13 -37 15 -13 -1 21 -13 -1 23 3 -13 15 3 -15 15 3 -15 17 3 -13 17 -11 -17 19 -11 -19 19 -13 5 9 11 -13 23 -13 13 7 -13 13 9 9 11 -1 -13 31 7 9 -21 1 9 -21 3 -13 7 7 -13 9 7 -13 -31 1 11 9 11 -11 -23 7 9 9 -1 11 15 11 9 -13 13 11 -3 23 11 -17 15 11 -19 15 11 17 9 1 -13 11 1 -15 11 9 -13 15 7 11 7 9 -5 7 -13 11 7 -13 11 9 -13 -33 3 15 -15 19 15 -17 19 15 -17 21 15 -15 21 -11 -21 19 11 25 7 -9 -25 9 -9 -25 11 -9 -23 11 11 1 15 -3 29 5 -3 31 5 9 -29 -1 -13 -3 25 11 1 7 7 7 11 -13 -21 1 -13 7 1 5 31 3 5 29 3 5 29 5 5 31 5 -13 -1 25 11 -25 7 11 -27 7 11 -27 5 11 -25 5 13 -3 21 13 -5 21 13 -5 19 13 -3 19 -7 13 13 -7 11 13 -7 11 11 -7 13 11 13 -5 23 13 -7 23 13 -7 21 13 29 7 13 27 7 13 27 5 13 29 5 13 -5 17 13 -3 17 13 -37 15 13 -39 15 13 -39 13 13 -37 13 13 -17 5 13 -19 5 13 -19 3 13 -17 3 13 -3 15 13 -5 15 13 -5 13 13 -3 13 -11 19 13 -11 17 13 -11 17 11 -11 19 11 9 -19 5 9 -21 5 9 -19 3 13 -35 15 13 -35 13 -11 21 9 -11 19 9 -11 21 7 -9 11 3 -9 9 3 -9 9 1 -9 11 1 -1 -3 13 -1 -5 13 -1 -5 11 -1 -3 11 -9 -23 1 -9 -25 1 -9 -25 -1 -9 -23 -1 13 15 13 13 13 13 13 13 11 13 15 11 -11 15 15 -11 13 15 -11 13 13 -11 15 13 13 -5 11 13 -7 11 13 -7 9 13 -5 9 13 -9 23 13 -9 21 13 -11 25 13 -13 25 13 -13 23 13 -11 23 -5 31 5 -5 29 5 -5 29 3 -5 31 3 11 -29 7 11 -29 5 13 -35 11 13 -37 11 13 -37 9 13 -35 9 -11 25 11 -11 23 11 -11 23 9 -11 25 9 13 -19 9 13 -21 9 13 -21 7 13 -19 7 13 9 7 13 7 7 13 7 5 13 9 5 13 -11 17 13 -13 17 13 -13 15 13 -11 15 13 15 9 13 13 9 13 13 7 13 15 7 -11 -3 23 -11 -5 23 -11 -5 21 -11 -3 21 -9 7 1 13 1 13 13 -1 13 13 -1 11 13 1 11 13 25 5 13 23 5 13 23 3 13 25 3 13 -7 13 13 -21 5 13 -23 5 13 -23 3 13 -21 3 13 23 7 13 21 7 13 21 5 13 -25 15 13 -27 15 13 -27 13 13 -25 13 13 -15 25 13 -15 23 13 9 15 13 7 15 13 7 13 13 9 13 9 7 7 9 5 7 9 5 5 9 7 5 -9 -7 9 -9 -9 9 -9 -9 7 -9 -7 7 -9 -11 13 -9 -13 13 -9 -13 11 -9 -11 11 -11 5 15 -11 3 15 -11 3 13 -11 5 13 -11 23 7 -11 25 7 -7 9 9 -7 7 9 -7 7 7 -7 9 7 11 -27 3 11 -25 3 13 -5 5 13 -7 5 13 -7 3 13 -5 3 11 -23 5 11 -23 3 13 -7 17 13 -9 17 13 -9 15 13 -7 15 -15 -15 21 -15 -17 21 -15 -17 19 -15 -15 19 13 -29 13 13 -31 13 13 -31 11 13 -29 11 13 3 11 13 1 9 13 3 9 13 -9 9 13 -9 7 13 -7 7 3 31 3 3 29 3 3 29 1 3 31 1 13 21 13 13 19 13 13 19 11 13 21 11 13 -11 9 13 -11 7 13 -11 21 13 -13 21 13 -13 19 13 -11 19 -7 11 9 -7 11 7 13 -29 5 13 -31 5 13 -31 3 13 -29 3 -11 19 15 -11 17 15 13 -13 13 13 -11 13 -9 15 1 -9 13 1 -9 13 -1 -9 15 -1 13 11 13 13 9 11 13 11 11 -11 1 15 -11 1 13 -1 -3 7 -1 -5 7 -1 -5 5 -1 -3 5 -9 -11 7 -9 -11 5 -9 -9 5 -9 -7 11 -9 -9 11 -1 -3 17 -1 -5 17 -1 -5 15 -1 -3 15 13 -15 9 13 -17 9 13 -17 7 13 -15 7 -9 -27 1 -9 -27 -1 13 5 15 13 5 13 13 -15 15 13 -15 13 -7 9 13 -7 9 11 -7 13 9 13 31 5 13 29 3 13 31 3 11 -39 5 11 -41 5 11 -41 3 11 -39 3 13 -15 11 13 -13 11 9 -3 17 9 -5 17 9 -3 15 13 11 15 -9 -13 7 -9 -13 5 13 -25 1 13 -27 1 13 -27 -1 13 -25 -1 -11 3 9 -11 1 9 -11 1 7 -11 3 7 13 15 15 13 13 15 13 -3 11 13 -3 9 -9 -7 15 -9 -7 13 -9 -5 13 -1 -3 9 -1 -5 9 -11 -15 19 -11 -17 17 -11 -15 17 13 -31 1 13 -29 1 -11 -11 19 -11 -13 19 -11 -13 17 -11 -11 17 13 -13 7 13 -15 5 13 -13 5 13 -9 19 13 -7 19 -9 -11 9 13 3 13 13 5 11 11 -25 1 11 -23 1 -9 -25 3 -9 -27 3 13 -5 7 13 -7 25 13 -9 25 13 -17 25 13 -17 23 13 25 11 13 23 11 13 23 9 13 25 9 13 -33 13 13 -33 11 13 -15 3 13 -13 3 11 -23 7 11 -19 21 13 5 5 13 3 5 13 3 3 13 5 3 13 -21 15 13 -23 15 13 -23 13 13 -21 13 7 -13 17 7 -15 17 7 -15 15 7 -13 15 -11 -5 19 -11 -3 19 -9 -23 3 13 17 15 13 17 13 13 -15 17 11 -39 7 11 -41 7 13 -31 15 13 -33 15 13 3 15 13 -3 5 13 -3 3 13 -11 5 13 -9 5 -11 21 15 -11 21 13 -9 -13 9 -9 -15 9 -9 -15 7 13 27 15 13 25 15 13 25 13 13 27 13 13 -19 11 13 -21 11 -11 -7 21 -11 -7 19 -7 5 9 -7 5 7 13 -29 -1 -7 17 9 -7 15 9 -7 15 7 -7 17 7 11 13 7 11 11 7 11 11 5 11 13 5 9 -19 7 9 -21 7 11 11 3 11 13 3 13 23 13 -11 23 15 -11 23 13 13 -37 7 13 -39 7 13 -39 5 13 -37 5 -7 17 11 -7 15 11 -9 -15 11 -9 -29 3 -9 -29 1 13 -11 11 13 -13 9 13 -35 7 13 -17 21 13 -15 21 -11 9 15 -11 7 15 -11 7 13 -11 9 13 13 5 9 13 3 7 13 5 7 13 -17 15 13 -19 15 13 -19 13 13 -17 13 -11 -7 17 -11 -9 17 -11 -9 15 -11 -7 15 13 21 3 11 9 7 11 9 5 -11 -11 23 -11 -13 23 -11 -13 21 -11 -11 21 13 7 9 13 -25 11 13 -23 11 13 21 9 13 -9 13 13 -29 7 13 -31 7 13 -1 9 13 -1 7 13 1 7 13 -1 15 -9 -9 15 -9 -11 15 -9 -9 13 13 7 11 11 9 3 11 9 1 11 11 1 -11 21 11 13 19 9 13 17 9 13 17 7 13 19 7 -9 -5 9 -9 -5 7 13 13 1 13 11 1 13 11 -1 13 13 -1 -9 15 3 -9 13 3 -11 -9 23 -11 -9 21 -11 3 11 -11 5 11 -11 -9 19 13 -23 1 13 -21 1 -11 -15 21 9 9 9 9 7 9 9 9 7 13 29 15 13 29 13 13 -39 3 13 -37 3 19 -15 21 19 -17 21 19 -17 19 19 -15 19 11 -21 17 11 -21 15 13 21 15 13 19 15 13 -17 19 13 -19 19 13 -19 17 13 -17 17 -11 -3 17 -11 -5 17 -11 -5 15 -11 -3 15 13 -35 5 13 17 11 13 23 15 7 -13 11 7 -15 11 7 -15 9 7 -13 9 -11 31 5 -11 29 5 -11 29 3 -11 31 3 13 -33 7 13 -33 5 13 -27 11 13 -9 11 9 -39 13 9 -41 13 9 -41 11 9 -39 11 13 19 5 13 19 3 -11 -15 15 -11 -13 15 13 27 3 11 15 3 11 13 1 11 15 1 13 1 5 13 -1 5 13 -1 3 13 1 3 13 15 5 13 17 5 13 27 11 13 29 11 -11 -17 15 13 31 7 -7 7 11 13 -39 9 13 -3 7 9 -39 15 9 -41 15 9 -27 11 9 -29 11 9 -29 9 9 -27 9 11 -27 1 13 -23 9 13 -25 9 13 -25 7 13 -23 7 9 -25 11 9 -25 9 11 17 7 11 17 5 11 19 5 -7 19 9 -7 19 7 11 -39 9 11 -41 9 13 29 9 13 27 9 9 5 3 -1 -7 7 -1 -9 7 -1 -9 5 -1 -7 5 13 -33 9 9 17 9 9 15 9 9 15 7 9 17 7 13 7 3 13 9 3 13 1 15 13 25 7 13 -17 11 13 -27 9 13 -27 7 -7 13 7 9 13 11 9 11 11 9 11 9 9 13 9 11 -19 23 13 -29 15 -9 -5 11 9 -41 9 9 -39 9 19 -17 17 19 -15 17 -11 11 15 -11 11 13 13 -31 9 -9 -29 -1 13 -35 3 13 -33 3 13 -15 19 9 -23 11 9 -23 9 -11 -7 23 13 15 3 13 17 3 -9 -21 1 -11 1 11 -11 17 9 13 -39 11 -11 -15 23 13 -1 19 13 -1 17 13 -1 21 -9 -13 15 -9 -15 15 -9 -15 13 13 -5 25 9 -31 9 9 -31 7 9 -29 7 -11 25 15 -11 25 13 -11 5 9 13 11 9 13 11 7 3 31 5 3 29 5 9 -21 9 9 -23 7 -9 11 -1 -7 15 13 13 9 9 13 -3 25 13 -3 23 13 -9 3 11 17 3 11 19 3 13 -1 23 13 -11 3 -11 15 11 -11 -11 15 -11 5 7 -11 7 11 -11 9 11 -9 -15 5 9 -33 7 9 -33 5 9 -31 5 13 -1 25 11 15 5 9 -33 3 -9 9 -1 -11 7 9 13 15 1 13 17 1 9 15 11 13 -23 -1 13 9 1 13 9 -1 11 15 7 13 15 -1 13 7 1 9 9 11 11 -29 3 -9 17 3 -9 17 1 11 -29 1 11 -21 19 13 -29 9 -9 -31 1 7 31 5 7 29 5 7 29 3 7 31 3 11 -11 3 11 -13 3 9 -13 3 9 -11 3 5 17 3 5 15 3 3 15 3 3 17 3 -11 3 3 -11 1 3 9 3 3 9 1 3 7 1 3 7 3 3 -11 15 9 11 -19 3 11 -17 3 -5 3 3 -5 1 3 -7 1 3 -7 3 3 3 -37 3 3 -39 3 1 -39 3 1 -37 3 7 -35 3 7 -37 3 5 -37 3 5 -35 3 -11 15 -1 -11 13 -1 3 27 3 3 25 3 1 25 3 1 27 3 7 -21 3 7 -19 3 1 -33 3 1 -35 3 -1 -35 3 -1 -33 3 9 19 3 7 17 3 7 19 3 3 -9 3 3 -11 3 1 -11 3 1 -9 3 9 -11 23 9 -9 23 -3 -13 23 -3 -15 23 -5 -15 23 -5 -13 23 -1 -11 23 -1 -13 23 -3 -11 23 11 13 11 -3 25 3 -3 23 3 -5 23 3 -5 25 3 -11 -25 -1 -11 -23 -1 3 -13 3 1 -13 3 5 -1 3 5 -3 3 3 -3 3 3 -1 3 -7 7 3 -7 5 3 -1 17 3 -1 15 3 -3 15 3 -3 17 3 -1 -15 3 -1 -17 3 -3 -17 3 -3 -15 3 -3 -3 3 -3 -5 3 -5 -5 3 -5 -3 3 7 -27 3 7 -25 3 3 23 3 3 21 3 1 21 3 1 23 3 11 -21 7 11 -19 7 7 -11 23 7 -13 23 5 -13 23 5 -11 23 -5 17 3 -5 15 3 -7 15 3 -7 17 3 -3 -9 3 -3 -11 3 -5 -11 3 -5 -9 3 -11 7 1 -11 -11 3 -11 -13 3 -9 -39 3 -9 -41 3 3 -5 23 3 -7 23 1 -7 23 1 -5 23 11 23 3 11 25 3 -5 -19 3 -5 -21 3 -7 -21 3 -7 -19 3 -5 21 3 -5 19 3 -7 19 3 -7 21 3 7 -9 23 5 -9 23 11 15 -1 11 13 -1 -7 -33 3 -7 -35 3 -9 -35 3 -3 3 3 -3 1 3 3 -13 23 3 -11 23 5 -3 23 5 -5 23 3 -3 23 1 -23 3 1 -25 3 -1 -25 3 -1 -23 3 1 -27 3 1 -29 3 -1 -29 3 -1 -27 3 -1 -17 19 -1 -19 19 -3 -19 19 -3 -17 19 7 -23 3 1 -11 23 1 -13 23 11 -7 3 11 -5 3 -11 -27 -1 -11 -29 -1 3 13 3 1 13 3 1 15 3 -5 -7 23 -5 -9 23 -7 -9 23 -7 -7 23 -1 -7 3 -1 -9 3 -3 -7 3 -7 -3 23 -7 -5 23 -9 -5 23 -9 -3 23 -1 11 3 -1 9 3 -3 9 3 -3 11 3 -11 5 3 3 -23 3 3 -25 3 -5 13 3 -7 13 3 7 -29 3 5 -29 3 5 -27 3 -3 -19 3 -5 -17 3 -1 31 1 -1 29 1 1 29 1 1 31 1 9 -5 23 9 -3 23 11 5 3 11 3 3 -11 -37 3 -7 -1 3 -7 -3 3 -9 -3 3 -9 -1 3 -9 21 3 -9 19 3 -11 21 3 -1 5 3 -1 3 3 -3 5 3 1 -15 23 1 -17 23 -1 -17 23 -1 -15 23 -7 -15 23 -7 -13 23 -7 23 3 5 -13 3 5 -15 3 3 -15 3 -9 -37 3 -11 -35 3 11 11 11 -9 29 3 -9 27 3 -11 27 3 1 -3 3 1 -5 3 -1 -5 3 -1 -3 3 -1 25 3 -1 23 3 -5 -15 3 -11 -7 3 -11 -9 3 1 -1 3 -1 -1 3 -11 -23 11 -11 -25 11 3 -9 23 1 -9 23 -1 -31 3 -3 -33 3 -3 -31 3 -9 -9 23 -9 -7 23 -5 -23 3 -5 -25 3 -7 -25 3 -7 -23 3 9 -41 3 9 -39 3 1 17 3 -1 21 3 -3 21 3 11 -31 1 7 -31 3 7 27 3 5 27 3 -3 27 3 -5 27 3 11 -27 -1 11 -25 -1 -3 -3 23 -3 -5 23 -5 -5 23 -5 -3 23 7 5 3 5 3 3 5 5 3 -3 -13 3 -5 -13 3 9 -13 23 9 29 5 9 31 5 -9 25 3 -9 23 3 -11 23 3 -11 25 3 5 11 3 5 9 3 3 9 3 3 11 3 1 -3 23 -1 -5 23 -1 -3 23 11 -23 11 11 -25 11 -15 -15 17 -15 -17 17 -17 -17 17 -17 -15 17 -1 -39 3 -1 -41 3 -3 -41 3 -3 -39 3 -7 -27 3 -7 -17 3 -7 -15 3 7 -9 3 7 -11 3 5 -11 3 5 -9 3 -7 27 3 -1 13 3 7 11 3 7 13 3 5 -7 3 3 -7 3 3 -15 23 3 -17 23 -1 1 3 5 7 3 3 7 3 -3 -29 3 -3 -27 3 5 -17 3 3 -17 3 -7 -31 3 11 -15 3 9 -19 19 9 -17 19 -11 -3 3 -11 -1 3 1 -21 3 -1 -21 3 7 7 3 7 9 3 -9 -11 3 -9 -13 3 -11 -27 11 7 -1 3 5 1 3 3 -5 3 1 -7 3 7 -13 3 11 -3 3 -7 -13 3 -7 -11 3 11 -29 9 11 -31 9 3 3 3 3 1 3 1 1 3 1 3 3 1 9 3 1 11 3 3 -35 3 -1 -7 23 7 -3 23 7 -5 23 -7 -11 23 -9 -11 23 9 -5 3 9 -3 3 -3 -35 3 -3 -37 3 -5 -37 3 -5 -35 3 7 -15 23 7 -17 23 5 -17 23 5 -15 23 -3 13 3 -7 -17 23 -9 -17 23 -9 -15 23 7 -17 3 5 -19 3 11 -35 3 11 -37 3 9 -37 3 9 -35 3 -1 -37 3 9 25 3 9 23 3 7 23 3 7 25 3 -5 -1 3 5 -23 3 5 -25 3 -7 -37 3 11 -29 -1 -9 3 3 -11 17 1 5 -31 3 -11 -23 9 -11 -21 9 -1 27 3 11 17 1 9 -7 3 9 -9 3 7 -7 3 9 -7 23 7 -7 23 3 -41 3 1 -41 3 -11 9 9 3 5 3 -9 -17 3 -9 -15 3 -11 -19 7 -11 -21 7 11 21 3 -7 -29 3 -5 -17 19 -5 -19 19 -7 -19 19 -7 -17 19 -7 9 3 -3 -25 3 -3 -23 3 11 7 7 -5 -27 3 5 -33 3 3 -33 3 -5 -7 3 -7 -9 3 -7 -7 3 -7 25 3 -5 -31 3 -5 -33 3 1 -17 19 1 -19 19 -11 11 11 -11 13 11 1 -15 3 -11 -29 11 11 -9 3 -9 -5 3 -11 -5 3 11 11 -1 -9 1 3 -11 -17 3 -11 -19 3 7 -5 3 7 -3 3 11 -21 1 -3 -7 23 -1 -19 3 17 -15 17 17 -17 17 15 -17 17 15 -15 17 7 -41 3 7 -39 3 3 -27 3 5 -41 3 5 -39 3 -5 -11 23 11 9 9 -3 -9 23 11 -23 -1 -7 11 3 3 -31 3 3 19 3 1 19 3 -11 11 -1 -11 9 -1 5 -15 9 5 -13 9 -1 -13 3 -5 -29 3 -5 -39 3 -5 -41 3 -7 -41 3 -7 -39 3 -5 -17 23 5 -5 3 -5 9 3 -5 11 3 11 -27 11 -3 -1 3 9 21 3 7 21 3 7 -17 19 7 -19 19 5 -19 19 5 -17 19 5 25 3 11 27 3 9 -15 3 9 -17 3 7 -15 3 11 -1 3 11 1 3 -11 -15 3 5 23 3 -11 7 7 -9 -13 23 5 -7 23 3 -19 3 9 -1 3 -9 -9 3 7 15 3 5 19 3 5 21 3 11 15 9 -3 19 3 -1 -9 23 7 -33 3 -9 -7 3 9 27 3 9 29 3 1 -19 3 1 7 3 -1 -11 3 -9 -19 19 -9 -17 19 1 5 3 3 -29 3 3 -19 19 3 -17 19 -7 -5 3 11 7 1 -5 5 3 11 -33 7 11 -31 7 5 13 3 11 -33 3 -11 -33 3 1 -17 3 -3 -21 3 -1 29 3 -11 -21 1 -5 7 3 -1 7 3 5 -21 3 1 -31 3 11 -21 9 11 -23 9 -3 7 3 -1 19 3 -3 -17 23 9 -15 23 -11 -31 1 11 9 -1 -11 -31 9 -11 -29 9 1 29 3 3 -21 3 9 -17 23 -9 29 5 -9 31 5 11 -29 11 -11 -31 7 -11 -33 7 1 5 7 1 3 7 3 3 7 3 5 7 1 -1 25 1 -3 25 3 -3 25 3 -1 25 -5 -37 15 -5 -39 15 -3 -39 15 -3 -37 15 5 -21 15 5 -23 15 7 -23 15 7 -21 15 -9 13 13 -9 11 13 1 19 7 1 17 7 3 17 7 3 19 7 -5 -3 17 -5 -5 17 -3 -5 17 -3 -3 17 9 17 11 11 -37 15 11 -39 15 -3 21 7 -3 19 7 -1 19 7 -1 21 7 5 -39 15 5 -41 15 7 -41 15 7 -39 15 -5 11 7 -5 13 7 1 9 7 1 7 7 3 7 7 3 9 7 11 -35 15 -5 27 15 -5 25 15 -3 25 15 -3 27 15 1 -11 5 3 -11 5 3 -9 5 9 -9 25 9 -11 25 11 -11 25 11 -9 25 -5 -13 25 -5 -15 25 -3 -15 25 -3 -13 25 3 -31 15 3 -33 15 5 -33 15 5 -31 15 -3 -11 25 -1 -13 25 -1 -11 25 5 -1 25 5 -3 25 7 -3 25 7 -1 25 1 -13 5 3 -13 5 1 -23 15 1 -25 15 3 -25 15 3 -23 15 1 11 7 3 11 7 5 -5 7 5 -7 7 7 -7 7 7 -5 7 11 -13 25 -11 -25 9 -11 -27 9 -3 3 7 -3 1 7 -1 1 7 -1 3 7 -9 3 7 -7 3 7 3 29 15 3 27 15 5 27 15 5 29 15 -7 31 7 -7 29 7 -5 29 7 -5 31 7 1 -27 15 1 -29 15 3 -29 15 3 -27 15 5 -11 25 5 -13 25 7 -13 25 7 -11 25 1 13 7 3 13 7 -7 -5 7 -7 -7 7 -5 -7 7 -5 -5 7 -5 -9 5 -5 -11 5 -3 -11 5 -3 -9 5 5 -21 19 7 -21 19 3 -35 15 3 -37 15 5 -37 15 5 -35 15 11 13 9 5 9 7 5 11 7 -5 9 7 -3 9 7 -3 11 7 7 -37 15 1 -5 25 1 -7 25 3 -7 25 3 -5 25 -1 11 7 -1 9 7 9 -29 15 9 -31 15 11 -31 15 11 -29 15 5 -29 15 -3 7 7 -3 5 7 -1 5 7 -1 7 7 7 21 7 9 19 7 9 21 7 11 -25 15 11 -27 15 5 -9 25 7 -9 25 -9 -37 15 -7 -39 15 -7 -37 15 11 -15 25 -7 -9 7 -5 -9 7 -11 -1 15 -3 -29 15 -3 -31 15 -1 -31 15 -1 -29 15 3 -11 25 3 -13 25 5 -27 15 5 -25 15 5 -5 25 -1 -25 15 -1 -27 15 9 3 7 9 1 7 7 27 15 7 25 15 9 25 15 9 27 15 -5 -23 15 -5 -25 15 -3 -25 15 -3 -23 15 3 -21 19 1 -13 25 1 -11 25 11 11 9 9 23 7 -7 -7 25 -7 -9 25 -5 -9 25 -5 -7 25 -17 -15 21 -17 -17 21 -5 7 7 7 -9 7 -9 -3 25 -9 -5 25 -7 -5 25 -7 -3 25 -9 19 7 -9 21 7 3 25 15 5 25 15 1 -21 19 -1 1 15 -1 -1 15 1 -1 15 1 1 15 9 -3 25 9 -5 25 11 -5 25 11 -3 25 -1 25 15 -1 27 15 -5 -19 23 -3 -19 23 5 13 7 -1 -15 15 -1 -17 15 1 -17 15 -9 27 15 -9 25 15 -7 25 15 -7 27 15 -1 -15 25 -1 -17 25 1 -17 25 1 -15 25 -7 -13 25 -7 -15 25 9 -23 15 9 -25 15 11 -23 15 -7 -21 19 -5 -21 19 3 -15 5 5 -15 5 5 -13 5 7 29 15 -5 5 7 -9 -1 15 -9 1 15 -3 -15 15 -3 -17 15 -9 25 7 -9 23 7 -7 23 7 -7 25 7 1 -9 25 3 -9 25 3 15 7 5 15 7 5 17 7 -9 -7 25 -9 -9 25 -3 -21 19 -1 -21 19 5 23 7 5 21 7 7 23 7 -9 9 13 7 -3 17 7 -5 17 -7 -3 17 -7 -5 17 -5 -3 25 -5 -5 25 -3 -5 25 -3 -3 25 -9 -19 23 -7 -19 23 -3 29 7 -3 31 7 11 -27 9 11 -25 9 -5 -13 5 -3 -13 5 -9 -27 15 -9 -29 15 -7 -29 15 -7 -27 15 9 -13 25 9 31 7 9 29 7 11 29 7 11 31 7 -5 -1 25 -3 -1 25 -1 -3 25 -1 -5 25 -11 -7 25 -11 -5 25 1 25 7 1 23 7 3 23 7 3 25 7 -5 -33 15 -5 -35 15 -3 -35 15 -3 -33 15 -11 -25 15 -11 -23 15 -11 29 15 -11 27 15 -9 29 15 -5 3 7 5 -9 5 5 -11 5 7 -11 5 7 -9 5 5 3 7 5 1 7 7 1 7 7 3 7 -7 29 15 -5 29 15 3 -17 25 3 -15 25 9 -1 25 11 -7 25 11 27 15 11 -17 25 5 -17 15 5 -19 15 7 -19 15 7 -17 15 5 25 7 7 25 7 5 5 7 5 7 7 5 -13 17 5 -15 17 5 -3 17 5 -5 17 11 -33 15 7 -13 5 -7 -11 5 -7 -13 5 7 -5 25 -1 -7 25 -9 -11 25 -7 -11 25 9 29 15 5 -15 25 5 -17 25 7 -17 25 7 -15 25 -9 -15 25 -9 -17 25 -7 -17 25 -11 -29 15 -11 -31 15 -9 -31 15 1 21 7 3 21 7 9 -33 15 9 -35 15 1 -35 15 1 -37 15 -7 -41 15 -5 -41 15 9 -37 15 -11 -27 15 9 5 9 -9 5 9 -3 15 7 -3 13 7 -1 13 7 -1 15 7 -3 -7 7 -3 -5 7 -5 17 7 -5 19 7 -9 -17 15 1 -31 15 3 -21 15 -3 -41 15 -1 -41 15 -1 -39 15 -9 -21 19 -3 23 7 -1 23 7 -9 17 11 3 31 7 3 29 7 5 29 7 5 31 7 7 -29 15 7 -27 15 7 -7 25 9 -7 25 -9 7 11 -11 13 9 -11 11 9 7 1 15 7 -1 15 9 -1 15 9 1 15 -11 -33 15 -9 -33 15 3 -5 17 3 -3 17 -7 -9 5 -5 15 7 1 -15 5 7 -25 15 9 -27 15 -11 -37 15 -11 -39 15 -7 -35 15 7 31 7 7 29 7 1 29 15 1 27 15 -9 -25 15 -7 -25 15 1 1 7 3 -17 15 3 -19 15 -1 17 7 1 15 7 -1 -37 15 -7 -31 15 -5 -31 15 -5 -29 15 -7 -33 15 -11 -9 25 -7 21 7 -3 -21 15 -1 -23 15 -1 -21 15 9 9 13 9 11 13 3 -5 7 3 -7 7 -3 -7 25 11 29 15 -5 -11 25 9 7 11 17 -15 21 17 -17 21 -3 -9 25 -1 -19 23 9 19 9 -3 -27 15 -11 -1 25 -11 -3 25 -9 -1 25 7 -33 15 7 -31 15 -7 -1 25 -5 -15 5 -3 -15 5 -1 -35 15 -1 -15 5 -1 -13 5 -5 21 7 -5 23 7 9 -15 15 9 -17 15 -5 -17 25 -9 -21 15 -9 -23 15 -7 -23 15 -7 -21 15 9 25 7 -9 1 7 -7 1 7 -3 25 7 -1 25 7 11 -1 15 -3 17 7 -1 -33 15 3 -1 15 3 1 15 -11 -11 25 -11 -13 25 -9 -13 25 -7 -15 5 -7 -1 15 -7 1 15 7 -19 23 9 -19 23 5 -7 25 3 -9 7 -1 29 7 -1 31 7 9 -19 15 9 13 13 3 1 7 5 -15 15 -1 -1 25 -1 29 15 5 19 7 -9 19 9 -5 25 7 5 -9 7 -9 -35 15 -3 -9 7 -1 -9 25 1 -19 15 -11 -17 25 -11 -15 25 1 25 15 1 -19 23 3 -19 23 -1 -11 5 11 -1 25 7 -35 15 -11 -35 15 1 -39 15 3 -39 15 9 -21 15 5 -19 23 -3 -19 15 -1 -19 15 -9 -19 15 -7 -17 15 -7 -15 15 7 -15 5 1 -41 15 -3 29 15 -5 -27 15 -9 15 13 5 -1 15 5 1 15 9 15 13 -5 -17 15 -5 -15 15 -3 -17 25 9 -15 25 -11 29 7 -11 31 7 1 -21 15 -5 1 7 1 -33 15 -5 -21 15 1 29 7 1 31 7 3 -41 15 9 -21 19 -7 -19 15 -5 -19 15 9 -17 25 -9 31 7 -9 29 7 -5 -1 15 -5 1 15 -3 -1 15 -3 1 15 -3 -41 13 -5 -41 13 -5 -41 11 -3 -41 11 -5 -5 15 -3 -5 15 -7 25 11 -9 25 11 -9 25 9 -7 25 9 -7 -3 21 -5 -3 21 -7 25 13 -9 25 13 9 -3 21 9 -3 19 -5 25 13 -5 25 11 -11 -19 5 3 -41 9 1 -41 9 1 -41 7 3 -41 7 1 -41 13 -1 -41 13 -1 -41 11 1 -41 11 7 -41 13 7 -41 11 11 -39 13 -7 -19 21 -5 -19 21 11 -19 5 7 -19 21 5 -19 21 -9 -3 19 5 -41 13 7 -3 21 9 25 11 7 25 11 7 25 9 9 25 9 -3 25 13 -3 -5 13 -3 -5 11 -11 7 5 -11 7 3 5 -3 21 3 -3 21 3 -3 19 5 -3 19 -9 -3 21 11 7 5 11 7 3 1 -3 21 -1 -3 21 -1 -3 19 1 -3 19 7 -5 11 7 -5 9 9 -19 21 -3 -3 19 5 -5 15 3 -5 15 3 -5 13 5 -5 13 -5 -5 13 -1 -41 7 -1 -41 5 1 -41 5 -3 -3 21 7 -41 9 5 -41 9 5 -41 7 7 -41 7 7 -5 15 7 -5 13 7 -3 19 9 -21 17 7 -21 17 5 -21 17 5 -41 11 -7 -41 13 -7 -41 11 -9 -41 5 -5 -5 9 -7 -5 9 5 -5 11 11 -39 11 -1 25 13 -3 25 11 -1 25 11 9 -41 7 1 25 9 -1 25 9 -7 -5 15 -11 -39 11 7 -41 5 9 -41 5 7 25 13 5 25 13 5 25 11 -11 -31 5 -1 -19 21 -3 -19 21 9 25 13 3 -21 17 3 25 9 3 -41 11 3 -5 11 -17 -17 19 5 -5 9 1 25 13 3 25 13 1 -19 21 3 -19 21 -5 -21 17 -3 -21 17 1 -21 17 5 25 9 -5 -5 11 -3 -5 9 11 -31 5 11 -31 3 -7 -21 17 -9 -19 21 -5 25 9 -3 25 9 1 25 11 3 25 11 3 -41 5 5 -41 5 -3 -41 9 -5 -41 9 -5 -41 7 -3 -41 7 -7 -41 9 17 -17 19 -1 -21 17 -7 -5 13 -7 -5 11 -9 -21 17 -11 -31 3 -11 -39 13 -3 -41 5 -5 -41 5 3 -5 9 -1 -41 9 -5 -3 19 3 -41 13 -7 -3 19 -7 -41 5 -7 -41 7 -9 -41 7 3 -1 23 1 -1 23 7 29 11 5 29 11 5 29 13 7 29 13 -5 -1 21 -7 -1 21 -7 -1 23 -5 -1 23 11 29 11 9 29 11 9 29 13 11 29 13 -5 1 9 -3 1 9 11 -1 19 9 -1 19 9 -1 21 11 -1 21 9 1 13 -11 29 11 -11 29 13 9 1 11 7 1 11 7 1 13 -5 -17 21 -7 -17 21 5 -17 21 7 -17 21 -9 -1 17 -11 -1 17 -11 -1 19 -9 -1 19 1 -15 9 7 -1 21 7 -1 23 9 -1 23 -9 29 11 -9 29 13 3 1 13 1 1 13 5 -1 19 3 -1 19 3 -1 21 5 -1 21 -9 -1 21 -11 -1 21 -11 -1 23 -9 -1 23 -9 1 9 -7 1 9 5 -13 11 -9 1 11 5 -1 23 3 -13 13 -7 1 13 -9 1 13 1 -1 19 -1 -1 19 -1 -1 21 1 -1 21 9 -17 21 -7 -15 7 -5 29 11 -7 29 11 -7 29 13 -5 29 13 -1 -1 17 -3 -1 17 -3 -1 19 -5 1 11 -7 1 11 -5 1 13 3 29 13 -1 31 5 1 29 9 -1 29 9 -1 29 11 1 29 11 -3 -1 21 -3 -1 23 -1 -1 23 3 -15 7 1 -15 7 7 -1 19 7 -19 17 9 -19 17 -7 -15 9 -7 -15 11 5 -19 17 -11 29 9 5 1 9 3 1 9 3 1 11 5 1 11 11 -21 3 11 -21 5 1 29 13 -1 29 13 1 1 9 1 1 11 11 29 9 11 5 5 -3 -17 21 -1 -17 21 3 -19 17 -1 -15 9 -3 -15 9 -3 -15 11 -1 -15 11 -11 -33 5 -17 -15 19 3 -1 17 5 -1 17 -11 5 5 3 -17 21 1 -17 21 7 -13 13 5 -13 13 5 -13 15 -3 -19 17 -5 -19 17 11 -1 23 1 -19 17 -1 1 13 -1 31 3 1 31 3 9 1 9 7 29 9 9 29 9 1 -1 17 -1 -15 13 7 1 9 -7 -19 17 -9 -17 21 -1 1 9 -5 -15 7 -3 -15 7 -3 -15 13 5 -15 7 -3 1 11 -3 1 13 17 -15 19 -1 -19 17 7 -1 17 -9 -19 17 -7 -15 13 11 -33 5 -11 -21 3 -11 -21 5 5 29 9 3 29 9 3 29 11 -1 -15 7 -3 29 13 9 -1 17 11 -1 17 5 1 13 -5 -1 17 -5 -15 13 -5 -1 19 -1 1 11 -9 29 9 -7 29 9 1 31 5 -3 29 11 -3 29 9 -7 -1 19 -5 -15 9 7 -15 7 -7 -1 17 -5 -15 11 -5 29 9 </float_array>
<technique_common>
<accessor count="2720" source="#Plane-color-mesh-positions-array" stride="3">
<param name="X" type="float"/>
<param name="Y" type="float"/>
<param name="Z" type="float"/>
</accessor>
</technique_common>
</source>
<vertices id="Plane-color-mesh-vertices">
<input semantic="POSITION" source="#Plane-color-mesh-positions"/>
</vertices>
<polylist count="580" material="Material_68_68_68-material">
<input offset="0" semantic="VERTEX" source="#Plane-color-mesh-vertices"/>
<vcount>4 4 4 4 4 4 4 4 4 4 4 4 4 4 4 4 4 4 4 4 4 4 4 4 4 4 4 4 4 4 4 4 4 4 4 4 4 4 4 4 4 4 4 4 4 4 4 4 4 4 4 4 4 4 4 4 4 4 4 4 4 4 4 4 4 4 4 4 4 4 4 4 4 4 4 4 4 4 4 4 4 4 4 4 4 4 4 4 4 4 4 4 4 4 4 4 4 4 4 4 4 4 4 4 4 4 4 4 4 4 4 4 4 4 4 4 4 4 4 4 4 4 4 4 4 4 4 4 4 4 4 4 4 4 4 4 4 4 4 4 4 4 4 4 4 4 4 4 4 4 4 4 4 4 4 4 4 4 4 4 4 4 4 4 4 4 4 4 4 4 4 4 4 4 4 4 4 4 4 4 4 4 4 4 4 4 4 4 4 4 4 4 4 4 4 4 4 4 4 4 4 4 4 4 4 4 4 4 4 4 4 4 4 4 4 4 4 4 4 4 4 4 4 4 4 4 4 4 4 4 4 4 4 4 4 4 4 4 4 4 4 4 4 4 4 4 4 4 4 4 4 4 4 4 4 4 4 4 4 4 4 4 4 4 4 4 4 4 4 4 4 4 4 4 4 4 4 4 4 4 4 4 4 4 4 4 4 4 4 4 4 4 4 4 4 4 4 4 4 4 4 4 4 4 4 4 4 4 4 4 4 4 4 4 4 4 4 4 4 4 4 4 4 4 4 4 4 4 4 4 4 4 4 4 4 4 4 4 4 4 4 4 4 4 4 4 4 4 4 4 4 4 4 4 4 4 4 4 4 4 4 4 4 4 4 4 4 4 4 4 4 4 4 4 4 4 4 4 4 4 4 4 4 4 4 4 4 4 4 4 4 4 4 4 4 4 4 4 4 4 4 4 4 4 4 4 4 4 4 4 4 4 4 4 4 4 4 4 4 4 4 4 4 4 4 4 4 4 4 4 4 4 4 4 4 4 4 4 4 4 4 4 4 4 4 4 4 4 4 4 4 4 4 4 4 4 4 4 4 4 4 4 4 4 4 4 4 4 4 4 4 4 4 4 4 4 4 4 4 4 4 4 4 4 4 4 4 4 4 4 4 4 4 4 4 4 4 4 4 4 4 4 4 4 4 4 4 4 4 4 4 4 4 4 4 4 4 4 4 4 4 4 4 4 4 4 4 4 4 4 4 4 4 4 4 4 4 4 4 4 4 4 4 4 4 4 4 4 4 4 4 4 4 4 4 4 4 4 4 4 4 4 4 4 4 4 4 4 4 4 4 4 4 4 4 4 4 4 4 4 </vcount>
<p>451 452 453 454 1332 1331 1325 1644 1676 1677 1480 1479 1714 1635 1625 1790 2117 2293 2294 2118 1757 1756 541 540 838 2658 2033 835 1807 1751 1825 1446 1701 1615 326 1041 1585 1586 1587 1588 1549 1462 1377 1376 1456 1725 1688 1687 327 1433 1518 1817 1528 1550 1551 1363 1766 1822 1374 1706 1545 1593 960 959 1379 1378 1401 1400 499 498 2034 2033 1970 2035 1985 1971 1498 1810 1726 1499 1306 1778 1780 1632 1550 1829 1795 1551 850 1335 1338 1836 1743 1807 1446 1445 1187 1186 1265 1266 2208 1972 1978 2209 2209 1978 1920 1951 817 709 2042 2087 1816 1666 1669 1280 1383 1382 1487 1529 1153 1167 2215 1244 1484 1682 1751 1807 1487 1419 1422 1594 1406 1568 1634 1635 1740 1739 1127 993 2360 2359 2369 2370 1989 495 1990 1991 1594 1422 451 1696 1336 1390 1393 1337 1599 1598 1349 1348 2311 2223 2135 2134 821 1017 2081 2035 428 590 1623 1624 1308 1309 1310 1311 251 1280 1797 1553 2718 2635 2693 2706 1494 1495 1314 1194 1342 1328 1670 1343 2059 2060 2061 546 2207 2208 2209 2210 1460 1579 1643 1461 1960 1959 2348 1197 1864 2092 2093 2094 2167 2166 2329 2301 2014 2015 656 388 1441 1442 1443 1444 2307 2028 536 647 544 545 546 547 1865 1864 2094 2335 985 2173 2332 986 1402 1482 1100 1099 1369 1723 1380 1758 1404 1405 1406 1407 1314 1315 1316 1317 1802 1806 1504 1823 2635 1040 1245 2693 1420 1543 1546 1421 1633 1457 1650 1651 884 1198 549 291 1340 1339 1824 1665 1624 1623 1609 1577 1988 1987 1844 1884 608 609 610 611 2656 2655 2685 2678 1668 1548 1742 1330 1932 1931 2258 1845 1822 1812 1375 1374 888 887 2178 2244 1707 1612 1710 1544 709 205 2041 2042 1985 1986 1987 1988 1384 1385 1386 1387 1423 1424 1425 1426 1781 1633 1651 1789 1708 1707 1544 1543 1229 1124 643 642 1479 1480 1442 1441 2693 1245 1244 2360 2666 608 611 2172 1424 1400 1403 1425 1495 1782 1315 1314 2084 2085 2060 2059 2168 2099 2101 2169 1921 1886 1968 1969 1323 1497 1500 1729 1539 1652 1655 1718 1685 1527 1362 1556 2172 2173 985 984 1138 1757 2598 1135 1651 1650 1732 1733 597 598 203 202 1732 1689 1604 1765 987 986 2300 636 58 1478 2661 59 643 1124 1127 1739 1211 864 1881 1882 1884 1844 1847 1885 2136 2196 2100 2099 1565 1629 1639 1638 1614 1788 1801 1818 1689 1596 1599 1604 337 336 498 499 2215 2358 2383 2359 922 1274 2320 2179 1118 2529 1738 1221 1405 1567 1568 1406 1641 1640 1608 1505 545 2678 2059 546 2310 2222 2223 2311 1422 1421 452 451 1609 1566 1695 1610 1481 1767 1750 1482 1194 1314 1317 1564 1349 1368 1369 1350 1737 1738 1739 1740 313 312 1389 1453 2164 2165 2166 2167 1311 1310 1462 1549 629 2664 987 636 1771 1347 1792 1793 1506 1434 1321 1812 1726 1798 1530 1727 1795 1379 1400 1424 2173 610 609 2332 1611 1540 1717 1759 2118 2294 2296 2297 1669 1668 1330 1329 1316 1628 1370 1629 835 836 837 838 1780 1664 1613 1515 1819 1708 1543 1420 1952 1921 1969 2058 1789 1651 1733 1628 836 2034 2502 837 1446 1825 1538 1447 2152 2153 2154 2155 1393 1392 1550 1528 2093 2058 219 218 1751 1712 1341 1825 885 884 291 290 1348 1349 1350 1351 1791 1603 1815 1309 2529 643 1739 1738 1577 1609 1610 1578 557 252 1483 1388 1588 334 337 2658 1421 1546 990 452 1616 1320 1779 1778 1364 1423 1426 1513 1666 1667 1668 1669 1442 1445 1448 1443 1654 1760 1763 1678 1553 1797 1711 1682 1782 1781 1789 1315 1350 1369 1758 1803 1886 1885 2171 1968 1815 1576 1579 1460 1737 1740 642 2689 1588 1587 335 334 2042 2041 1189 2269 1467 1468 1404 1469 240 1800 1570 241 2137 2136 2099 2168 1189 1022 2213 2214 1951 1920 1921 1952 1862 1863 1864 1865 334 335 336 337 1343 1670 1653 1652 2171 2170 353 352 2658 337 499 2033 2210 2209 1951 2262 1604 1599 1348 1605 1881 1970 1971 1972 1652 1653 1654 1655 2244 2178 1958 1957 634 635 545 544 1382 1486 1419 1487 1667 914 1548 1668 1551 1795 1424 1423 1307 1306 1632 1597 1475 1823 1828 1476 1885 1847 2170 2171 2332 2164 2167 986 930 929 2308 1933 2370 2369 2085 2084 540 541 542 543 1523 1524 1525 1526 1572 1573 1574 1575 1401 1481 1482 1402 1929 1930 1931 1932 1447 1538 1540 1611 1837 1479 1441 1621 1504 1505 1434 1506 1642 1802 1823 1475 1700 1266 1345 1770 611 610 2173 2172 1631 1351 1468 1467 1758 1380 1383 1567 1644 1325 1328 1342 1672 1770 1771 1673 1244 2215 2359 2360 1629 1370 1373 1639 1779 704 1340 1664 2060 2357 2342 2061 1119 2689 2281 1116 1538 1344 1539 1540 1643 1642 1475 1474 1638 1639 1640 1641 2155 2154 2015 2014 1346 1791 1309 1308 1665 1824 1837 1788 1914 2246 2077 1915 1733 1732 1765 1371 1578 1610 1802 1642 1400 1401 1402 1403 1317 1316 1629 1565 1469 1404 1407 1713 1517 1411 101 1496 1625 1626 1410 1409 1792 1308 1311 1752 543 634 544 2601 1390 1391 1392 1393 1483 1553 1682 1484 2598 543 2601 2665 1675 1387 1498 1497 1797 1329 1332 1711 1825 1341 1344 1538 1373 1372 1523 1532 1502 1294 598 597 1893 1915 2079 2149 1567 1383 1529 1568 2665 2601 608 2666 1596 1597 1598 1599 375 374 1791 1346 1576 1577 1578 1579 2649 803 802 387 10 9 1136 1135 1597 1632 1514 1598 534 1585 838 479 1715 1714 1790 1798 1322 1675 1497 1323 1601 1474 1477 1660 1337 1393 1528 1527 312 557 1388 1389 804 803 1194 590 2033 2034 836 835 1329 1330 1331 1332 1634 1595 1697 1626 1593 1701 1041 960 1325 1326 1327 1328 1622 1444 1708 1819 1615 1431 327 326 1968 2171 352 482 702 703 621 704 1688 1307 1597 1596 1752 1311 1549 1753 1725 1304 1307 1688 1444 1443 1707 1708 2086 2087 2088 2089 2297 2296 2246 1914 2424 702 704 1319 1759 1717 1615 1701 1315 1789 1628 1316 2301 2329 632 631 1513 1426 1501 1573 1462 1461 1601 1377 1978 1979 1883 1920 2179 2320 2293 2117 1380 1381 1382 1383 2148 2149 2150 2151 1457 1456 1687 1650 1767 1766 1706 1750 2100 2335 495 1989 1546 1545 959 990 2261 2210 2262 1863 1710 1759 1701 1593 1680 1729 1313 1312 1363 1551 1423 1364 2170 2152 2155 353 1387 1386 1810 1498 1610 1695 1806 1802 1718 1655 1432 1431 1543 1544 1545 1546 1477 1476 1766 1767 1740 993 1229 642 1573 1501 1503 1574 1434 1435 1322 1321 1453 1389 1677 1676 1476 1828 1822 1766 1135 2598 2665 2664 547 546 609 608 1812 1321 1324 1375 1613 1665 1788 1614 1494 1194 803 2649 1381 1736 1486 1382 1138 1137 1756 1757 1713 1407 1714 1715 1979 1988 1884 1883 1520 1141 1140 1839 1277 1276 1280 251 1769 1384 1387 1675 1875 2261 1863 1862 1532 1523 1526 1533 2689 642 645 2281 2196 1865 2335 2100 1844 1845 1846 1847 1305 1616 1778 1306 2335 2094 496 495 362 1933 1934 1017 1798 1790 1531 1530 1806 1641 1505 1504 635 2656 2678 545 1388 1483 1484 1485 1370 1371 1372 1373 1630 1605 1631 1524 1135 1136 1137 1138 2035 2081 1986 1985 2313 2207 2210 2261 1673 1771 1793 1784 1389 1388 1485 1677 252 251 1553 1483 1598 1514 1368 1349 1883 1884 1885 1886 1655 1654 1678 1432 1407 1406 1635 1714 1526 1525 1385 1384 2706 2693 2360 2370 1525 1467 1469 1385 2178 2179 2117 1958 1971 1985 1988 1979 1836 1338 1685 1820 1612 1611 1759 1710 837 2502 1587 1586 59 2661 1271 362 1566 1565 1638 1695 1521 1572 1575 1522 1579 1578 1642 1643 1958 2117 2118 1959 1341 1342 1343 1344 1568 1529 1595 1634 2269 1189 2214 2298 2169 2101 2028 2307 1621 1441 1444 1622 887 922 2179 2178 2058 1969 637 219 818 817 2087 2086 2061 2342 2260 2259 1626 1697 1783 1410 642 643 644 645 2087 2042 2269 2088 1474 1475 1476 1477 1650 1687 1689 1732 1527 1528 1363 1362 1640 1532 1533 1608 535 429 1602 1603 1823 1504 1506 1828 1376 1377 1378 1379 590 1194 1564 1623 57 58 59 60 1540 1539 1718 1717 1824 1676 1479 1837 1632 1780 1515 1514 2149 2079 2177 2150 2685 2706 2370 2084 1374 1375 58 57 374 535 1603 1791 1801 1621 1622 1736 1959 2118 2297 2348 1605 1348 1351 1631 1770 1345 1347 1771 1338 1337 1527 1685 1660 1477 1767 1481 1639 1373 1532 1640 1753 1549 1376 1829 1991 1990 580 537 1505 1608 1435 1434 1544 1710 1593 1545 1706 1374 57 711 2223 1876 2195 2135 1873 1874 1875 1876 1280 1669 1329 1797 1425 1403 1294 1502 1328 1327 1589 1670 2359 2383 2384 2369 2245 1882 2208 2207 300 837 1586 297 1894 1893 2149 2148 2259 2260 2165 2164 2085 2356 2357 2060 1335 1336 1337 1338 1602 1624 1577 1576 1320 1319 704 1779 802 2014 388 387 1331 1745 1326 1325 1863 2262 2092 1864 2099 2100 1989 2101 1784 1793 1391 1390 1324 1323 1729 1680 1882 1881 1972 2208 1847 1846 2152 2170 1426 1425 1502 1501 1564 1317 1565 1566 1723 1818 1381 1380 1497 1498 1499 1500 2147 2376 1930 1929 1729 1500 1620 1313 2081 2147 1929 1986 2655 2718 2706 2685 1418 1417 1672 1671 1392 1753 1829 1550 1810 1715 1798 1726 2678 2685 2084 2059 1385 1469 1713 1386 1670 1589 1592 1653 984 985 986 987 1750 1706 711 710 1271 930 1933 362 1468 1803 1405 1404 1876 1875 1862 2195 1500 1499 1619 1620 645 644 2282 2281 986 2167 2301 2300 1533 1526 1384 1769 1432 1678 1517 1433 1461 1643 1474 1601 621 313 1453 1339 1485 1484 1807 1743 1222 1221 1738 1737 2134 2135 2136 2137 550 1892 1893 1894 2300 2301 631 340 1697 1696 1730 1783 1603 1602 1576 1815 10 1135 2664 629 1778 1779 1664 1780 1623 1564 1566 1609 1793 1792 1752 1391 1687 1688 1596 1689 1585 1588 2658 838 1347 1346 1308 1792 1480 1743 1445 1442 2369 2384 2356 2085 1987 1932 1845 1844 1934 2309 2376 2147 1711 1332 1644 1712 2034 498 336 2502 1736 1622 1819 1486 1433 1517 1496 1518 2101 1989 1991 2028 58 1680 1312 1478 1116 1117 1118 1119 1391 1752 1753 1392 609 2259 2164 2332 1403 1402 1099 1294 1117 2282 2529 1118 1628 1733 1371 1370 1664 1340 1665 1613 2177 2361 39 38 2028 1991 537 536 2348 2297 1914 1892 1482 1750 710 1100 1372 1630 1524 1523 1330 1742 1745 1331 1501 1502 597 1503 1803 1758 1567 1405 454 2410 1731 451 1321 1322 1323 1324 1816 1280 1276 2694 1717 1718 1431 1615 1653 1592 1760 1654 1345 375 1346 1347 1765 1604 1605 1630 1309 1815 1460 1310 1368 1516 1723 1369 1515 1613 1614 1516 1790 1625 1409 1531 1344 1343 1652 1539 1788 1837 1621 1801 1304 1305 1306 1307 1435 1769 1675 1322 2094 2093 218 496 2502 336 335 1587 1635 1634 1626 1625 1986 1929 1932 1987 2089 2088 2299 2337 1695 1638 1641 1806 2601 544 547 608 1829 1376 1379 1795 1520 1521 1522 1141 1339 1453 1676 1824 1198 1197 550 549 1845 2258 2331 1846 1915 2077 2078 2079 1119 1118 1221 1222 2664 2665 2666 987 543 542 635 634 2150 2177 38 293 1972 1971 1979 1978 1021 1211 1882 2245 1266 1265 375 1345 327 1817 2657 328 1386 1713 1715 1810 2135 2195 2196 2136 2298 2214 1874 1873 429 428 1624 1602 1969 1968 482 637 1524 1631 1467 1525 1448 1447 1611 1612 822 821 2035 1970 1529 1487 1594 1595 1874 2313 2261 1875 1499 1726 1727 1619 2281 2282 1117 1116 546 2061 2259 609 1310 1460 1461 1462 1595 1594 1696 1697 1777 1418 1671 1799 1197 2348 1892 550 1516 1614 1818 1723 1920 1883 1886 1921 1375 1324 1680 58 2213 2245 2207 2313 1933 2308 2309 1934 2195 1862 1865 2196 1818 1801 1736 1381 1222 1737 2689 1119 1022 1021 2245 2213 864 822 1970 1881 1608 1533 1769 1435 1431 1432 1433 327 326 327 328 329 2088 2269 2298 2299 2299 2298 1873 2222 1677 1485 1743 1480 1892 1914 1915 1893 1417 1700 1770 1672 1371 1765 1630 1372 2262 1951 1952 2092 240 1777 1799 1800 1682 1711 1712 1751 534 297 1586 1585 1167 227 2358 2215 1757 540 543 2598 2079 2078 2361 2177 1351 1350 1803 1468 1820 1685 1556 176 1378 1660 1481 1401 1678 1763 1411 1517 2214 2213 2313 1874 2151 2150 293 292 1514 1515 1516 1368 1017 1934 2147 2081 987 2666 2172 984 1419 1420 1421 1422 1846 2331 2153 2152 1377 1601 1660 1378 1443 1448 1612 1707 1445 1446 1447 1448 2092 1952 2058 2093 838 837 300 479 2222 1873 1876 2223 2282 644 643 2529 1957 1958 1959 1960 704 621 1339 1340 1486 1819 1420 1419 2337 2299 2222 2310 1696 451 1731 1730 1828 1506 1812 1822 1712 1644 1342 1341 353 2155 2014 802 </p>
</polylist>
<polylist count="1201" material="Material_51_102_51-material">
<input offset="0" semantic="VERTEX" source="#Plane-color-mesh-vertices"/>
<vcount>4 4 4 4 4 4 4 4 4 4 4 4 4 4 4 4 4 4 4 4 4 4 4 4 4 4 4 4 4 4 4 4 4 4 4 4 4 4 4 4 4 4 4 4 4 4 4 4 4 4 4 4 4 4 4 4 4 4 4 4 4 4 4 4 4 4 4 4 4 4 4 4 4 4 4 4 4 4 4 4 4 4 4 4 4 4 4 4 4 4 4 4 4 4 4 4 4 4 4 4 4 4 4 4 4 4 4 4 4 4 4 4 4 4 4 4 4 4 4 4 4 4 4 4 4 4 4 4 4 4 4 4 4 4 4 4 4 4 4 4 4 4 4 4 4 4 4 4 4 4 4 4 4 4 4 4 4 4 4 4 4 4 4 4 4 4 4 4 4 4 4 4 4 4 4 4 4 4 4 4 4 4 4 4 4 4 4 4 4 4 4 4 4 4 4 4 4 4 4 4 4 4 4 4 4 4 4 4 4 4 4 4 4 4 4 4 4 4 4 4 4 4 4 4 4 4 4 4 4 4 4 4 4 4 4 4 4 4 4 4 4 4 4 4 4 4 4 4 4 4 4 4 4 4 4 4 4 4 4 4 4 4 4 4 4 4 4 4 4 4 4 4 4 4 4 4 4 4 4 4 4 4 4 4 4 4 4 4 4 4 4 4 4 4 4 4 4 4 4 4 4 4 4 4 4 4 4 4 4 4 4 4 4 4 4 4 4 4 4 4 4 4 4 4 4 4 4 4 4 4 4 4 4 4 4 4 4 4 4 4 4 4 4 4 4 4 4 4 4 4 4 4 4 4 4 4 4 4 4 4 4 4 4 4 4 4 4 4 4 4 4 4 4 4 4 4 4 4 4 4 4 4 4 4 4 4 4 4 4 4 4 4 4 4 4 4 4 4 4 4 4 4 4 4 4 4 4 4 4 4 4 4 4 4 4 4 4 4 4 4 4 4 4 4 4 4 4 4 4 4 4 4 4 4 4 4 4 4 4 4 4 4 4 4 4 4 4 4 4 4 4 4 4 4 4 4 4 4 4 4 4 4 4 4 4 4 4 4 4 4 4 4 4 4 4 4 4 4 4 4 4 4 4 4 4 4 4 4 4 4 4 4 4 4 4 4 4 4 4 4 4 4 4 4 4 4 4 4 4 4 4 4 4 4 4 4 4 4 4 4 4 4 4 4 4 4 4 4 4 4 4 4 4 4 4 4 4 4 4 4 4 4 4 4 4 4 4 4 4 4 4 4 4 4 4 4 4 4 4 4 4 4 4 4 4 4 4 4 4 4 4 4 4 4 4 4 4 4 4 4 4 4 4 4 4 4 4 4 4 4 4 4 4 4 4 4 4 4 4 4 4 4 4 4 4 4 4 4 4 4 4 4 4 4 4 4 4 4 4 4 4 4 4 4 4 4 4 4 4 4 4 4 4 4 4 4 4 4 4 4 4 4 4 4 4 4 4 4 4 4 4 4 4 4 4 4 4 4 4 4 4 4 4 4 4 4 4 4 4 4 4 4 4 4 4 4 4 4 4 4 4 4 4 4 4 4 4 4 4 4 4 4 4 4 4 4 4 4 4 4 4 4 4 4 4 4 4 4 4 4 4 4 4 4 4 4 4 4 4 4 4 4 4 4 4 4 4 4 4 4 4 4 4 4 4 4 4 4 4 4 4 4 4 4 4 4 4 4 4 4 4 4 4 4 4 4 4 4 4 4 4 4 4 4 4 4 4 4 4 4 4 4 4 4 4 4 4 4 4 4 4 4 4 4 4 4 4 4 4 4 4 4 4 4 4 4 4 4 4 4 4 4 4 4 4 4 4 4 4 4 4 4 4 4 4 4 4 4 4 4 4 4 4 4 4 4 4 4 4 4 4 4 4 4 4 4 4 4 4 4 4 4 4 4 4 4 4 4 4 4 4 4 4 4 4 4 4 4 4 4 4 4 4 4 4 4 4 4 4 4 4 4 4 4 4 4 4 4 4 4 4 4 4 4 4 4 4 4 4 4 4 4 4 4 4 4 4 4 4 4 4 4 4 4 4 4 4 4 4 4 4 4 4 4 4 4 4 4 4 4 4 4 4 4 4 4 4 4 4 4 4 4 4 4 4 4 4 4 4 4 4 4 4 4 4 4 4 4 4 4 4 4 4 4 4 4 4 4 4 4 4 4 4 4 4 4 4 4 4 4 4 4 4 4 4 4 4 4 4 4 4 4 4 4 4 4 4 4 4 4 4 4 4 4 4 4 4 4 4 4 4 4 4 4 4 4 4 4 4 4 4 4 4 4 4 4 4 4 4 4 4 4 4 4 4 4 4 4 4 4 4 4 4 4 4 4 4 4 4 4 4 4 4 4 4 4 4 4 4 4 4 4 4 4 4 4 4 4 4 4 4 4 4 4 4 4 4 4 4 4 4 4 4 4 4 4 4 4 4 4 4 4 4 4 4 4 4 4 4 4 4 4 4 4 4 4 4 4 4 4 4 4 4 4 4 4 4 4 4 4 4 4 4 4 4 4 4 4 4 4 4 4 4 4 4 4 4 4 4 4 4 4 4 4 4 4 4 4 4 4 4 4 4 4 4 4 4 4 4 4 4 4 4 4 4 4 4 4 4 4 4 4 4 4 4 4 4 4 4 4 4 4 4 4 4 4 4 4 4 4 4 4 4 4 4 4 4 4 4 4 4 4 4 4 4 4 4 4 4 4 4 </vcount>
<p>1257 1231 1258 1028 1151 1187 1266 1152 1395 1027 702 2424 2460 2536 1591 1590 1659 1658 1607 1606 520 519 382 381 1037 1036 1114 1115 801 802 803 804 2364 2266 2003 2286 440 208 441 442 725 628 1794 766 2345 2054 2481 2504 2657 474 475 1843 2054 1890 2434 2481 656 2015 2674 171 1973 1880 1172 2203 2153 2331 2639 2638 297 298 299 300 890 812 954 806 2571 2704 2367 2236 2125 2253 2675 2676 586 255 271 614 1938 1937 2016 2080 309 308 2145 2144 2291 2290 2197 1981 1242 669 672 1240 2694 1276 1275 1813 556 601 396 395 300 299 613 612 307 526 527 308 330 596 43 42 973 972 1616 1305 1213 1292 1109 1214 2504 2481 2483 2520 979 1494 2649 976 25 574 575 602 2203 1172 1872 1871 139 362 1271 1785 964 2163 379 965 1897 1926 737 736 746 747 748 749 872 871 916 1043 525 215 217 418 1905 1966 2350 2290 886 921 922 887 2557 2548 2551 2558 592 594 2317 2268 1478 168 169 2661 1077 934 1171 1078 2625 2624 2645 2644 536 537 411 319 2043 2345 2504 2505 2578 304 606 2593 454 453 464 533 2314 2295 2199 2377 676 675 863 907 606 93 96 607 2712 2610 2613 2701 292 293 294 191 1078 1171 999 1160 1020 907 1211 1021 1990 495 497 2285 856 855 1089 1073 1131 1130 561 560 220 585 468 574 247 121 124 248 796 965 1046 1047 2623 2713 2712 2624 1694 517 520 1273 2568 306 309 2144 2158 2068 1508 1607 1155 782 1418 1777 633 1200 1870 512 601 417 420 396 318 319 320 321 328 2657 1843 491 230 298 442 227 2339 1996 1998 2251 40 2716 1137 8 1656 1657 1658 1659 1243 1244 1245 810 2274 2273 121 247 580 1185 1186 1187 264 530 277 276 1076 1143 1813 1814 1842 1843 475 569 202 203 204 205 462 463 151 150 205 43 596 202 757 1395 2424 691 91 84 526 307 2227 2226 2698 2697 243 244 245 246 2239 2238 2312 651 2253 2227 2697 2675 921 1007 1274 922 978 1162 1782 1495 855 1133 1090 1089 2142 2204 2119 2256 367 484 201 200 2198 2203 1871 1887 1859 1858 2072 2354 2401 2400 2086 2089 1188 1019 1022 1189 1930 2376 2560 2561 530 529 108 277 1278 1262 1263 1267 1170 1190 994 1035 1082 1243 810 809 2247 2230 2248 2073 1053 1079 1159 977 982 794 1071 1072 1189 2041 2336 1188 1298 1636 1841 842 430 431 432 51 2536 2537 1761 1591 1033 1004 1088 751 1063 1152 1266 1700 2240 2351 2339 2241 561 935 936 937 1858 2247 2073 2072 1918 1946 2009 2010 2229 2291 1981 1980 2241 2339 2251 2267 75 116 503 502 897 757 691 690 1410 1783 538 98 355 354 2205 1110 244 511 1834 1835 2697 2698 2699 2549 2224 558 1039 1038 2122 2121 2266 2364 1887 1871 686 705 625 423 122 121 1228 1816 2694 1144 142 137 81 90 1218 889 805 1093 521 494 1122 1134 1574 1503 571 570 764 903 904 871 160 161 162 163 2433 2432 2169 2307 916 915 895 1044 2613 2612 2156 2157 136 42 45 82 1584 1768 1174 1183 493 339 991 1123 878 1084 1070 1261 323 393 392 2545 2708 2687 2688 2671 135 134 814 813 1054 1053 977 976 1145 842 1841 1768 1709 801 1110 422 1906 1905 2290 2291 1919 1918 2010 1857 271 270 317 456 2044 2043 2505 2492 53 52 727 726 2006 2005 2216 1944 2251 1998 1852 2139 2585 2568 2144 2146 2645 2701 2363 2334 2305 2257 2021 2020 2594 607 664 2287 954 1005 921 886 844 1077 1078 1079 351 195 869 1003 1228 1227 1666 1816 967 856 1073 968 121 2273 1292 625 833 765 872 1074 139 1785 1282 140 553 403 404 554 84 83 370 526 631 632 500 476 911 912 913 914 622 586 614 518 2016 2017 2018 2019 1250 1032 1033 1251 2492 2505 2521 2493 755 1179 1827 1826 1760 1761 1762 1763 455 456 133 132 1262 1246 677 1263 2408 2404 2398 2409 273 247 248 274 2191 2190 1662 1661 1144 1132 1227 1228 222 346 998 901 412 480 300 612 2519 2518 2337 2310 951 950 972 973 396 420 421 397 510 492 511 244 2687 2617 2619 2688 1141 1522 462 472 2654 2715 2718 2655 732 846 847 848 2431 2493 2511 2432 2350 1973 2203 2198 2484 2466 2489 2490 993 1127 1055 903 388 656 171 170 2204 2192 2120 2119 997 705 706 970 853 854 855 856 476 500 501 477 2580 2653 2656 635 1917 1943 1946 1918 2683 2609 2634 2715 1080 2312 2703 1241 2641 2640 2586 2704 1589 1590 1591 1592 799 902 956 1084 2303 2304 2305 2306 161 460 206 162 2351 2249 1996 2339 2017 2044 2492 2491 508 2250 2535 505 1034 1035 1036 1037 2653 2654 2655 2656 217 216 259 583 1890 1889 2408 2434 1903 1904 1905 1906 2217 1919 1857 1856 2113 1941 2719 2713 2554 2595 2289 2292 2068 2067 1509 1508 196 197 198 199 996 997 970 840 43 238 19 44 369 2497 2430 321 44 19 22 31 992 722 725 1133 1835 1834 539 67 1636 1176 1175 1841 1079 1078 1160 1159 1395 1394 1028 1027 2041 205 708 2336 2176 1887 705 997 1057 983 1013 1012 2679 2638 2641 2570 387 388 170 389 935 1081 1083 936 1747 1109 1292 625 233 358 1273 1721 651 2312 1080 1206 701 700 1237 708 285 284 2132 2133 1161 1000 1633 1781 782 781 1417 1418 1698 1699 390 17 570 571 330 269 1061 1270 1082 1081 140 2206 1016 820 423 2280 1110 422 759 1054 387 1709 1510 1509 1830 1355 2555 2554 2292 2128 1889 2064 2404 2408 1730 1731 444 443 2083 2082 2321 2322 223 224 225 226 1998 1997 1853 1852 2379 2327 2623 2622 294 41 7 433 190 191 192 193 308 527 1250 2145 1242 2565 2669 1267 2119 2120 2121 2122 218 219 220 24 191 294 433 192 129 76 130 131 748 1170 1035 1034 2719 2710 2611 2610 377 378 379 380 649 246 1627 1535 1814 1248 1247 1637 1093 805 808 1094 423 295 221 122 2520 2483 2486 2485 317 73 76 129 225 629 636 581 26 25 1285 1870 519 455 132 382 950 690 693 972 1783 1730 443 538 472 462 150 473 1411 1412 102 101 1857 2010 2247 1858 633 1794 1201 1200 2074 1992 791 981 77 78 79 80 2624 2712 2701 2645 567 521 1134 1009 1313 1620 438 12 389 2205 802 387 369 368 521 567 463 570 269 151 2602 2603 2083 2322 411 555 179 178 352 353 354 355 170 171 172 173 341 476 477 478 2063 1250 1251 2405 234 233 1721 1722 96 95 285 655 1050 816 1104 1272 1212 1213 1214 1215 123 222 901 798 2316 2315 2366 2367 1826 1827 1231 1257 496 218 24 23 2264 2267 2138 2265 1092 1091 1185 580 2713 2719 2610 2712 1282 1252 2206 140 207 214 288 289 137 136 82 81 2067 2371 1830 1509 1518 1496 182 486 1583 1230 1231 1827 482 352 355 483 2146 2062 2065 2156 1940 2387 2709 2710 381 382 383 384 31 22 32 33 1009 1134 1031 1010 2398 2399 2400 2401 1747 422 1110 1109 2543 2476 1412 1762 2188 2187 2385 2372 2688 2619 2389 2391 1084 956 1052 1070 819 820 821 822 1012 1013 755 754 2002 130 301 2577 121 122 123 124 2491 2492 2493 2431 2595 2594 2287 2289 1891 1890 2054 2055 321 2430 2433 318 442 441 228 227 889 890 806 805 2461 2460 1590 1693 2306 2305 2020 2378 131 130 2002 880 839 840 841 842 2674 2679 2570 2569 228 2143 2304 2303 655 285 2133 2288 1663 1662 415 1239 124 123 798 797 845 844 1079 1053 1926 1999 795 737 1035 994 911 1036 41 40 8 7 1039 558 2365 1260 1048 1049 1050 1051 781 1063 1700 1417 2270 2023 2271 2272 2302 2191 1661 1764 968 1073 789 788 558 234 1722 1269 633 1200 1203 1185 467 1684 1699 464 695 834 783 696 284 592 2268 2132 814 880 881 815 632 1121 980 1056 538 443 15 29 1200 23 26 1870 1946 1945 1984 2009 39 2361 2716 40 1109 1110 801 1111 1224 1051 2102 1861 981 791 794 982 1055 1056 1057 1058 963 736 739 734 1225 1199 1143 1076 2597 2596 2599 2618 2490 2489 1741 1547 30 18 256 529 358 2233 1169 906 1935 1936 1937 1938 169 14 255 586 1002 1001 1268 1264 966 967 968 969 983 982 1072 1013 76 75 502 130 492 1842 1834 511 2485 2486 2311 2134 278 111 424 425 518 614 455 519 2551 2550 1938 2080 2015 2154 2679 2674 1112 1008 1011 1113 976 977 978 979 17 390 161 160 90 81 84 91 972 693 1320 1616 2254 2255 1936 1935 304 303 93 606 1785 1271 586 622 81 82 83 84 151 269 136 137 208 207 289 441 108 109 110 111 1133 725 766 1090 1176 1247 1248 1249 912 2490 1547 913 2603 881 880 2083 790 1151 1152 1063 2327 2113 2713 2623 416 212 77 347 1261 1070 422 1747 2522 2461 1693 1692 107 106 342 116 842 841 1225 1298 254 367 200 270 755 1826 1394 756 1861 2102 905 674 2200 2352 2353 1964 2577 301 304 2578 2013 2006 1944 1943 1937 2044 2017 2016 2481 2434 2482 2483 699 729 1269 700 728 1224 1861 1860 2586 2587 2049 2316 1900 2302 2371 1901 937 936 889 1218 2410 16 444 1731 1031 853 856 967 1964 2353 1877 1965 1965 1877 1880 1973 98 538 29 99 33 32 194 195 272 273 274 275 1240 2562 2565 1242 698 699 700 701 2400 753 818 2086 2144 2145 2062 2146 2078 2077 2629 2686 2073 2248 1993 1992 2409 2398 2401 2518 2699 2625 2644 2620 2294 2293 2683 2684 970 706 746 971 1966 1965 1973 2350 522 442 298 297 778 777 1077 844 628 1361 1212 1285 1709 387 802 801 2194 2241 2267 2264 2570 2641 2704 2571 1248 1275 1276 1277 193 192 223 403 1043 916 1044 857 2012 2013 1943 1917 1047 1046 1124 1229 2286 2003 2006 2013 1072 1071 1584 1583 422 389 295 423 797 798 799 800 110 440 442 522 969 968 788 1207 2053 2052 1246 1262 779 780 781 782 2361 2078 2686 2716 1127 1126 1056 1055 591 384 1048 1223 1944 2216 1903 1945 21 430 51 50 205 204 238 43 1285 1212 1215 1201 2023 2022 2012 2271 1996 508 1997 1998 1870 1285 628 512 1264 1268 1304 1725 2121 2264 2265 2266 1722 1721 431 430 2476 103 102 1412 2005 2314 2377 2216 347 77 80 105 2596 928 1236 2599 106 568 196 342 2186 2158 1607 1658 793 839 842 1145 2404 2405 2399 2398 2185 2186 2187 2188 2599 1236 881 2603 933 730 733 934 2266 2265 2004 2003 942 941 1167 1153 1503 597 595 571 2322 2321 2388 2389 7 8 9 10 558 1269 729 2365 439 509 484 367 1698 17 16 2410 870 726 729 699 2432 2511 2168 2169 2493 2521 2499 2511 1115 1114 914 1667 998 1206 775 955 172 2569 2566 593 554 404 599 600 192 433 224 223 537 580 555 411 2330 2274 247 273 2630 2700 2653 2580 1052 845 1053 1054 532 584 2351 2240 2618 2599 2603 2602 1268 973 1305 1304 2189 2190 2191 2071 321 320 368 369 24 220 574 25 2233 1272 1282 140 2371 2302 1764 1830 2486 2519 2310 2311 730 731 732 733 673 674 675 676 2505 2504 2520 2521 420 419 532 421 683 682 1155 909 1312 1313 12 11 483 355 657 469 2309 2308 2596 2597 1174 1175 1176 1177 394 114 113 391 1090 633 1185 1091 138 139 140 141 932 920 877 723 2003 2004 2005 2006 253 528 530 264 812 811 1005 954 2548 2549 2550 2551 509 416 347 484 2676 2675 2548 2557 2304 2256 2257 2305 260 882 885 290 293 38 41 294 1162 1161 1781 1782 1817 1518 486 641 1110 2205 389 422 2278 2162 1008 1112 2644 2645 2334 2254 580 1990 2285 555 696 783 731 730 1108 412 612 940 613 299 298 230 1237 19 238 204 1627 1724 601 556 1945 1903 1906 1984 2077 2246 2630 2629 2639 2646 2647 2640 105 80 106 107 2675 2697 2549 2548 82 45 434 83 301 302 303 304 1217 996 840 839 380 379 1838 1831 2022 2286 2013 2012 182 183 184 185 168 11 14 169 2273 470 469 1292 914 913 1547 1548 288 398 2204 2142 2582 2600 1910 1913 389 170 173 295 346 651 1206 998 473 150 142 559 955 775 778 843 1227 1115 1667 1666 397 421 2193 2192 2126 2125 2676 2648 871 904 915 916 211 100 253 78 533 464 1699 1698 133 129 131 134 564 193 403 553 694 695 696 697 2686 2629 541 1756 1123 991 992 854 708 1237 366 2336 339 275 931 991 178 179 180 181 29 15 18 30 421 532 2240 2193 214 395 398 288 1016 2206 362 1017 464 465 466 467 1785 622 518 1282 162 206 207 208 789 1092 1151 790 210 97 100 211 895 896 897 898 478 477 378 377 602 575 2330 2368 2004 2141 2314 2005 706 689 747 746 73 74 75 76 104 184 183 101 2246 2296 2700 2630 1080 694 697 776 806 954 886 807 2062 2063 2064 2065 579 578 2343 2344 1051 1050 1272 1273 585 483 469 468 539 525 418 417 2290 2350 2198 2197 2629 2630 2580 541 494 493 1123 1122 232 141 358 233 999 825 828 1000 283 450 592 284 896 754 757 897 2550 2620 1935 1938 2138 2139 2140 2141 749 748 1034 1045 898 897 690 950 1076 1814 1637 1225 319 411 178 320 296 593 651 346 1004 698 701 1088 1159 1160 1161 1162 1003 869 698 1004 2295 2263 2200 2199 810 1245 1040 811 700 1269 558 2224 1045 1034 1037 1132 2249 2250 508 1996 788 789 790 780 1684 161 390 1699 1860 1861 674 673 181 180 493 494 979 978 1495 1494 2559 2558 2184 2278 51 432 591 52 529 256 109 108 571 595 596 330 962 963 734 678 382 132 135 383 1104 1103 927 1252 340 631 476 341 1636 1637 1247 1176 1237 1318 20 19 2265 2138 2141 2004 1200 1201 1202 1203 403 223 226 404 1496 101 183 182 95 283 284 285 901 998 955 902 1606 1607 1508 1507 2716 2686 1756 1137 2156 2065 1888 2157 843 778 844 845 920 797 800 877 441 289 2143 228 1992 1993 792 791 2009 1984 2229 2230 533 1698 2410 454 2715 2634 2635 2718 2071 2191 2302 1900 2584 2567 2568 2585 690 691 692 693 1478 1312 11 168 931 932 723 722 1081 1082 809 1083 2560 2597 2618 2617 2248 1980 1983 1993 180 338 339 493 674 905 906 675 1070 1052 1054 759 2287 2288 2037 2289 2331 2258 2646 2639 941 230 227 1167 2349 2053 1262 1278 2698 2622 2625 2699 1252 927 930 1271 173 172 593 296 1089 1090 1091 1092 707 708 205 709 1745 1744 1692 1326 132 133 134 135 956 843 845 1052 433 7 10 224 2236 2237 2238 2239 8 1137 1136 9 2619 2602 2322 2389 342 196 199 343 42 43 44 45 2549 2699 2620 2550 792 1217 839 793 244 1835 1724 245 2701 2613 2157 2363 1058 1057 1012 1208 737 795 796 738 419 583 584 532 1154 1153 1244 1243 394 393 323 322 907 863 864 1211 391 113 184 104 1298 1225 1637 1636 568 276 197 196 1010 1031 967 966 2020 2021 2022 2023 2617 2618 2602 2619 1534 1535 213 206 1088 701 708 707 527 371 1032 1250 2610 2611 2612 2613 79 264 276 568 2499 2485 2134 2137 2267 2251 2139 2138 1019 366 2224 1038 827 1264 1725 1456 398 397 2192 2204 130 502 302 301 38 39 40 41 2387 2373 2637 2709 1241 685 694 1080 2066 2067 2068 2069 2102 1051 1273 358 903 1055 1058 904 724 879 1519 1361 450 402 594 592 2018 2017 2491 2497 50 51 52 53 574 468 471 575 1169 2233 140 820 1240 672 685 1241 612 613 230 941 1981 2197 2176 1982 555 633 512 179 1267 1263 669 1242 1013 1072 1179 755 152 717 938 263 2661 169 586 1271 1036 911 914 1114 1160 999 1000 1161 443 444 16 15 783 1074 1146 731 919 600 587 588 2184 2019 2162 2278 424 522 297 534 202 596 595 597 807 886 887 888 971 746 749 1199 584 605 2249 2351 320 178 181 368 847 858 1001 1002 2511 2499 2137 2168 318 2433 2307 647 841 971 1199 1225 2710 2709 2584 2611 215 115 216 217 384 383 1049 1048 1193 969 1207 681 492 491 1843 1842 52 591 1223 727 22 21 50 32 1507 1508 1509 1510 2021 2364 2286 2022 780 790 1063 781 1721 1273 520 431 2482 2409 2518 2519 1943 1944 1945 1946 1826 1257 1028 1394 179 512 338 180 1273 1272 2233 358 600 599 156 587 248 124 797 920 1121 2074 981 980 60 59 362 139 583 259 605 584 725 724 1361 628 2255 2345 2043 1936 2367 2366 2237 2236 1852 1853 1854 1855 582 581 85 157 2271 2012 1917 1916 2391 2390 2047 2046 2671 2688 2391 2046 1239 415 412 1108 2434 2408 2409 2482 2160 2050 2053 2349 567 2018 2497 369 194 53 726 870 479 300 480 481 206 213 214 207 650 649 1535 1534 754 755 756 757 2293 2320 2609 2683 213 556 395 214 834 833 1074 783 1171 961 825 999 1223 1048 1051 1224 1269 1722 430 21 751 1088 707 752 2593 606 607 2594 468 469 470 471 2159 2158 2186 2185 727 1223 1224 728 1071 1145 1768 1584 1220 1219 1191 1190 1230 1183 1184 1231 977 1159 1162 978 475 446 215 525 1124 1125 1126 1127 1044 895 898 949 2197 2198 1887 2176 1251 1033 751 750 1999 2163 964 795 2019 2018 567 2162 1241 2703 2562 1240 275 274 932 931 434 31 33 350 1727 1530 209 548 2682 2561 2687 2708 2187 2186 1658 1657 32 50 53 194 14 13 254 255 541 2580 635 542 2544 2545 2476 2543 809 810 811 812 569 475 525 539 854 992 1133 855 1620 1619 531 438 2569 2570 2571 2566 2700 2684 2654 2653 474 445 446 475 2587 2671 2046 2049 481 480 577 576 794 793 1145 1071 276 277 278 197 880 2002 2082 2083 1056 980 983 1057 2523 2522 1692 1744 648 243 246 649 404 226 582 599 1356 1764 1661 1511 2521 2520 2485 2499 1835 67 601 1724 83 434 350 370 2518 2401 2089 2337 456 317 129 133 846 857 858 847 1531 1409 97 210 753 752 817 818 2308 929 928 2596 163 162 208 440 991 931 722 992 2263 2220 2352 2200 2010 2009 2230 2247 848 847 1002 826 1534 206 460 1683 593 2566 2239 651 752 707 709 817 965 379 378 1046 2336 366 1019 1188 1817 641 474 2657 1583 1584 1183 1230 2120 2194 2264 2121 383 135 813 1049 879 878 625 1519 1742 1741 1744 1745 961 848 826 825 67 539 417 601 2292 2040 2107 2128 1049 813 816 1050 805 806 807 808 1090 766 1794 633 517 518 519 520 1208 1012 754 896 329 328 491 492 11 12 13 14 1260 673 676 1039 2556 2557 2558 2559 863 819 822 864 2648 2676 2557 2556 365 231 234 558 197 278 425 198 647 536 319 318 231 232 233 234 2190 2343 415 1662 224 10 629 225 101 102 103 104 791 792 793 794 940 612 941 942 1941 1940 2710 2719 2334 2055 2255 2254 680 681 682 683 1831 1838 1657 1656 599 582 157 156 467 466 1683 1684 370 350 351 371 2376 2309 2597 2560 1763 1762 1412 1411 1535 1627 556 213 2320 1274 1007 2609 2622 2623 2624 2625 200 201 74 73 112 113 114 115 682 779 782 1155 636 2300 340 86 295 173 296 221 1361 1519 1213 1212 1519 625 1292 1213 795 964 965 796 1327 1693 1590 1589 757 756 1394 1395 2226 2379 2622 2698 2272 2271 1916 2375 111 110 522 424 109 163 440 110 1092 580 1187 1151 2199 2200 1964 1963 2378 2020 2023 2270 1910 1911 1912 1913 1008 1009 1010 1011 949 898 950 951 2343 578 577 415 705 686 689 706 736 737 738 739 100 99 528 253 2143 2142 2256 2304 469 657 2280 1292 697 696 730 933 2405 1251 750 2399 664 655 2288 2287 477 501 1125 1124 1011 1010 966 1165 729 728 1860 2365 820 1016 1017 821 484 347 105 201 1130 1062 935 561 2385 2187 1657 1838 1146 1043 857 846 1511 1661 1662 1663 2216 2377 1904 1903 731 1146 846 732 2375 1916 1919 2217 2483 2482 2519 2486 74 107 116 75 78 253 264 79 2052 2161 962 1246 391 392 393 394 274 248 920 932 97 98 99 100 366 1237 700 2224 528 30 529 530 2365 1860 673 1260 495 496 23 497 2389 2388 2390 2391 2296 2294 2684 2700 80 79 568 106 815 881 1236 1103 1872 1172 1147 2421 2258 1931 2682 2646 581 636 86 85 828 827 1456 1457 1038 1039 1020 1019 2709 2637 2567 2584 1206 1080 776 775 776 697 933 777 681 1207 779 682 1901 2371 2067 2066 209 210 211 212 2064 2063 2405 2404 628 1285 1201 1794 1684 1683 460 161 548 209 212 416 628 1285 2368 272 2344 2343 2190 2189 219 637 585 220 1548 1547 1741 1742 1125 501 500 1126 576 577 578 579 2080 2016 2019 2184 2634 1006 1040 2635 1261 1747 625 878 366 365 1318 1237 1032 1003 1004 1033 2163 2385 1838 379 2157 1888 1891 2363 1190 1191 995 994 777 933 934 1077 141 140 1282 1694 19 20 21 22 2154 2153 2638 2679 614 271 456 455 1983 1982 996 1217 269 330 42 136 1522 1575 463 462 2140 1855 2263 2295 813 814 815 816 927 928 929 930 1074 872 1043 1146 1113 2559 2278 1112 594 603 2318 2317 2669 2583 2160 2349 1019 1020 1021 1022 1143 1045 1132 1144 1931 1930 2561 2682 2609 1007 1006 2634 558 1269 1318 365 902 955 843 956 2489 2523 1744 1741 1191 1219 2484 995 486 182 185 445 607 96 655 664 2285 1200 633 555 150 151 137 142 1984 1906 2291 2229 221 296 346 222 2280 657 355 1110 2684 2683 2715 2654 466 648 649 650 1888 1889 1890 1891 1144 2694 1813 1143 909 1155 1777 240 2289 2037 2040 2292 2206 1252 1271 362 2561 2560 2617 2687 1103 1236 928 927 2065 2064 1889 1888 185 184 113 112 691 2424 1319 692 2704 2586 2316 2367 2611 2584 2585 2612 1575 1574 570 463 2647 2708 2671 2587 1073 1089 1092 789 212 211 78 77 1619 1727 548 531 2612 2585 2146 2156 750 751 752 753 2354 2072 2074 1121 2145 1250 2063 2062 765 764 871 872 641 486 445 474 246 245 1724 1627 1916 1917 1918 1919 407 894 714 155 1980 1981 1982 1983 1072 1583 1827 1179 1913 1912 2050 2160 116 342 343 503 1904 1963 1966 1905 306 307 308 309 1993 1983 1217 792 395 396 397 398 141 1694 1273 358 277 108 111 278 2368 2330 273 272 905 2102 358 906 445 185 112 446 2193 2240 2241 2194 800 799 1084 878 2430 2431 2432 2433 2640 2647 2587 2586 2363 1891 2055 2334 1246 962 678 677 904 1058 1208 915 798 901 902 799 338 272 275 339 526 370 371 527 2230 2229 1980 2248 575 471 2274 2330 1207 788 780 779 2141 2140 2295 2314 350 33 195 351 431 520 381 432 2192 2193 2194 2120 1814 1813 1275 1248 1005 1006 1007 921 2049 2048 2315 2316 811 1040 1006 1005 155 714 717 152 1000 828 1457 1633 2072 2073 1992 2074 2646 2682 2708 2647 1694 1282 518 517 99 29 30 528 2257 2122 2364 2021 1046 378 477 1124 122 221 222 123 858 949 951 1001 432 381 384 591 401 576 579 603 270 200 73 317 1355 1830 1764 1356 371 351 1003 1032 418 217 583 419 2399 750 753 2400 1270 1154 1243 1082 1027 1028 703 702 2161 1898 963 962 1122 1123 854 853 2566 2571 2236 2239 2162 567 1009 1008 1409 1410 98 97 816 815 1103 1104 1132 1037 1115 1227 1592 1591 1761 1760 1039 676 907 1020 2069 2068 2158 2159 726 727 728 729 2372 2385 2163 1999 12 438 439 13 15 16 17 18 869 870 699 698 1062 1061 1081 935 1856 1857 1858 1859 2256 2119 2122 2257 915 1208 896 895 2558 2551 2080 2184 906 1169 820 819 1285 25 602 2368 723 877 879 724 877 800 878 879 1292 2280 423 625 2497 2491 2431 2430 2528 323 2545 2544 980 981 982 983 2620 2644 2254 1935 13 439 367 254 1126 500 632 1056 363 364 365 366 497 23 1200 2285 531 548 416 509 775 776 777 778 733 732 848 961 1768 1841 1175 1174 289 288 2142 2143 368 181 494 521 402 401 603 594 1083 809 812 890 195 194 870 869 1898 1897 736 963 415 577 480 412 1267 2669 2349 1278 1963 1964 1965 1966 934 733 961 1171 2205 354 353 802 722 723 724 725 1219 2463 2466 2484 1134 1122 853 1031 201 105 107 74 603 579 2344 2318 446 112 115 215 2638 2639 2640 2641 675 906 819 863 976 2649 387 1054 825 826 827 828 637 482 483 585 23 24 25 26 256 160 163 109 693 692 1319 1320 2583 2582 1913 2160 45 44 31 434 857 1044 949 858 1269 21 20 1318 512 628 272 338 2377 2199 1963 1904 650 1534 1683 466 18 17 160 256 417 418 419 420 1183 1174 1177 1184 1855 1854 2220 2263 1001 951 973 1268 1982 2176 997 996 471 470 2273 2274 840 970 971 841 826 1002 1264 827 1165 966 969 1193 171 2674 2569 172 263 938 882 260 2055 2054 2345 2255 1936 2043 2044 1937 638 190 193 564 226 225 581 582 759 1709 422 1070 1530 1531 210 209 255 254 270 271 1842 569 539 1834 2537 2543 1762 1761 1199 749 1045 1143 1326 1692 1693 1327 366 1237 204 363 438 531 509 439 1272 1104 1252 1282 2046 2047 2048 2049 2139 1852 1855 2140 134 131 880 814 936 1083 890 889 </p>
</polylist>
<polylist count="437" material="Material_51_51_51-material">
<input offset="0" semantic="VERTEX" source="#Plane-color-mesh-vertices"/>
<vcount>4 4 4 4 4 4 4 4 4 4 4 4 4 4 4 4 4 4 4 4 4 4 4 4 4 4 4 4 4 4 4 4 4 4 4 4 4 4 4 4 4 4 4 4 4 4 4 4 4 4 4 4 4 4 4 4 4 4 4 4 4 4 4 4 4 4 4 4 4 4 4 4 4 4 4 4 4 4 4 4 4 4 4 4 4 4 4 4 4 4 4 4 4 4 4 4 4 4 4 4 4 4 4 4 4 4 4 4 4 4 4 4 4 4 4 4 4 4 4 4 4 4 4 4 4 4 4 4 4 4 4 4 4 4 4 4 4 4 4 4 4 4 4 4 4 4 4 4 4 4 4 4 4 4 4 4 4 4 4 4 4 4 4 4 4 4 4 4 4 4 4 4 4 4 4 4 4 4 4 4 4 4 4 4 4 4 4 4 4 4 4 4 4 4 4 4 4 4 4 4 4 4 4 4 4 4 4 4 4 4 4 4 4 4 4 4 4 4 4 4 4 4 4 4 4 4 4 4 4 4 4 4 4 4 4 4 4 4 4 4 4 4 4 4 4 4 4 4 4 4 4 4 4 4 4 4 4 4 4 4 4 4 4 4 4 4 4 4 4 4 4 4 4 4 4 4 4 4 4 4 4 4 4 4 4 4 4 4 4 4 4 4 4 4 4 4 4 4 4 4 4 4 4 4 4 4 4 4 4 4 4 4 4 4 4 4 4 4 4 4 4 4 4 4 4 4 4 4 4 4 4 4 4 4 4 4 4 4 4 4 4 4 4 4 4 4 4 4 4 4 4 4 4 4 4 4 4 4 4 4 4 4 4 4 4 4 4 4 4 4 4 4 4 4 4 4 4 4 4 4 4 4 4 4 4 4 4 4 4 4 4 4 4 4 4 4 4 4 4 4 4 4 4 4 4 4 4 4 4 4 4 4 4 4 4 4 4 4 4 4 4 4 4 4 4 4 4 4 4 4 4 4 4 4 4 4 4 </vcount>
<p>64 305 1352 1353 2358 227 230 2692 1440 1580 2446 2440 1690 1353 1427 1691 2651 2650 1830 1509 2237 2366 2660 2691 2031 2279 1907 2283 1449 1452 2650 2651 1805 1804 613 612 0 2407 917 27 677 678 679 670 2008 2159 2185 1948 2324 2323 2425 2452 2183 2070 1899 2279 1449 1450 1451 1452 2050 2051 2052 2053 2048 2047 2614 2677 1705 1704 1804 1805 2 4 5 6 503 343 386 504 1436 1606 1507 1455 1454 1455 1359 1358 1705 1805 2681 2573 738 796 1047 860 1069 1068 946 945 1645 1796 1748 1735 2279 1899 1902 1907 2097 2076 2508 2509 2572 2573 1661 1764 2690 2667 1451 1450 1976 2091 1994 2325 1440 1413 1416 1580 2579 2578 2593 2592 2631 2588 2591 2581 1 286 4 2 831 832 833 834 2231 1995 1895 2232 3 2406 2407 0 1232 1101 1102 1014 357 449 450 283 2384 2383 2680 2668 279 280 281 282 2123 2372 1999 1926 2312 2238 2702 2703 302 504 331 303 1850 1977 2011 1911 2427 989 1128 563 2626 2552 2555 2627 477 501 1617 1618 2440 2446 2449 2441 2636 2652 1808 1774 2439 2440 2441 2442 1805 612 412 2681 630 1493 2406 3 1975 2090 2091 1976 28 159 286 1 632 2329 2633 500 504 386 356 331 1786 1663 1239 1067 2714 2579 2592 2553 2283 1907 1909 2341 2329 2166 2632 2633 2605 2616 2626 2606 2426 2507 1808 1774 2681 412 415 1662 2573 2681 1662 1661 500 1120 1121 632 1536 1437 1454 1537 2591 2590 2546 2600 2029 2030 2031 2032 2076 2075 2516 2508 2132 2268 2096 2095 2091 2007 1947 1994 2663 2651 1509 1508 1561 1735 1463 1562 2130 2131 1974 1849 1120 2470 2354 1121 2707 2714 2553 2552 2090 2026 2007 2091 156 157 158 159 1796 1358 1360 1748 2406 2429 2469 2407 1646 1438 2439 2429 1353 1352 1396 1427 630 6 1492 1493 671 953 831 684 379 1216 975 378 2677 2614 2605 2604 1509 2284 2346 1508 2581 2591 2600 2582 2388 2321 2717 2705 2277 2283 2341 2181 1101 1066 1069 1102 2441 2449 410 2243 27 917 919 588 2051 2232 2161 2052 2590 2607 2547 2546 2443 773 989 2427 1658 2355 2323 1657 1618 1617 1773 1772 2588 2589 2590 2591 2181 2341 2090 1975 2346 2284 2495 2506 1648 1512 1786 1649 2096 2182 2183 2030 1014 1102 1105 1015 2616 2707 2552 2626 280 534 479 281 2342 2357 2690 2670 2668 2680 1704 1703 502 503 504 302 5 64 1353 1690 2662 2663 1508 1607 1702 1703 1704 1705 2608 2575 1657 1838 27 28 1 0 1830 2057 2284 1509 1949 2188 2372 2123 2507 2506 1720 1808 1907 1902 1908 1909 946 940 942 947 860 1047 1229 861 1562 1463 1466 1471 1646 1647 1439 1438 1774 1961 1962 1773 1947 1948 1949 1950 1703 2076 2097 1451 281 479 481 400 1428 1399 1437 1536 735 859 862 952 678 734 735 679 157 85 88 158 2702 2691 2631 2563 1472 1542 1232 771 2472 2498 2217 1856 2652 2670 1720 1808 2025 2069 2159 2008 2452 2425 1773 1617 2705 2717 2714 2707 1413 1414 1415 1416 2471 2472 1856 1859 1808 2024 1961 1774 2315 2048 2677 2659 2284 2057 2496 2495 2506 2495 1450 1720 2680 2692 1804 1704 2112 2111 2517 2422 2007 2008 1948 1947 2111 414 413 2517 1297 2382 2470 1120 385 279 282 461 188 377 380 615 400 481 576 401 88 87 187 186 2317 2318 2319 2182 2448 2453 1869 891 1542 1541 1101 1232 199 198 279 385 187 478 377 188 672 671 684 685 1541 1649 1066 1101 305 615 1569 1352 2318 2344 2189 2319 2319 2189 2071 2070 679 735 952 953 1437 1436 1455 1454 87 341 478 187 1493 1646 2429 2406 1580 1582 2447 2446 989 988 1129 1128 1416 1415 1645 1581 1896 2123 1926 1897 1899 1900 1901 1902 2165 2260 2652 2636 952 862 762 832 1849 1974 1977 1850 1396 1397 1398 1399 0 1 2 3 2024 2045 2510 2498 1015 1105 1060 1059 2659 2677 2604 2589 1748 1360 1746 1464 1397 1656 1659 1398 762 763 764 765 1719 1449 2651 2663 1902 1901 2066 1908 685 684 695 694 227 228 229 230 2717 2576 2579 2714 2268 2317 2182 2096 1563 1470 2402 2403 1662 2111 2112 1661 2232 1895 1898 2161 1359 1510 1355 1354 412 413 414 415 2530 2509 2270 2272 1455 1507 1510 1359 2390 2388 2705 2615 2038 2095 2029 2039 669 670 671 672 1360 1354 1357 1746 859 860 861 862 2108 2032 2277 2109 587 156 159 28 1067 1239 1108 1068 1463 1464 1465 1466 2221 646 229 2533 1909 1908 2025 2026 2109 2277 2181 2131 2425 2426 1774 1773 1066 1067 1068 1069 2562 2563 2564 2565 1263 677 670 669 1452 1451 1703 1702 1720 2045 2024 1808 1427 1396 1399 1428 2070 2071 1900 1899 378 2608 1838 379 1948 2185 2188 1949 1493 1492 1647 1646 1657 2323 2324 1838 2133 2132 2095 2038 1582 1581 1561 1560 1838 2324 1216 379 1059 1060 1061 1062 331 356 357 94 1618 1772 2575 2608 2496 2423 1703 1451 1128 1129 1130 1131 2288 2133 2038 2037 1581 1645 1735 1561 2498 2510 2375 2217 1465 1648 1649 1541 2047 2390 2615 2614 1471 1466 1542 1472 461 282 399 449 2510 2530 2272 2375 2564 2581 2582 2583 2509 2508 2378 2270 861 1229 993 763 2403 2402 2542 2540 1569 1831 1656 1397 449 399 402 450 2533 229 228 2303 2670 2690 1450 1720 2542 2427 563 2105 1895 1896 1897 1898 1775 1774 1808 1809 198 425 280 279 2057 2056 2423 2496 2131 2181 1975 1974 230 229 646 613 2576 2577 2578 2579 1961 2024 2498 2472 2592 2593 2594 2595 2356 2384 2668 2667 2469 2442 2174 2103 477 1618 2608 378 2347 2346 2506 2507 1414 1536 1537 1415 2604 2605 2606 2607 1464 1746 1648 1465 1470 1471 1472 1473 613 646 2221 1804 1105 945 948 1060 770 771 772 773 1512 1511 1663 1786 1773 1962 2382 1617 1617 2382 1297 501 1450 2098 2045 1720 1560 1561 1562 1563 2552 2553 2554 2555 1974 1975 1976 1977 2357 2356 2667 2690 1607 2347 2355 1658 2056 2112 2422 2423 1775 1809 2662 2574 1764 2056 2057 1830 2082 2002 2577 2576 945 946 947 948 386 385 461 356 2650 2572 1764 1830 1787 1428 1536 1414 2260 2342 2670 2652 1950 1949 2123 1896 953 952 832 831 1661 2112 2056 1764 85 86 87 88 1357 1356 1511 1512 1912 2180 2051 2050 1102 1069 945 1105 1563 1562 1471 1470 1560 1563 2403 2462 1508 2346 2347 1607 2495 2496 1451 1450 1809 1808 1720 1719 1582 1560 2462 2447 2180 2231 2232 2051 1439 1787 1414 1413 2032 2031 2283 2277 2615 2705 2707 2616 2516 2533 2303 2306 773 772 988 989 2110 2109 2131 2130 2470 2471 1859 2354 2040 2039 2108 2107 1452 1702 2572 2650 356 461 449 357 2045 2098 2530 2510 1399 1398 1436 1437 2030 2183 2279 2031 1962 1961 2472 2471 343 199 385 386 772 1014 1015 988 1977 1976 2325 2011 415 414 2111 1662 2575 2574 1658 1657 2422 2517 1804 1704 2039 2029 2032 2108 1911 2011 2180 1912 189 188 615 305 282 281 400 399 2660 2659 2589 2588 615 380 1831 1569 501 1297 1120 500 159 158 287 286 2508 2516 2306 2378 1994 1947 1950 1995 2321 2082 2576 2717 1691 1427 1428 1787 1354 1355 1356 1357 1358 1359 1354 1360 6 5 1690 1492 734 739 859 735 2366 2315 2659 2660 1473 1472 771 770 1451 2097 2098 1450 739 738 860 859 832 762 765 833 2446 2447 2448 2449 1746 1357 1512 1648 2633 2632 1773 1617 287 186 189 63 286 287 63 4 378 975 501 477 2691 2660 2588 2631 2182 2319 2070 2183 2011 2325 2231 2180 563 1128 1131 560 2565 2564 2583 2669 303 331 94 93 2607 2606 2628 2547 1060 948 1270 1061 2026 2025 2008 2007 2574 2662 1607 1658 1466 1465 1541 1542 2402 2443 2427 2542 2589 2604 2607 2590 1809 1719 2663 2662 1772 1773 1774 1775 2166 2165 2636 2632 399 400 401 402 2449 2448 891 410 862 861 763 762 1438 1440 2440 2439 2075 2221 2533 2516 2098 2097 2509 2530 2667 2668 1703 1451 3 2 6 630 1438 1439 1413 1440 1352 1569 1397 1396 2692 230 613 1804 2355 2347 2507 2426 1129 1059 1062 1130 947 942 1153 1154 2606 2626 2627 2628 94 357 283 95 2238 2237 2691 2702 2462 2403 2540 2453 1068 1108 940 946 86 340 341 87 1772 1775 2574 2575 2517 413 613 1804 2429 2439 2442 2469 4 63 64 5 2442 2441 2243 2174 612 613 413 412 975 2452 1617 501 2540 2542 2105 1866 1216 2324 2452 975 158 88 186 287 988 1015 1059 1129 1702 1705 2573 2572 1580 1416 1581 1582 2703 2702 2563 2562 2447 2462 2453 2448 1995 1950 1896 1895 186 187 188 189 2453 2540 1866 1869 588 587 28 27 2107 2108 2109 2110 771 1232 1014 772 500 2633 1617 501 2423 2422 1704 1703 2382 1962 2471 2470 93 94 95 96 1415 1537 1796 1645 2325 1994 1995 2231 2095 2096 2030 2029 1647 1691 1787 1439 2037 2038 2039 2040 1492 1690 1691 1647 948 947 1154 1270 1908 2066 2069 2025 2614 2615 2616 2605 2407 2469 2103 917 410 891 894 407 684 831 834 695 1649 1786 1067 1066 1735 1748 1464 1463 2553 2592 2595 2554 1473 770 773 2443 63 189 305 64 2323 2355 2426 2425 763 993 903 764 1398 1659 1606 1436 425 424 534 280 2632 2636 1774 1773 1704 2075 2076 1703 1719 1720 1450 1449 1804 2221 2075 1704 2563 2631 2581 2564 670 679 953 671 1470 1473 2443 2402 2383 2358 2692 2680 1537 1454 1358 1796 2341 1909 2026 2090 </p>
</polylist>
<polylist count="74" material="Material_170_170_170-material">
<input offset="0" semantic="VERTEX" source="#Plane-color-mesh-vertices"/>
<vcount>4 4 4 4 4 4 4 4 4 4 4 4 4 4 4 4 4 4 4 4 4 4 4 4 4 4 4 4 4 4 4 4 4 4 4 4 4 4 4 4 4 4 4 4 4 4 4 4 4 4 4 4 4 4 4 4 4 4 4 4 4 4 4 4 4 4 4 4 4 4 4 4 4 4 </vcount>
<p>2225 2226 2227 2228 1879 1878 2428 2419 508 507 2201 1997 1147 1148 1149 1150 325 324 506 505 2201 507 506 2474 2381 2362 2415 2541 2328 2327 2379 2380 1148 2419 2420 1149 1853 2202 2218 1854 1840 1839 1140 1139 2464 2411 2414 2465 2124 2125 2126 2127 1173 1879 2419 1148 740 72 1939 1942 1139 524 619 2374 1880 1879 1173 1172 908 683 909 910 1997 2201 2202 1853 1942 1941 2113 2114 242 241 1570 1571 2218 2202 2393 2392 523 472 473 524 1142 1141 472 523 1149 2420 2463 1219 505 506 507 508 322 323 324 325 2202 2201 2474 2393 2219 2218 2392 2416 1878 2381 2541 2428 653 652 741 740 1139 1140 1141 1142 908 242 2127 1168 2127 2126 680 1168 1150 1149 1219 1220 2711 2621 2328 2380 2380 2379 2226 2225 1255 2711 2380 2225 2228 2227 2253 2252 2621 653 2114 2328 1939 1940 1941 1942 663 1255 2225 2228 2386 2387 1940 1939 239 240 241 242 524 473 559 619 2525 2528 2544 2526 72 71 1839 1840 72 1840 2386 1939 2374 2373 2387 2386 242 1571 2124 2127 1172 1173 1148 1147 910 239 242 908 619 559 2373 2374 2352 2362 2381 2353 1877 1878 1879 1880 2114 2113 2327 2328 2524 2525 2526 2527 2353 2381 1878 1877 1168 680 683 908 2463 2464 2465 2466 2220 2219 2362 2352 663 662 1256 1255 1300 663 2228 2252 1840 1139 2374 2386 2362 2219 2416 2415 1854 2218 2219 2220 1571 1300 2252 2124 1142 523 524 1139 910 909 240 239 653 740 1942 2114 2475 324 323 2528 2474 506 324 2475 2252 2253 2125 2124 1571 1570 1301 1300 </p>
</polylist>
<polylist count="290" material="Material_34_34_34-material">
<input offset="0" semantic="VERTEX" source="#Plane-color-mesh-vertices"/>
<vcount>4 4 4 4 4 4 4 4 4 4 4 4 4 4 4 4 4 4 4 4 4 4 4 4 4 4 4 4 4 4 4 4 4 4 4 4 4 4 4 4 4 4 4 4 4 4 4 4 4 4 4 4 4 4 4 4 4 4 4 4 4 4 4 4 4 4 4 4 4 4 4 4 4 4 4 4 4 4 4 4 4 4 4 4 4 4 4 4 4 4 4 4 4 4 4 4 4 4 4 4 4 4 4 4 4 4 4 4 4 4 4 4 4 4 4 4 4 4 4 4 4 4 4 4 4 4 4 4 4 4 4 4 4 4 4 4 4 4 4 4 4 4 4 4 4 4 4 4 4 4 4 4 4 4 4 4 4 4 4 4 4 4 4 4 4 4 4 4 4 4 4 4 4 4 4 4 4 4 4 4 4 4 4 4 4 4 4 4 4 4 4 4 4 4 4 4 4 4 4 4 4 4 4 4 4 4 4 4 4 4 4 4 4 4 4 4 4 4 4 4 4 4 4 4 4 4 4 4 4 4 4 4 4 4 4 4 4 4 4 4 4 4 4 4 4 4 4 4 4 4 4 4 4 4 4 4 4 4 4 4 4 4 4 4 4 4 4 4 4 4 4 4 4 4 4 4 4 4 4 4 4 4 4 4 4 4 4 4 4 4 </vcount>
<p>1286 926 1559 1749 2514 1277 251 2515 2527 2526 2537 2536 1180 1209 1210 1181 2643 703 1028 1394 515 659 165 164 2392 2393 2394 2395 720 900 1458 1366 1203 1202 1289 1185 47 1408 659 515 923 924 925 926 924 944 1018 925 784 785 786 787 406 149 315 314 167 166 622 623 1296 249 654 1679 457 458 459 460 1794 1967 767 766 1107 1106 958 1734 721 1367 332 718 712 47 1755 1281 958 957 923 1106 164 165 166 167 2115 1636 1298 1209 1234 1265 1186 1164 435 436 437 311 1254 758 1064 1024 1686 373 375 1265 68 67 1835 1928 626 457 460 1683 344 1842 492 510 145 144 623 639 490 489 457 390 868 867 943 944 1210 1075 744 666 759 1709 2444 760 390 457 626 1699 458 65 68 459 944 1296 1293 868 35 513 516 36 620 310 313 621 47 515 164 48 2466 2465 2523 2489 2534 266 624 1832 268 267 569 66 1296 1552 250 249 465 626 1683 466 2437 166 165 2438 1734 620 621 2642 769 1289 1794 766 865 866 867 868 1261 1747 1064 758 1182 1181 665 974 2541 2415 2418 2500 1253 1261 758 1254 758 759 760 761 244 1835 344 510 926 925 1558 1559 1749 1559 435 485 711 57 774 712 2438 165 659 1408 1558 1679 654 436 1295 1681 598 1294 2393 2474 2475 2394 1284 1686 1265 1234 405 146 149 406 485 435 311 310 118 265 268 119 516 515 47 46 1164 1186 1185 1091 376 1832 624 148 373 128 374 375 61 360 37 447 2445 590 589 1811 786 830 958 1106 361 360 236 235 204 573 364 363 376 148 265 118 1734 958 310 620 1749 485 310 958 2417 2395 2524 2539 1086 1811 589 427 573 237 20 1318 639 623 517 640 349 345 65 458 1821 332 566 658 767 1253 1254 768 48 164 167 143 1177 1176 1636 2115 626 457 489 372 1111 801 1709 1064 1298 1636 744 1075 1699 626 465 464 1106 923 926 1286 2415 2416 2417 2418 125 126 127 128 785 829 830 786 718 719 720 721 149 148 376 315 345 344 66 65 944 943 1552 1296 1709 801 804 2444 20 617 2234 1318 36 516 46 448 359 37 360 361 616 639 640 617 1076 1814 2514 866 899 1042 1226 900 1686 1158 128 373 1785 622 166 2437 1163 1279 1156 1233 1028 1258 974 1394 1179 1180 1181 1182 721 720 1366 1367 1158 1157 1095 1283 1286 1749 958 1106 2642 621 703 2643 453 2696 1699 464 1334 1754 513 35 719 899 900 720 1075 1076 866 865 866 2514 2515 867 1835 67 66 344 249 250 251 252 925 1018 1679 1558 37 36 448 447 2235 1694 141 232 1235 718 332 1821 1287 1086 1085 1205 744 1814 1076 1075 658 566 488 487 2394 2475 2528 2525 1290 1098 1430 1429 640 517 1694 2235 1164 1163 1233 1234 60 2437 2438 57 565 405 406 566 974 1258 1231 1827 1042 1299 1832 376 1178 1296 944 924 492 1842 2494 329 713 712 1281 1259 452 2695 2696 453 2465 2414 2522 2523 2418 2417 2539 2412 65 66 67 68 1728 1833 627 618 203 235 238 204 1827 2116 1180 1179 769 768 1023 1289 1042 376 1459 1226 1333 34 37 447 141 1694 144 138 573 572 616 237 1294 1099 873 1295 784 2643 1394 756 787 786 1106 1107 1096 1287 1288 1097 876 875 1334 1333 144 1785 139 138 761 1065 1064 758 1694 517 623 144 1821 658 487 2695 460 459 1927 1683 1214 1109 1747 2027 452 990 718 1235 2027 1747 1261 1253 1681 359 361 598 126 618 426 127 376 148 147 1459 1181 1210 666 665 326 2534 1832 1299 867 2515 1552 943 1458 1459 147 146 1204 2445 1811 1291 626 349 458 457 1087 1086 1287 1096 427 589 590 428 1559 1558 436 435 2473 2500 2411 2464 1366 1458 146 405 1284 1283 1158 1686 1231 1184 2116 1827 329 2494 2534 326 1842 569 267 2494 2395 2394 2525 2524 2500 2418 2412 2411 766 767 768 769 364 573 1318 365 2419 2428 2473 2420 62 236 360 61 1430 1728 618 126 1283 1095 1098 1290 1098 1097 1728 1430 1367 1366 405 565 1295 873 447 1681 238 237 573 204 769 1289 1279 1163 1747 1109 1111 1064 1182 974 829 785 1287 1291 1811 1086 139 1785 2437 60 1041 326 1299 1042 2428 2541 2500 2473 2420 2473 2464 2463 787 2642 2643 784 1215 1214 2027 1967 761 760 1204 1205 1290 1429 1158 1283 146 147 148 149 47 515 514 1755 873 874 875 876 1086 427 627 1833 1636 1176 1249 744 487 488 489 490 1394 974 1182 756 868 1293 745 865 760 2444 2445 1204 333 488 566 332 1429 125 128 1158 237 616 617 20 1235 1821 2695 452 2695 487 490 2696 2416 2392 2395 2417 1289 1202 1201 1794 1157 1087 1096 1095 1259 1281 1755 1754 1064 1709 759 758 2116 2115 1209 1180 66 569 1842 344 57 2438 1408 774 34 35 36 37 436 654 249 437 265 266 267 268 617 640 2235 2234 1185 1289 769 1091 1683 1927 648 466 119 268 66 344 572 145 639 616 513 514 515 516 618 627 427 426 944 1296 1679 1018 148 624 266 265 1184 1177 2115 2116 712 774 1408 47 865 745 744 1075 1927 1928 243 648 1287 1086 1833 1288 372 489 488 333 1249 1248 1814 744 1681 447 37 359 1333 1334 35 34 1814 1248 1277 2514 566 406 314 332 1209 1298 1075 1210 756 1182 785 784 2526 2544 2543 2537 900 1226 1459 1458 1754 1755 514 513 1234 1233 1283 1284 598 361 235 203 2234 2235 232 231 2515 251 250 1552 1205 1085 1065 761 2444 804 590 2445 1095 1096 1097 1098 1205 1204 1291 1287 1182 974 1827 1179 957 1178 924 923 768 1254 1024 1023 2696 490 390 1699 235 236 237 238 2494 267 266 2534 1091 769 1163 1164 1318 2234 231 365 623 622 1785 144 874 713 1259 875 1233 1156 1158 1283 573 237 236 62 1429 1430 126 125 1107 1734 2642 787 1097 1288 1833 1728 1928 1835 244 243 875 1259 1754 1334 1201 1215 1967 1794 1967 2027 1253 767 1367 565 566 332 459 68 1928 1927 143 167 623 144 876 1333 447 873 </p>
</polylist>
<polylist count="74" material="Material_102_102_102-material">
<input offset="0" semantic="VERTEX" source="#Plane-color-mesh-vertices"/>
<vcount>4 4 4 4 4 4 4 4 4 4 4 4 4 4 4 4 4 4 4 4 4 4 4 4 4 4 4 4 4 4 4 4 4 4 4 4 4 4 4 4 4 4 4 4 4 4 4 4 4 4 4 4 4 4 4 4 4 4 4 4 4 4 4 4 4 4 4 4 4 4 4 4 4 4 </vcount>
<p>2106 562 561 2487 893 2397 2435 715 554 2468 2450 553 715 2435 2436 716 714 715 716 717 2212 2211 1195 883 2175 2242 2455 2454 2456 154 153 2501 1869 1868 892 891 2000 807 888 2244 1925 1924 190 638 939 2513 2212 883 410 409 2242 2243 938 939 883 882 1196 2340 1960 1197 2036 2338 2148 2151 808 807 2000 1954 291 549 552 261 263 262 153 152 917 918 600 919 891 892 893 894 553 2450 2451 564 2531 937 1218 2532 717 716 939 938 2487 561 937 2531 2326 551 550 1894 2532 1218 1093 2478 892 1868 2397 893 2276 2326 2338 1923 1922 1923 1924 1925 2501 153 262 2538 2105 2106 1867 1866 261 552 2276 2275 1866 1867 1868 1869 1195 1196 1197 1198 2478 1093 1094 1953 260 261 262 263 1094 808 1954 1953 2455 408 154 2456 1954 2000 2001 1955 1955 2001 2340 2211 2001 2000 2244 1957 155 154 408 407 716 2436 2513 939 2275 2276 1923 1922 564 2451 1925 638 2338 2326 1894 2148 918 2104 2467 600 1923 2338 2036 1924 152 153 154 155 1868 1867 2396 2397 549 550 551 552 563 562 2106 2105 882 883 884 885 2538 262 261 2275 560 561 562 563 1867 2106 2487 2396 883 1195 1198 884 290 291 261 260 191 2036 2151 292 552 551 2326 2276 2104 2175 2454 2467 1924 2036 191 190 407 408 409 410 2103 2104 918 917 1956 1955 2211 2212 2242 409 408 2455 894 893 715 714 1953 1954 1955 1956 2174 2175 2104 2103 2340 2001 1957 1960 2211 2340 1196 1195 2243 2242 2175 2174 600 2467 2468 554 </p>
</polylist>
<polylist count="100" material="Material_187_187_187-material">
<input offset="0" semantic="VERTEX" source="#Plane-color-mesh-vertices"/>
<vcount>4 4 4 4 4 4 4 4 4 4 4 4 4 4 4 4 4 4 4 4 4 4 4 4 4 4 4 4 4 4 4 4 4 4 4 4 4 4 4 4 4 4 4 4 4 4 4 4 4 4 4 4 4 4 4 4 4 4 4 4 4 4 4 4 4 4 4 4 4 4 4 4 4 4 4 4 4 4 4 4 4 4 4 4 4 4 4 4 4 4 4 4 4 4 4 4 4 4 4 4 </vcount>
<p>1279 1026 1030 1156 117 118 119 120 70 1520 1839 71 666 744 745 667 710 711 712 713 743 69 72 740 1365 1364 1513 1716 2673 2672 2621 2711 1023 1024 1025 1026 2413 2459 2460 2461 852 851 1490 1491 1030 1029 1087 1157 661 1555 1335 850 1836 1820 1489 1490 850 1836 1490 851 315 376 118 117 176 742 741 652 1255 1256 850 849 849 850 851 852 1600 1716 1572 1521 1025 1065 1085 1029 176 1556 1557 742 1799 1671 1674 1554 61 54 56 62 823 1293 1296 1178 316 117 120 348 333 316 348 372 960 1041 1042 899 1302 1554 1555 661 740 741 742 743 852 1491 2673 849 2459 2527 2536 2460 1556 1362 1365 1557 1716 1513 1573 1572 55 143 144 145 1029 1085 1086 1087 447 448 54 61 1362 1363 1364 1365 1776 1784 1390 1336 974 665 668 829 128 127 535 374 661 850 1256 662 1491 1488 2672 2673 1024 1064 1065 1025 1303 660 663 1300 177 176 652 653 990 959 719 718 1300 1301 1302 1303 310 311 312 313 743 742 70 69 1156 1030 1157 1158 742 1557 1600 70 2411 2412 2413 2414 311 437 557 312 120 119 344 345 1491 1490 1489 1488 2539 2524 2527 2459 1488 1489 175 174 1100 710 713 874 437 249 252 557 2672 177 653 2621 1671 1672 1673 1674 1303 1302 661 660 49 48 143 55 1557 1365 1716 1600 372 348 349 626 448 46 49 54 1289 1023 1026 1279 665 666 667 668 70 1600 1521 1520 959 960 899 719 1026 1025 1029 1030 314 315 117 316 69 70 71 72 2412 2539 2459 2413 1554 1674 1776 1555 1800 1799 1554 1302 1800 1302 1301 1570 668 667 823 824 174 175 176 177 1674 1673 1784 1776 824 823 1178 957 1488 174 177 2672 426 427 428 429 667 745 1293 823 849 2673 2711 1255 348 120 345 349 2414 2413 2461 2522 1099 1100 874 873 660 661 662 663 54 49 55 56 127 426 429 535 332 314 316 333 829 668 824 830 62 56 572 573 56 55 145 572 1555 1776 1336 1335 1820 176 175 1489 46 47 48 49 830 824 957 958 </p>
</polylist>
<polylist count="16" material="Material_255_255_255-material">
<input offset="0" semantic="VERTEX" source="#Plane-color-mesh-vertices"/>
<vcount>4 4 4 4 4 4 4 4 4 4 4 4 4 4 4 4 </vcount>
<p>747 1238 1170 748 325 2488 394 322 2488 257 114 394 104 103 392 391 689 688 1238 747 2545 392 103 2476 505 2535 2488 325 2480 1150 1220 1190 216 257 258 259 115 114 257 216 2421 1147 1150 2480 688 2421 2480 1238 995 2484 2490 912 2535 258 257 2488 1238 2480 1190 1170 994 995 912 911 </p>
</polylist>
<polylist count="4" material="Material_221_221_221-material">
<input offset="0" semantic="VERTEX" source="#Plane-color-mesh-vertices"/>
<vcount>4 4 4 4 </vcount>
<p>2600 2546 1851 1910 2128 2107 2110 2129 2627 2555 2128 2129 1851 1850 1911 1910 </p>
</polylist>
<polylist count="10" material="Material_255_153_51-material">
<input offset="0" semantic="VERTEX" source="#Plane-color-mesh-vertices"/>
<vcount>4 4 4 4 4 4 4 4 4 4 </vcount>
<p>687 1872 2421 688 2373 559 89 2637 2250 604 258 2535 1871 1872 687 686 1192 1193 681 680 680 2126 2648 1192 259 258 604 605 686 687 688 689 559 142 90 89 605 604 2250 2249 </p>
</polylist>
<polylist count="14" material="Material_238_0_0-material">
<input offset="0" semantic="VERTEX" source="#Plane-color-mesh-vertices"/>
<vcount>4 4 4 4 4 4 4 4 4 4 4 4 4 4 </vcount>
<p>2129 2110 2130 2333 92 91 307 306 1166 2556 2559 1113 2567 92 306 2568 1113 1011 1165 1166 89 90 91 92 1166 1165 1193 1192 2637 89 92 2567 2546 2547 1848 1851 2547 2628 2333 1848 1848 1849 1850 1851 2333 2130 1849 1848 2628 2627 2129 2333 1192 2648 2556 1166 </p>
</polylist>
<polylist count="16" material="Material_153_0_0-material">
<input offset="0" semantic="VERTEX" source="#Plane-color-mesh-vertices"/>
<vcount>4 4 4 4 4 4 4 4 4 4 4 4 4 4 4 4 </vcount>
<p>2397 2396 2458 2435 2503 2538 2275 1922 2468 2457 2479 2450 2450 2479 2503 2451 2454 2455 2456 2457 2396 2487 2531 2458 2435 2458 2512 2436 2436 2512 2477 2513 2467 2454 2457 2468 2458 2531 2532 2512 2451 2503 1922 1925 2477 2478 1953 1956 2513 2477 1956 2212 2479 2501 2538 2503 2512 2532 2478 2477 2457 2456 2501 2479 </p>
</polylist>
</mesh>
</geometry>
</library_geometries>
<library_visual_scenes>
<visual_scene id="Scene" name="Scene">
<node id="PlaneCOL" name="PlaneCOL" type="NODE">
<translate sid="location">0 0 0</translate>
<rotate sid="rotationZ">0 0 1 0</rotate>
<rotate sid="rotationY">0 1 0 0</rotate>
<rotate sid="rotationX">1 0 0 0</rotate>
<scale sid="scale">0.05 0.05 0.05</scale>
<instance_geometry url="#Plane-color-mesh">
<bind_material>
<technique_common>
<instance_material symbol="Material_221_221_221-material" target="#Material_221_221_221-material"/>
<instance_material symbol="Material_153_0_0-material" target="#Material_153_0_0-material"/>
<instance_material symbol="Material_255_255_255-material" target="#Material_255_255_255-material"/>
<instance_material symbol="Material_187_187_187-material" target="#Material_187_187_187-material"/>
<instance_material symbol="Material_51_102_51-material" target="#Material_51_102_51-material"/>
<instance_material symbol="Material_34_34_34-material" target="#Material_34_34_34-material"/>
<instance_material symbol="Material_102_102_102-material" target="#Material_102_102_102-material"/>
<instance_material symbol="Material_255_153_51-material" target="#Material_255_153_51-material"/>
<instance_material symbol="Material_51_51_51-material" target="#Material_51_51_51-material"/>
<instance_material symbol="Material_238_0_0-material" target="#Material_238_0_0-material"/>
<instance_material symbol="Material_170_170_170-material" target="#Material_170_170_170-material"/>
<instance_material symbol="Material_68_68_68-material" target="#Material_68_68_68-material"/>
</technique_common>
</bind_material>
</instance_geometry>
</node>
</visual_scene>
</library_visual_scenes>
<scene>
<instance_visual_scene url="#Scene"/>
</scene>
</COLLADA>
